#     Step          Temp           Pot           Kin           Tot         Press
         0             2       2.32503       1.77778        4.1028       19.0756
         1       1.67497       2.61613       1.48886       4.10499       20.0353
         2       1.37692        2.8834       1.22393       4.10733       20.8486
         3       1.14762        3.0892       1.02011       4.10931       21.4436
         4       1.02168       3.20224      0.908162        4.1104       21.7628
         5       1.01818       3.20527      0.905049       4.11032       21.7736
         6       1.13577       3.09953       1.00958       4.10911       21.4753
         7       1.35352       2.90401       1.20313       4.10714       20.8976
         8       1.63698       2.64986        1.4551       4.10496       20.0923
         9       1.94695       2.37242       1.73063       4.10305       19.1224
        10       2.24775       2.10372         1.998       4.10171       18.0514
        11       2.51264        1.8676       2.23345       4.10106       16.9364
        12       2.72597       1.67793       2.42308       4.10101       15.8245
        13       2.88247       1.53922        2.5622       4.10142       14.7515
        14       2.98496       1.44881        2.6533       4.10211       13.7429
        15       3.04146        1.3994       2.70352       4.10292       12.8142
        16       3.06332       1.38103       2.72295       4.10399       11.9991
        17       3.06248       1.38244       2.72221       4.10465       11.2808
        18       3.04889       1.39509       2.71012       4.10522       10.6365
        19       3.03043       1.41195       2.69372       4.10566       10.0616
        20       3.01331        1.4275        2.6785         4.106       9.54897
        21       3.00196       1.43781       2.66841       4.10622       9.09003
        22       2.99923       1.44038       2.66598       4.10636       8.67629
        23       3.00656       1.43393       2.67249       4.10643       8.29997
        24       3.02433       1.41815       2.68829       4.10645       7.96543
        25        3.0521       1.39344       2.71297       4.10641       7.65833
        26       3.08871       1.36084       2.74552       4.10636       7.37331
        27       3.13264       1.32172       2.78457       4.10629        7.1088
        28       3.18225       1.27756       2.82866       4.10622       6.86436
        29        3.2359        1.2298       2.87636       4.10616       6.64032
        30       3.29225       1.17967       2.92644       4.10611       6.44993
        31       3.35016       1.12815       2.97792       4.10608        6.2807
        32        3.4087        1.0761       3.02996       4.10606       6.13315
        33       3.46722       1.02408       3.08198       4.10605       6.00771
        34       3.52535       0.97241       3.13365       4.10606       5.90432
        35       3.58298      0.921204       3.18487       4.10608        5.8225
        36       3.64019      0.870377       3.23572        4.1061       5.76122
        37       3.69722      0.819711       3.28642       4.10613        5.7189
        38       3.75443      0.768887       3.33727       4.10616       5.69336
        39       3.81223      0.717531       3.38865       4.10618       5.68177
        40       3.87129      0.665111       3.44115       4.10626       5.69709
        41       3.93091      0.612048       3.49414       4.10619       5.77229
        42       3.98944      0.559919       3.54617       4.10609       5.86102
        43       4.04553       0.50991       3.59603       4.10594       5.96187
        44       4.09714      0.463835        3.6419       4.10573       6.07633
        45       4.14142       0.42417       3.68126       4.10543       6.21372
        46        4.1743      0.394528       3.71049       4.10502       6.36046
        47       4.19022      0.379858       3.72464       4.10449       6.51889
        48        4.1821      0.386441       3.71743       4.10387        6.6967
        49       4.14162       0.42169       3.68144       4.10313       6.90719
        50       4.05959      0.493791       3.60852       4.10231       7.16097
        51       3.92733      0.610758       3.49096       4.10171       7.47726
        52       3.73994      0.777132       3.32439       4.10152       7.84738
        53       3.50066      0.990369       3.11169       4.10206       8.26784
        54       3.22539       1.23656       2.86701       4.10357       8.70132
        55       2.94576       1.48753       2.61845       4.10598       9.07867
        56       2.70665       1.70277       2.40591       4.10867       9.30873
        57       2.55543       1.83913       2.27149       4.11062       9.29352
        58       2.52525       1.86625       2.24466       4.11091       8.98282
        59       2.62117       1.77949       2.32993       4.10942       8.40717
        60       2.81847       1.60164       2.50531       4.10694       7.66773
        61       3.07413       1.37193       2.73256       4.10449       6.90061
        62       3.34325       1.13099       2.97178       4.10277       6.22953
        63       3.59103      0.909919       3.19202       4.10194       5.73265
        64       3.79687      0.726842         3.375       4.10184       5.43803
        65       3.95275      0.588644       3.51355        4.1022       5.34024
        66       4.05913      0.494635       3.60811       4.10275       5.40817
        67       4.12119      0.440077       3.66328       4.10336       5.59795
        68       4.14611      0.418513       3.68543       4.10395       5.87199
        69       4.14153      0.423105       3.68136       4.10447       6.20023
        70       4.11476      0.447361       3.65756       4.10492       6.54962
        71       4.07235       0.48544       3.61987        4.1053       6.89793
        72       4.02002      0.532266       3.57335       4.10562        7.2282
        73       3.96187      0.584112       3.52167       4.10578       7.56168
        74       3.90087      0.638564       3.46744         4.106       7.87159
        75       3.84049      0.692253       3.41377       4.10602       8.18564
        76       3.78277      0.743535       3.36246         4.106       8.45475
        77       3.72757      0.792553       3.31339       4.10595        8.6846
        78       3.67419      0.839925       3.26595       4.10587       8.88217
        79       3.62158      0.886601       3.21918       4.10579       9.05512
        80       3.56852      0.933682       3.17202        4.1057       9.21107
        81       3.51354      0.982451       3.12315        4.1056       9.37849
        82       3.45529       1.03417       3.07137       4.10553       9.54771
        83       3.39301       1.08949       3.01601        4.1055       9.72102
        84       3.32646       1.14864       2.95686       4.10549       9.90093
        85       3.25595       1.21135       2.89418       4.10552       10.0878
        86       3.18238        1.2768       2.82878       4.10559       10.2799
        87       3.10731       1.34364       2.76205       4.10569        10.473
        88        3.0329       1.40991       2.69591       4.10582        10.661
        89       2.96186       1.47321       2.63276       4.10597       10.8357
        90       2.89716       1.53085       2.57525        4.1061       10.9947
        91       2.84165       1.58031       2.52591       4.10622       11.1321
        92       2.79766       1.61947       2.48681       4.10628       11.2327
        93       2.76651       1.64713       2.45912       4.10625       11.2936
        94       2.74792       1.66352        2.4426       4.10611       11.3169
        95       2.73987       1.67045       2.43544       4.10588        11.311
        96       2.73877       1.67113       2.43447        4.1056       11.2892
        97       2.74009       1.66966       2.43564        4.1053       11.2678
        98       2.73915       1.67025        2.4348       4.10505       11.2634
        99       2.73205       1.67641       2.42849        4.1049       11.2894
       100       2.71642       1.69027        2.4146       4.10487       11.3536
       101       2.69207       1.71207       2.39295       4.10502       11.4702
       102       2.66094       1.73993       2.36528        4.1052       11.6253
       103       2.62644       1.77084       2.33462       4.10545       11.7962
       104       2.59301       1.80083        2.3049       4.10573       11.9663
       105       2.56542        1.8256       2.28038       4.10597       12.1176
       106       2.54809        1.8412       2.26497       4.10617       12.2335
       107        2.5446       1.84444       2.26187       4.10631       12.3002
       108       2.55753       1.83304       2.27336       4.10641       12.3079
       109       2.58853       1.80554       2.30091       4.10645       12.2552
       110       2.63846       1.76119        2.3453       4.10648       12.1402
       111       2.70764        1.6997       2.40679       4.10649       11.9552
       112       2.79572       1.62136       2.48508       4.10645       11.7013
       113       2.90149       1.52725        2.5791       4.10635       11.3827
       114       3.02252       1.41945       2.68668       4.10613       11.0185
       115       3.15513       1.30136       2.80456       4.10592       10.6224
       116       3.29488        1.1769       2.92879       4.10569       10.1985
       117       3.43711       1.05026       3.05521       4.10547       9.76159
       118       3.57724      0.925509       3.17977       4.10528       9.32541
       119       3.71123       0.80626       3.29887       4.10513       8.90092
       120        3.8351      0.695953       3.40898       4.10493       8.52939
       121       3.94535      0.597856       3.50698       4.10484       8.19367
       122       4.03965      0.513957        3.5908       4.10476       7.89068
       123       4.11623      0.445817       3.65887       4.10469       7.61873
       124       4.17357      0.394769       3.70984       4.10461       7.37389
       125       4.21033      0.362004       3.74252       4.10452       7.16199
       126       4.22512      0.348751       3.75566       4.10441       6.96521
       127       4.21641      0.356376       3.74792       4.10429       6.77705
       128       4.18267      0.386243       3.71793       4.10417       6.59166
       129       4.12256      0.439566        3.6645       4.10406       6.40383
       130       4.03526      0.517141       3.58689       4.10404       6.21334
       131       3.92102       0.61867       3.48535       4.10402       6.02981
       132       3.78131      0.742952       3.36116       4.10412       5.82977
       133       3.61915      0.887321       3.21702       4.10434       5.61129
       134       3.43995         1.047       3.05773       4.10473       5.37198
       135       3.25172       1.21485       2.89042       4.10527       5.10858
       136       3.06547       1.38105       2.72486       4.10592       4.84508
       137       2.89385       1.53428       2.57231       4.10659       4.55474
       138       2.74944       1.66328       2.44395       4.10723       4.23157
       139       2.64369       1.75777       2.34994       4.10771       3.87722
       140       2.58506        1.8101       2.29784       4.10793       3.50431
       141       2.57764       1.81664       2.29124       4.10788       3.13405
       142       2.62051       1.77823       2.32934       4.10757       2.79449
       143       2.70826       1.69974       2.40734       4.10708       2.51633
       144        2.8322       1.58901       2.51751       4.10652       2.32732
       145       2.98192       1.45536       2.65059       4.10595       2.24712
       146       3.14681       1.30829       2.79716       4.10545       2.28406
       147       3.31713        1.1565       2.94856       4.10505       2.43432
       148       3.48469       1.00726       3.09751       4.10477       2.68352
       149       3.64313      0.866247       3.23834       4.10458       3.00969
       150       3.78787      0.737503       3.36699        4.1045       3.38689
       151       3.91599      0.623604       3.48088       4.10449       3.78861
       152       4.02598      0.525881       3.57865       4.10453       4.19046
       153       4.11746      0.444657       3.65997       4.10463       4.57205
       154       4.19091      0.379492       3.72526       4.10475       4.91788
       155       4.24716      0.329524       3.77525       4.10478       5.23386
       156       4.28715      0.294109        3.8108        4.1049       5.51529
       157       4.31218       0.27198       3.83305       4.10503       5.74952
       158       4.32368      0.261785       3.84327       4.10506        5.9481
       159       4.32248      0.262933       3.84221       4.10514       6.14366
       160       4.30931      0.274717        3.8305       4.10521       6.31607
       161       4.28508      0.296301       3.80896       4.10526       6.47419
       162       4.25078      0.326946       3.77847       4.10542       6.63941
       163       4.20757      0.365396       3.74006       4.10546       6.83232
       164       4.15599      0.411212       3.69421       4.10543        7.0315
       165        4.0958      0.464672       3.64071       4.10538        7.2395
       166        4.0266      0.526139        3.5792       4.10534       7.46445
       167         3.948      0.595965       3.50933        4.1053       7.71312
       168       3.85975      0.674382       3.43089       4.10527       7.99052
       169       3.76189       0.76136        3.3439       4.10526       8.29949
       170       3.65496       0.85644       3.24886        4.1053       8.64015
       171       3.54018      0.958552       3.14682       4.10538       9.01271
       172       3.41962       1.06586       3.03966       4.10552       9.40943
       173        3.2961       1.17576       2.92987       4.10563        9.8352
       174       3.17331       1.28517       2.82072       4.10588       10.2717
       175       3.05599       1.38973       2.71644       4.10617       10.6909
       176       2.94958       1.48461       2.62185       4.10646       11.0734
       177       2.85955       1.56494       2.54182       4.10677       11.4117
       178       2.79067       1.62634       2.48059       4.10693       11.6846
       179       2.74605       1.66605       2.44094       4.10699       11.8719
       180       2.72683       1.68308       2.42385       4.10693       11.9702
       181       2.73203       1.67829       2.42847       4.10677       11.9834
       182       2.75885       1.65421       2.45231       4.10652       11.9225
       183       2.80304       1.61465       2.49159       4.10624       11.8036
       184       2.85946       1.56417       2.54174       4.10591       11.6511
       185       2.92257       1.50779       2.59784       4.10563       11.4949
       186       2.98706       1.45021       2.65517       4.10538        11.342
       187       3.04833       1.39555       2.70963       4.10518       11.2099
       188       3.10252       1.34722        2.7578       4.10502        11.113
       189       3.14656       1.30794       2.79694       4.10488       11.0664
       190       3.17808       1.27984       2.82496        4.1048       11.0858
       191       3.19549       1.26433       2.84043       4.10477       11.1768
       192       3.19804       1.26206        2.8427       4.10477       11.3271
       193        3.1859        1.2729       2.83191       4.10481       11.5332
       194       3.16001         1.296       2.80889       4.10489       11.7877
       195       3.12215       1.32978       2.77524       4.10502       12.0792
       196       3.07502       1.37186       2.73335        4.1052        12.392
       197       3.02223         1.419       2.68643       4.10543       12.7064
       198       2.96828       1.46723       2.63847        4.1057        13.004
       199       2.91833       1.51193       2.59407         4.106       13.2535
       200       2.87788       1.54817       2.55811       4.10628       13.4258
       201       2.85211       1.57129       2.53521        4.1065       13.4937
       202        2.8452       1.57757       2.52906       4.10663       13.4336
       203        2.8595       1.56484       2.54178       4.10662       13.2287
       204       2.89513       1.53303       2.57345       4.10648       12.8708
       205       2.94984       1.48417       2.62208       4.10624       12.3736
       206       3.01942       1.42197       2.68393       4.10589       11.7508
       207       3.09807       1.35166       2.75384       4.10551        11.001
       208       3.17923       1.27918       2.82598       4.10516       10.1547
       209        3.2567       1.21005       2.89485       4.10489       9.22318
       210       3.32546       1.14875       2.95596       4.10471       8.22799
       211       3.38202       1.09842       3.00624       4.10466       7.19517
       212       3.42458       1.06059       3.04407       4.10466       6.14782
       213       3.45284       1.03556        3.0692       4.10475       5.09528
       214        3.4679       1.02233       3.08258        4.1049       4.07234
       215       3.47198        1.0189        3.0862        4.1051        3.0849
       216        3.4681       1.02257       3.08276       4.10533        2.1552
       217       3.45986       1.03014       3.07543       4.10557       1.30605
       218       3.45106        1.0382       3.06761       4.10581      0.559771
       219       3.44523       1.04348       3.06243       4.10591    -0.0523835
       220       3.44492        1.0439       3.06215       4.10605     -0.490816
       221       3.45185       1.03781       3.06831       4.10612     -0.762276
       222       3.46712       1.02424       3.08188       4.10613     -0.865406
       223       3.49066       1.00325       3.10281       4.10606     -0.798872
       224       3.52124      0.975938       3.12999       4.10593      -0.56773
       225       3.55652      0.944397       3.16135       4.10574     -0.182761
       226       3.59339      0.911462       3.19413       4.10559      0.352802
       227       3.62832      0.880216       3.22517       4.10539       1.02279
       228       3.65745      0.854028       3.25107       4.10509       1.81106
       229       3.67652      0.836796       3.26802       4.10481       2.67425
       230       3.68105      0.832509       3.27205       4.10455       3.59599
       231       3.66712      0.844675       3.25966       4.10434       4.56194
       232       3.63164      0.876052       3.22813       4.10418       5.55983
       233       3.57274      0.928339       3.17577       4.10411       6.57871
       234       3.49012       1.00182       3.10232       4.10414       7.60753
       235       3.38549       1.09499       3.00932       4.10432       8.63329
       236       3.26291       1.20427       2.90036       4.10463       9.63927
       237       3.12879       1.32392       2.78115       4.10507        10.604
       238       2.99154       1.44643       2.65915       4.10558       11.5019
       239       2.86054       1.56336        2.5427       4.10607       12.3059
       240       2.74459       1.66679       2.43964       4.10643       12.9919
       241       2.65024       1.75081       2.35577       4.10658       13.5445
       242       2.58042        1.8128       2.29371        4.1065       13.9607
       243       2.53401       1.85377       2.25245       4.10623       14.2513
       244       2.50643       1.87789       2.22794       4.10583       14.4383
       245         2.491        1.8912       2.21422       4.10542       14.5503
       246       2.48058       1.90011       2.20496       4.10507       14.6194
       247       2.46895       1.91019       2.19462       4.10481       14.6798
       248       2.45181       1.92534       2.17938       4.10472       14.7442
       249        2.4275       1.94702       2.15778        4.1048       14.8121
       250       2.39751       1.97394       2.13112       4.10506       14.8782
       251        2.3665       2.00194       2.10355       4.10549       14.9255
       252       2.34206       2.02421       2.08183       4.10604       14.9261
       253       2.33371       2.03219       2.07441        4.1066       14.8448
       254       2.35108       2.01719       2.08985       4.10704       14.6456
       255       2.40153       1.97253       2.13469       4.10722          14.3
       256       2.48805       1.89548        2.2116       4.10708       13.7946
       257       2.60815       1.78829       2.31836       4.10665       13.1348
       258       2.75397       1.65792       2.44798        4.1059       12.3615
       259        2.9139       1.51509       2.59013       4.10522       11.5144
       260       3.07551       1.37087       2.73378       4.10465       10.6255
       261       3.22777       1.23507       2.86913        4.1042       9.73804
       262       3.36196       1.11551        2.9884       4.10391       8.87272
       263       3.47196       1.01759       3.08619       4.10378       8.05473
       264       3.55437      0.944334       3.15944       4.10377        7.3121
       265       3.60796      0.896758       3.20707       4.10383       6.65436
       266       3.63307       0.87455       3.22939       4.10395       6.08876
       267       3.63131      0.876275       3.22783       4.10411       5.62637
       268       3.60538      0.899539       3.20478       4.10432       5.27742
       269       3.55896      0.941059       3.16352       4.10458       5.05239
       270       3.49678      0.996648       3.10825       4.10489       4.95647
       271       3.42456       1.06121       3.04405       4.10526       4.99089
       272       3.34896       1.12881       2.97686       4.10567       5.15119
       273       3.27726       1.19297       2.91312       4.10609       5.42547
       274       3.21676       1.24712       2.85934       4.10647        5.7942
       275       3.17401       1.28542       2.82134       4.10676       6.23146
       276       3.15381       1.30351       2.80339        4.1069       6.70756
       277       3.15845       1.29936       2.80752       4.10687       7.19243
       278       3.18728       1.27354       2.83314       4.10669       7.65902
       279       3.23719       1.22894       2.87751       4.10645        8.1058
       280       3.30304       1.17004       2.93604       4.10608       8.50019
       281       3.37832       1.10278       3.00295       4.10573        8.8262
       282       3.45655       1.03296       3.07249       4.10545        9.0802
       283       3.53233      0.965413       3.13985       4.10526       9.26197
       284       3.60178      0.903594       3.20158       4.10518       9.37364
       285       3.66257      0.849531       3.25562       4.10515       9.42464
       286       3.71376       0.80409       3.30112       4.10521       9.42155
       287       3.75547      0.767105       3.33819        4.1053       9.36361
       288       3.78857      0.737784       3.36762       4.10541       9.25721
       289       3.81429      0.715031       3.39048       4.10551       9.10924
       290       3.83392      0.697685       3.40793       4.10561        8.9268
       291       3.84866      0.684662       3.42103       4.10569       8.71702
       292       3.85955      0.675048       3.43071       4.10576       8.48682
       293        3.8674      0.668122       3.43769       4.10581       8.24274
       294        3.8728      0.663364       3.44249       4.10585       7.99079
       295       3.87614       0.66042       3.44546       4.10588       7.73635
       296       3.87769      0.659062       3.44683        4.1059       7.49005
       297        3.8776      0.659152       3.44676       4.10591       7.25066
       298       3.87592      0.660653       3.44526       4.10592       7.02064
       299       3.87264      0.663577       3.44234       4.10592       6.80261
       300       3.86775      0.667954         3.438       4.10596       6.60152
       301       3.86156      0.673449        3.4325       4.10595        6.4362
       302       3.85423      0.679962       3.42598       4.10594       6.28366
       303       3.84559      0.687636        3.4183       4.10594       6.14499
       304       3.83555      0.696566       3.40937       4.10594       6.02083
       305       3.82389      0.706814       3.39901       4.10583       5.91755
       306       3.80947      0.719605       3.38619        4.1058       5.88433
       307       3.79095         0.736       3.36973       4.10573       5.88224
       308       3.76751      0.756757        3.3489       4.10565       5.91004
       309       3.73808      0.782813       3.32274       4.10555       5.97114
       310       3.70138      0.815312       3.29012       4.10543       6.06965
       311       3.65585      0.855632       3.24965       4.10528       6.21045
       312       3.59967      0.905394       3.19971        4.1051       6.39915
       313        3.5308      0.966423       3.13849       4.10491       6.64195
       314       3.44655       1.04099        3.0636       4.10459       6.99038
       315        3.3442       1.13174       2.97262       4.10436       7.44332
       316       3.22189       1.24029        2.8639        4.1042       7.97308
       317       3.07902       1.36724       2.73691       4.10415        8.5799
       318       2.91734        1.5111       2.59319       4.10429       9.25853
       319       2.74195        1.6674       2.43729       4.10468       9.98685
       320       2.56202       1.82796       2.27735       4.10531       10.7296
       321       2.39054       1.98116       2.12493       4.10609       11.4402
       322        2.2425       2.11349       1.99333       4.10682       12.0652
       323       2.13163       2.21247       1.89479       4.10726       12.5557
       324       2.06657       2.27028       1.83695       4.10724       12.8835
       325       2.04803       2.28626       1.82047       4.10673       13.0467
       326       2.06866       2.26711       1.83881       4.10592       13.0681
       327       2.11581       2.22437       1.88072       4.10509       12.9917
       328       2.17605       2.17025       1.93427       4.10451       12.8732
       329       2.23955       2.11363       1.99071       4.10435       12.7392
       330       2.30273       2.05771       2.04687       4.10459       12.6017
       331       2.36838       1.99988       2.10523       4.10511       12.4519
       332       2.44364       1.93357       2.17213        4.1057       12.2661
       333       2.53677       1.85125       2.25491       4.10616       12.0167
       334        2.6538       1.74741       2.35893       4.10634       11.6835
       335       2.79628       1.62063       2.48558       4.10622       11.2613
       336       2.96079       1.47406       2.63181       4.10587       10.7617
       337       3.14005       1.31427       2.79116       4.10542       10.2088
       338       3.32505        1.1494        2.9556         4.105       9.63197
       339       3.50707      0.987294        3.1174       4.10469       9.05806
       340       3.67909      0.834211       3.27031       4.10452       8.50682
       341       3.83634      0.694377       3.41008       4.10446       7.98852
       342       3.97616      0.570121       3.53437       4.10449       7.50414
       343       4.09769      0.462267       3.64239       4.10466       7.06459
       344       4.20134      0.370136       3.73452       4.10466       6.69264
       345       4.28718      0.293823       3.81083       4.10465       6.32934
       346       4.35465      0.233833        3.8708       4.10463       5.95139
       347       4.40309      0.190726       3.91386       4.10459       5.53994
       348       4.43158       0.16533       3.93918       4.10451       5.08076
       349       4.43893      0.158702       3.94572       4.10442       4.56214
       350       4.42409      0.171853       3.93252       4.10438       3.98986
       351       4.38625      0.205426       3.89888       4.10431       3.35193
       352       4.32505       0.25981       3.84449        4.1043       2.64677
       353       4.24114      0.334472        3.7699       4.10437       1.88704
       354       4.13698      0.427396       3.67732       4.10471       1.11154
       355       4.01707      0.534235       3.57073       4.10496      0.354117
       356       3.88728      0.649981       3.45536       4.10534     -0.373538
       357       3.75498      0.768044       3.33776        4.1058      -1.03029
       358       3.62896      0.880562       3.22575       4.10631      -1.57151
       359        3.5186      0.979152       3.12764       4.10679      -1.95587
       360       3.43271       1.05589       3.05129       4.10719         -2.15
       361       3.37839       1.10441       3.00302       4.10743      -2.13276
       362       3.35996       1.12084       2.98663       4.10747      -1.89818
       363       3.37821       1.10446       3.00285       4.10731      -1.45647
       364       3.43024       1.05787        3.0491       4.10697     -0.833051
       365       3.50993      0.986562       3.11994        4.1065    -0.0655131
       366       3.60882      0.898126       3.20784       4.10597      0.806707
       367       3.71738      0.801134       3.30433       4.10547       1.73311
       368       3.82631      0.703895       3.40116       4.10506        2.6633
       369       3.92762      0.613543       3.49122       4.10476       3.55545
       370       4.01532      0.535435       3.56917       4.10461       4.37562
       371       4.08564      0.472905       3.63168       4.10458       5.09902
       372       4.13697      0.427355        3.6773       4.10466       5.71018
       373       4.16953      0.398561       3.70625       4.10481       6.20212
       374       4.18489      0.385105        3.7199       4.10501       6.57502
       375       4.18548        0.3848       3.72043       4.10523       6.83868
       376       4.17416      0.395073       3.71037       4.10544       7.00126
       377       4.15383      0.413338        3.6923       4.10564       7.07138
       378       4.12685      0.437396       3.66831        4.1057       7.08263
       379       4.09496      0.465865       3.63996       4.10583       7.04143
       380       4.05973      0.497268       3.60865       4.10592       6.95249
       381       4.02212      0.530712       3.57522       4.10593       6.85183
       382        3.9825      0.565952          3.54       4.10595       6.74181
       383       3.94109      0.602756       3.50319       4.10595       6.62278
       384       3.89781      0.641208       3.46472       4.10593       6.50432
       385       3.85227      0.681645       3.42424       4.10589       6.39488
       386        3.8039      0.724594       3.38124       4.10584       6.30184
       387        3.7519      0.770747       3.33503       4.10577        6.2402
       388       3.69544      0.820873       3.28484       4.10571       6.20808
       389       3.63374      0.875663       3.22999       4.10565       6.20881
       390       3.56617      0.935676       3.16993       4.10561       6.24512
       391        3.4924       1.00123       3.10436       4.10559       6.31813
       392        3.4125       1.07226       3.03334       4.10559       6.42702
       393       3.32711        1.1482       2.95743       4.10564       6.57057
       394       3.23754       1.22791       2.87782       4.10573        6.7461
       395       3.14589       1.30952       2.79634       4.10587       6.94114
       396       3.05503       1.39046       2.71558       4.10605        7.1445
       397       2.96856       1.46753       2.63872       4.10626        7.3427
       398       2.89051       1.53713       2.56934       4.10648        7.5208
       399       2.82504       1.59554       2.51115       4.10669       7.66369
       400       2.77595       1.63932       2.46751       4.10683       7.76311
       401       2.74628        1.6658       2.44114       4.10695        7.8176
       402       2.73807       1.67314       2.43384       4.10698       7.81011
       403       2.75212       1.66061       2.44633       4.10694       7.73459
       404        2.7879       1.62871       2.47813       4.10684        7.5948
       405       2.84371       1.57893       2.52774       4.10668       7.40444
       406       2.91682       1.51375       2.59272       4.10647       7.16649
       407       3.00367       1.43632       2.66992       4.10624       6.89516
       408       3.10024       1.35023       2.75577         4.106       6.60651
       409       3.20232       1.25926       2.84651       4.10576       6.31739
       410       3.30574       1.16711       2.93844       4.10555       6.04445
       411       3.40662       1.07724       3.02811       4.10535       5.80326
       412       3.50152      0.992725       3.11246       4.10519       5.60756
       413       3.58757      0.916106       3.18895       4.10506        5.4687
       414       3.66254       0.84937       3.25559       4.10496       5.39521
       415       3.72489      0.793897       3.31101       4.10491       5.39247
       416       3.77385      0.750393       3.35453       4.10493       5.47266
       417       3.80947      0.718748        3.3862       4.10495       5.63058
       418       3.83236      0.698458       3.40654         4.105       5.85364
       419       3.84367       0.68849       3.41659       4.10508       6.13318
       420       3.84509      0.687337       3.41786       4.10519       6.45747
       421        3.8387      0.693135       3.41218       4.10531       6.81226
       422       3.82678      0.703852       3.40158       4.10543       7.18183
       423        3.8114      0.717547       3.38791       4.10546       7.56023
       424       3.79406      0.733037        3.3725       4.10554       7.94164
       425       3.77611      0.749089       3.35654       4.10563       8.30441
       426       3.75882      0.764513       3.34117       4.10569       8.63545
       427       3.74319      0.778467       3.32728       4.10575       8.91885
       428       3.72977      0.790344       3.31535        4.1057       9.16954
       429       3.71904      0.799971       3.30581       4.10578       9.37817
       430       3.71207      0.806276       3.29962       4.10589       9.53102
       431       3.71042      0.807872       3.29815       4.10602       9.62731
       432       3.71605      0.802945       3.30316        4.1061        9.6881
       433       3.73052      0.790122       3.31602       4.10614       9.68841
       434       3.75415      0.769083       3.33703       4.10611       9.62768
       435       3.78618      0.740507       3.36549         4.106       9.50909
       436       3.82457      0.706198       3.39962       4.10582       9.33938
       437       3.86615      0.669003       3.43658       4.10558       9.12773
       438       3.90689      0.632526       3.47279       4.10532       8.88533
       439       3.94241      0.600705       3.50436       4.10507       8.62463
       440       3.96849       0.57731       3.52755       4.10486        8.3583
       441       3.98164      0.565479       3.53923       4.10471       8.09815
       442        3.9795       0.56732       3.53733       4.10465       7.85404
       443       3.96114      0.583667       3.52102       4.10468       7.63291
       444        3.9272      0.613956       3.49085        4.1048       7.43874
       445       3.87975       0.65634       3.44866         4.105       7.28125
       446       3.82231      0.707723       3.39761       4.10534       7.15777
       447       3.75954      0.763742       3.34181       4.10555       7.06765
       448       3.69614      0.820382       3.28545       4.10584       6.99573
       449       3.63706      0.873196       3.23294       4.10613       6.93793
       450       3.58695      0.917922        3.1884       4.10632        6.8627
       451       3.54906      0.951709       3.15472       4.10643       6.75796
       452       3.52528      0.972883       3.13358       4.10646       6.61969
       453       3.51601      0.981067       3.12534       4.10641        6.4479
       454        3.5203      0.977133       3.12916       4.10629       6.24651
       455       3.53607       0.96296       3.14317       4.10613       6.02266
       456       3.56046      0.941103       3.16485       4.10596       5.78563
       457        3.5903       0.91441       3.19137       4.10578       5.54553
       458       3.62244      0.885688       3.21995       4.10564       5.31215
       459       3.65409      0.857438       3.24808       4.10552       5.09408
       460       3.68296      0.831696       3.27374       4.10544       4.89811
       461       3.70732      0.809964       3.29539       4.10536       4.73403
       462       3.72586      0.793468       3.31188       4.10534       4.61579
       463        3.7379      0.782784       3.32257       4.10536       4.53035
       464       3.74341       0.77792       3.32748        4.1054       4.47701
       465       3.74284      0.778491       3.32697       4.10546       4.45372
       466       3.73696      0.783788       3.32174       4.10553       4.45727
       467       3.72687      0.792846       3.31277       4.10562       4.48357
       468       3.71385      0.804511        3.3012       4.10571       4.52797
       469       3.69933      0.817513       3.28829        4.1058        4.5855
       470       3.68477      0.830542       3.27535       4.10589       4.65121
       471        3.6716       0.84233       3.26364       4.10597       4.72045
       472       3.66111      0.851724       3.25432       4.10604       4.78922
       473       3.65451      0.857726       3.24846       4.10618       4.86288
       474       3.65307      0.859037       3.24717       4.10621       4.94797
       475       3.65751      0.855088       3.25112       4.10621       5.02276
       476       3.66824       0.84562       3.26066       4.10628       5.10613
       477       3.68541      0.830319       3.27592       4.10624        5.1866
       478        3.7086      0.809668       3.29653        4.1062       5.25813
       479       3.73703      0.784338       3.32181       4.10615       5.32434
       480       3.76909      0.755636        3.3503       4.10594       5.42327
       481       3.80253      0.725798       3.38002       4.10582       5.54286
       482       3.83535      0.696482        3.4092       4.10568        5.6833
       483       3.86542      0.669586       3.43593       4.10552       5.85195
       484       3.89023      0.647337       3.45798       4.10532       6.05672
       485       3.90679      0.632371        3.4727       4.10507        6.3063
       486        3.9112      0.628022       3.47662       4.10464       6.63087
       487       3.89857      0.638882        3.4654       4.10428       7.03929
       488       3.86363      0.669519       3.43434       4.10386       7.53255
       489       3.80084      0.724858       3.37853       4.10338        8.1271
       490       3.70434      0.810199       3.29274       4.10294       8.85373
       491       3.56908      0.930081       3.17252        4.1026       9.70348
       492       3.39248       1.08692       3.01554       4.10246       10.6777
       493       3.17611       1.27948       2.82321       4.10269       11.7636
       494       2.92792        1.5008        2.6026        4.1034       12.9276
       495       2.66403        1.7366       2.36803       4.10462       14.1093
       496        2.4086       1.96521       2.14098       4.10619       15.2224
       497       2.19056       2.16054       1.94716        4.1077       16.1657
       498        2.0369       2.29809       1.81058       4.10867       16.8459
       499       1.96474       2.36231       1.74643       4.10874       17.2051
       500       1.97605       2.35147       1.75649       4.10797        17.238
       501       2.05772       2.27755       1.82908       4.10663       17.0143
       502        2.1875       2.16091       1.94444       4.10535       16.5964
       503       2.34224       2.02242       2.08199       4.10442       16.0582
       504       2.50351       1.87859       2.22534       4.10393       15.4622
       505       2.65978       1.73958       2.36425       4.10383        14.847
       506       2.80584       1.60988       2.49408       4.10396       14.2291
       507       2.94055       1.49034       2.61383       4.10416       13.6115
       508        3.0645       1.38033         2.724       4.10433       12.9923
       509       3.17821       1.27934       2.82508       4.10442       12.3708
       510       3.28128       1.18773       2.91669       4.10442       11.7512
       511       3.37221       1.10685       2.99752       4.10437       11.1425
       512       3.44887       1.03865       3.06566       4.10431       10.5572
       513       3.50908      0.985103       3.11918       4.10428       10.0088
       514       3.55121      0.947672       3.15663        4.1043       9.50923
       515       3.57482      0.926732       3.17762       4.10435       9.09197
       516       3.58035      0.921941       3.18254       4.10448       8.74913
       517       3.56898      0.932221       3.17243       4.10465       8.46812
       518       3.54341      0.955311        3.1497       4.10501        8.2695
       519       3.50703      0.987842       3.11736        4.1052       8.12922
       520        3.4629       1.02723       3.07813       4.10536       8.05226
       521       3.41385       1.07102       3.03453       4.10555       8.01611
       522       3.36257       1.11677       2.98895       4.10572       8.00171
       523       3.31163       1.16219       2.94367       4.10586       8.00065
       524       3.26322       1.20534       2.90064       4.10598       8.00523
       525       3.21906       1.24467       2.86139       4.10606       8.00892
       526       3.18039        1.2791       2.82702       4.10611       8.00661
       527       3.14792       1.30798       2.79816       4.10613       7.99471
       528       3.12193       1.33109       2.77505       4.10613       7.97111
       529       3.10229       1.34852       2.75759       4.10611       7.93498
       530       3.08872       1.36064       2.74553       4.10617       7.89351
       531       3.08111       1.36734       2.73877       4.10611       7.86123
       532       3.07898       1.36919       2.73687       4.10606       7.81413
       533       3.08134       1.36703       2.73897         4.106       7.75473
       534       3.08714       1.36179       2.74413       4.10591        7.6992
       535       3.09533       1.35447        2.7514       4.10587       7.64402
       536       3.10513       1.34573       2.76012       4.10584       7.58541
       537       3.11601       1.33603       2.76979       4.10582       7.52482
       538       3.12764       1.32569       2.78013       4.10582        7.4632
       539       3.13991       1.31479       2.79103       4.10582       7.40087
       540       3.15291       1.30326       2.80258       4.10584       7.33752
       541       3.16695        1.2908       2.81507       4.10587       7.27233
       542       3.18251       1.27699        2.8289       4.10589       7.20666
       543       3.20015       1.26136       2.84458       4.10594       7.14731
       544       3.22051       1.24331       2.86268       4.10598       7.08248
       545       3.24439       1.22213        2.8839       4.10603       7.01051
       546       3.27254       1.19714       2.90893       4.10607       6.92998
       547       3.30564       1.16775       2.93835        4.1061       6.84003
       548       3.34421       1.13349       2.97263       4.10612       6.74051
       549       3.38855       1.09408       3.01205       4.10613       6.63219
       550       3.43876       1.04946       3.05667       4.10613       6.52058
       551       3.49465      0.999742       3.10636        4.1061       6.41043
       552       3.55587      0.945324       3.16077       4.10609       6.30823
       553       3.62175      0.886696       3.21933       4.10603       6.21608
       554       3.69126      0.824829       3.28112       4.10595       6.13081
       555       3.76301      0.760956        3.3449       4.10586       6.05841
       556       3.83538      0.696521       3.40923       4.10575       6.00502
       557       3.90652       0.63317       3.47246       4.10563       5.97669
       558       3.97436      0.572733       3.53277        4.1055       5.97913
       559       4.03669      0.517191       3.58817       4.10536       6.01739
       560       4.09114      0.468628       3.63657        4.1052       6.09676
       561       4.13486      0.429617       3.67543       4.10505       6.24838
       562       4.16496       0.40269       3.70218       4.10487       6.45199
       563       4.17841      0.390539       3.71414       4.10468       6.75567
       564       4.17249      0.395701       3.70888       4.10458          7.12
       565       4.14583      0.419357       3.68518       4.10454       7.53696
       566       4.09811      0.461795       3.64276       4.10456        7.9999
       567       4.02986      0.522532        3.5821       4.10463       8.52454
       568       3.94285      0.600036       3.50475       4.10479       9.07917
       569       3.84019      0.691444        3.4135       4.10495       9.66481
       570       3.72603      0.793191       3.31202       4.10521       10.2802
       571       3.60529      0.900756        3.2047       4.10546       10.8928
       572       3.48287       1.00977       3.09588       4.10566       11.4822
       573       3.36286       1.11657       2.98921       4.10577       12.0387
       574         3.248       1.21867       2.88711       4.10578       12.5562
       575       3.13935       1.31516       2.79053       4.10569       13.0323
       576       3.03621       1.40662       2.69885       4.10548       13.4721
       577       2.93645       1.49514       2.61017       4.10531       13.9037
       578        2.8379        1.5826       2.52258       4.10518         14.32
       579        2.7398        1.6698       2.43538       4.10519       14.7029
       580       2.64353       1.75558        2.3498       4.10538       15.0444
       581       2.55355       1.83595       2.26982       4.10577       15.3279
       582       2.47717       1.90433       2.20193       4.10625       15.5295
       583       2.42306       1.95286       2.15383       4.10669       15.6226
       584       2.39883       1.97462        2.1323       4.10692       15.5857
       585       2.40845       1.96599       2.14084       4.10684       15.4107
       586       2.45052        1.9282       2.17824       4.10644       15.1081
       587       2.51831       1.86734        2.2385       4.10584       14.7061
       588       2.60136       1.79286       2.31232       4.10518       14.2448
       589       2.68803       1.71526       2.38936       4.10462       13.7677
       590       2.76792       1.64388       2.46037       4.10425       13.3131
       591       2.83355       1.58539       2.51871        4.1041       12.9085
       592       2.88109        1.5432       2.56097       4.10416       12.5768
       593       2.91015       1.51758        2.5868       4.10438       12.3139
       594       2.92317       1.50634       2.59837       4.10471       12.1094
       595       2.92471        1.5054       2.59974       4.10514        11.955
       596       2.92066        1.5094       2.59614       4.10554        11.834
       597       2.91722       1.51284       2.59309       4.10592       11.7147
       598       2.92013       1.51056       2.59567       4.10623       11.5773
       599        2.9341       1.49837       2.60809       4.10646       11.4054
       600       2.96238       1.47335       2.63322       4.10657        11.188
       601        3.0065       1.43414       2.67245       4.10659       10.9196
       602       3.06632        1.3809       2.72562       4.10652       10.6011
       603       3.14018       1.31509       2.79127       4.10636       10.2465
       604       3.22529       1.23926       2.86693       4.10619       9.86407
       605       3.31916       1.15563       2.95036       4.10599       9.49557
       606       3.41893       1.06675       3.03905        4.1058       9.11063
       607       3.52093       0.97592       3.12972       4.10564       8.72232
       608       3.62197      0.885986       3.21953       4.10551       8.34246
       609       3.71938      0.799302       3.30612       4.10542       7.98081
       610       3.81112      0.717695       3.38766       4.10536       7.64497
       611       3.89566      0.642511       3.46281       4.10532       7.34046
       612       3.97197      0.574675       3.53064       4.10531       7.07095
       613       4.03938      0.514755       3.59056       4.10532       6.83853
       614       4.09758      0.463037       3.64229       4.10533       6.64392
       615       4.14651       0.41957       3.68579       4.10536       6.48674
       616       4.18631      0.384223       3.72117       4.10539       6.36569
       617       4.21731      0.356713       3.74872       4.10543       6.27869
       618       4.23992      0.336651       3.76882       4.10547       6.22895
       619       4.25469      0.323567       3.78195       4.10552       6.20928
       620        4.2623      0.316855       3.78871       4.10557       6.21414
       621       4.26353      0.315821        3.7898       4.10563       6.23929
       622        4.2593      0.319684       3.78604       4.10573        6.2837
       623       4.25096      0.327146       3.77863       4.10578       6.36055
       624       4.23986      0.337098       3.76876       4.10586       6.44855
       625         4.227      0.348577       3.75733       4.10591       6.53864
       626       4.21311      0.360898       3.74498       4.10588       6.63643
       627       4.19865      0.373785       3.73214       4.10592        6.7349
       628       4.18425      0.386626       3.71933       4.10596       6.82189
       629       4.17054      0.398834       3.70715       4.10598       6.89462
       630       4.15808      0.409927       3.69608         4.106       6.95087
       631       4.14725      0.419567       3.68644       4.10601       6.99037
       632       4.13823      0.427586       3.67843       4.10602       7.01647
       633       4.13107      0.433928       3.67206       4.10599       7.03049
       634       4.12518      0.439036       3.66682       4.10586       7.04669
       635       4.11945      0.444057       3.66174       4.10579       7.05984
       636       4.11288      0.449837       3.65589       4.10573       7.06703
       637       4.10448       0.45722       3.64842       4.10564        7.0828
       638       4.09318      0.467176       3.63838       4.10556       7.09898
       639       4.07785      0.480728       3.62475       4.10548       7.12046
       640       4.05751      0.498749       3.60667       4.10542       7.15163
       641       4.03149       0.52184       3.58355       4.10539       7.19585
       642       3.99957       0.55021       3.55517       4.10538       7.25494
       643       3.96209      0.583564       3.52185       4.10542       7.32873
       644       3.92005       0.62102       3.48449       4.10551       7.41942
       645       3.87517      0.661028       3.44459       4.10562       7.52316
       646        3.8297      0.701582       3.40418       4.10576       7.62989
       647       3.78632      0.740298       3.36561       4.10591       7.72945
       648       3.74785      0.774638       3.33142       4.10606       7.81138
       649       3.71701      0.802177       3.30401       4.10618       7.86681
       650       3.69581      0.821029       3.28516       4.10619        7.9082
       651       3.68539      0.830324        3.2759       4.10622       7.92113
       652       3.68625       0.82954       3.27667       4.10621       7.89544
       653        3.6981      0.818917        3.2872       4.10612        7.8419
       654        3.7198       0.79954       3.30649       4.10603       7.76164
       655       3.74969      0.772864       3.33306       4.10592       7.65415
       656       3.78576      0.740678       3.36512        4.1058       7.52633
       657       3.82581      0.704966       3.40072       4.10568       7.38589
       658       3.86751      0.667782       3.43778       4.10557       7.24082
       659       3.90859      0.631151       3.47431       4.10546       7.09906
       660       3.94619      0.597586       3.50772       4.10531         7.004
       661       3.97738      0.569768       3.53545       4.10522       6.94613
       662             4      0.549548       3.55555        4.1051       6.92988
       663       4.01202      0.538759       3.56624         4.105       6.95443
       664       4.01167      0.539014       3.56592       4.10494       7.03242
       665       3.99749      0.551529       3.55333       4.10485       7.17108
       666       3.96824      0.577455       3.52733       4.10478       7.36423
       667       3.92286      0.617736       3.48698       4.10472       7.61494
       668       3.86033       0.67308       3.43141       4.10449       7.93496
       669       3.77885      0.745423       3.35898        4.1044       8.35889
       670       3.67684      0.836006       3.26831       4.10431        8.8661
       671       3.55409       0.94509       3.15919       4.10428       9.45006
       672       3.41125       1.07209       3.03222       4.10431       10.1028
       673       3.25022       1.21534       2.88908       4.10442       10.8154
       674       3.07467       1.37167       2.73304       4.10471        11.586
       675       2.89026       1.53593       2.56912       4.10505        12.387
       676       2.70439       1.70159        2.4039       4.10549       13.1795
       677       2.52605       1.86062       2.24538       4.10599       13.9296
       678        2.3652       2.00409        2.1024        4.1065       14.5999
       679       2.23162       2.12326       1.98366       4.10693       15.1539
       680       2.13362       2.21067       1.89655       4.10722       15.5606
       681       2.07703       2.26111       1.84625       4.10735       15.7983
       682       2.06454       2.27216       1.83515       4.10731       15.8566
       683       2.09558       2.24436       1.86274        4.1071       15.7374
       684       2.16637       2.18108       1.92566       4.10674       15.4547
       685       2.27026       2.08825       2.01801       4.10626       15.0346
       686       2.39822       1.97393       2.13175       4.10569         14.51
       687        2.5396       1.84765       2.25742       4.10508       13.9199
       688       2.68314        1.7195       2.38501       4.10451       13.3066
       689       2.81812       1.59904         2.505       4.10403       12.7105
       690       2.93551       1.49436       2.60934        4.1037       12.1662
       691       3.02873       1.41134       2.69221       4.10354       11.6997
       692       3.09414       1.35321       2.75035       4.10356       11.3261
       693       3.13114        1.3205       2.78324       4.10374       11.0498
       694       3.14199       1.31118       2.79288       4.10405       10.8645
       695       3.13132       1.32104        2.7834       4.10444        10.759
       696       3.10528       1.34465       2.76025        4.1049       10.7333
       697       3.07099        1.3756       2.72977       4.10537       10.7404
       698         3.036       1.40712       2.69867       4.10579       10.7542
       699       3.00712       1.43313         2.673       4.10612       10.7509
       700       2.99009       1.44851       2.65786       4.10637       10.7349
       701       2.98861        1.4499       2.65654       4.10645       10.6689
       702       3.00392       1.43629       2.67016       4.10645       10.5468
       703       3.03638       1.40729         2.699       4.10629        10.408
       704       3.08469       1.36422       2.74195       4.10616       10.2229
       705       3.14543       1.30997       2.79594       4.10591       10.0083
       706        3.2142       1.24858       2.85707       4.10565       9.77985
       707       3.28617       1.18437       2.92104       4.10541       9.53997
       708       3.35689       1.12131        2.9839       4.10521       9.30459
       709       3.42254        1.0628       3.04226       4.10506       9.08744
       710       3.48019       1.01147        3.0935       4.10498       8.89899
       711       3.52799      0.968961       3.13599       4.10496       8.74584
       712       3.56522      0.935908       3.16909         4.105       8.63051
       713       3.59222      0.912004       3.19308       4.10509       8.55166
       714       3.61021      0.896137       3.20908       4.10521       8.50465
       715        3.6211      0.886606       3.21876       4.10536       8.48245
       716       3.62716       0.88137       3.22414       4.10551       8.47654
       717       3.63075      0.878308       3.22734       4.10565       8.47804
       718       3.63408      0.875464       3.23029       4.10575       8.47864
       719       3.63891      0.871243       3.23458       4.10583       8.47144
       720       3.64647      0.864555       3.24131       4.10586        8.4515
       721       3.65726      0.854918        3.2509       4.10582       8.42662
       722        3.6711      0.842582        3.2632       4.10578        8.3948
       723       3.68743      0.828017       3.27772       4.10573       8.35013
       724       3.70547      0.811927       3.29375       4.10568       8.29503
       725       3.72461      0.794898       3.31076       4.10566       8.25068
       726       3.74431      0.777346       3.32828       4.10562       8.20152
       727       3.76403      0.759808        3.3458       4.10561       8.14755
       728       3.78349      0.742518        3.3631       4.10562       8.08992
       729       3.80276      0.725412       3.38023       4.10564       8.02728
       730       3.82215      0.708209       3.39747       4.10567       7.95884
       731       3.84206      0.690542       3.41516       4.10571       7.88351
       732       3.86283        0.6721       3.43362       4.10572       7.80044
       733        3.8846       0.65275       3.45298       4.10573       7.70951
       734       3.90722      0.632627       3.47309       4.10572       7.61306
       735       3.93009      0.612216       3.49341       4.10563       7.53823
       736        3.9521      0.592585       3.51298       4.10557       7.46862
       737       3.97204      0.574799        3.5307        4.1055       7.40401
       738       3.98863      0.559985       3.54545       4.10544       7.34936
       739       4.00067      0.549229       3.55615       4.10538       7.30943
       740       4.00709      0.543481       3.56186       4.10534       7.28843
       741       4.00706      0.543476       3.56183       4.10531       7.28966
       742       4.00024      0.549602       3.55577       4.10537       7.32825
       743       3.98667      0.561656       3.54371       4.10537       7.40031
       744       3.96649      0.579606       3.52577       4.10538       7.49489
       745       3.93986      0.603245       3.50209       4.10534       7.61617
       746       3.90682       0.63269       3.47273       4.10542       7.79634
       747       3.86764      0.667524        3.4379       4.10542       8.00934
       748       3.82282      0.707371       3.39806       4.10543       8.24197
       749       3.77272      0.751904       3.35353       4.10543       8.49273
       750       3.71769      0.800814       3.30462       4.10543       8.76003
       751       3.65805      0.853823        3.2516       4.10542       9.04225
       752       3.59408      0.910681       3.19473       4.10542       9.33771
       753       3.52606      0.971132       3.13428       4.10541       9.64456
       754       3.45438       1.03485       3.07056       4.10541        9.9605
       755       3.37954       1.10139       3.00404       4.10542       10.2826
       756       3.30232       1.17006       2.93539       4.10545        10.607
       757       3.22374       1.23995       2.86554       4.10549       10.9286
       758       3.14514       1.30987       2.79568       4.10556       11.2415
       759       3.06815       1.37839       2.72724       4.10563       11.5385
       760       2.99461       1.44384       2.66188       4.10572       11.8117
       761       2.92661       1.50439       2.60143       4.10582       12.0525
       762        2.8665       1.55795         2.548       4.10595       12.2515
       763       2.81698       1.60213       2.50398       4.10611       12.3984
       764       2.78111        1.6342        2.4721        4.1063       12.4818
       765       2.76227       1.65114       2.45535       4.10649       12.4897
       766       2.76374       1.64999       2.45666       4.10665       12.4108
       767       2.78812       1.62841       2.47833       4.10674       12.2363
       768       2.83657       1.58531       2.52139        4.1067       11.9632
       769       2.90816       1.52151       2.58503       4.10654       11.5956
       770       2.99972       1.43984       2.66642       4.10626        11.146
       771       3.10615       1.34489       2.76103       4.10592       10.6353
       772       3.22074       1.24254       2.86288       4.10542       10.1089
       773       3.33622       1.13957       2.96553        4.1051       9.59022
       774       3.44633       1.04144       3.06341       4.10485       9.08799
       775       3.54627      0.952443       3.15224       4.10469       8.61912
       776        3.6327      0.875535       3.22907        4.1046       8.19695
       777       3.70325      0.812772       3.29178       4.10455       7.85558
       778       3.75652      0.765409       3.33913       4.10454       7.57974
       779       3.79213      0.733762       3.37078       4.10454       7.37076
       780       3.81004      0.717838        3.3867       4.10454       7.23608
       781       3.80966      0.717847       3.38637       4.10422        7.1981
       782       3.78934      0.735811       3.36831       4.10412       7.26656
       783       3.74753      0.772866       3.33113         4.104        7.4224
       784       3.68336      0.829815        3.2741       4.10391       7.68207
       785       3.59624      0.907151       3.19666       4.10381       8.03765
       786         3.486       1.00508       3.09867       4.10375       8.48475
       787       3.35344       1.12293       2.98084       4.10377       9.01973
       788        3.2008       1.25872       2.84515       4.10388       9.63378
       789       3.03211       1.40889       2.69521        4.1041       10.3118
       790       2.85351       1.56801       2.53645       4.10446        11.038
       791       2.67323        1.7287       2.37621       4.10491       11.7846
       792       2.50137       1.88202       2.22344       4.10546       12.5066
       793       2.34958       2.01759       2.08852        4.1061       13.1642
       794       2.23061       2.12401       1.98276       4.10678       13.7142
       795       2.15719       2.18988        1.9175       4.10738       14.1143
       796       2.14012       2.20542       1.90233       4.10774       14.3293
       797       2.18563       2.16494       1.94278       4.10772       14.3393
       798       2.29276       2.06919       2.03801        4.1072       14.1483
       799       2.45193       1.92671       2.17949        4.1062       13.7902
       800       2.64545       1.75343       2.35151       4.10494       13.3424
       801       2.85069       1.56972       2.53394       4.10366       12.8573
       802        3.0446       1.39628       2.70631       4.10259       12.4042
       803       3.20745       1.25081       2.85107       4.10188       12.0385
       804       3.32544       1.14563       2.95595       4.10157       11.7945
       805       3.39187       1.08668       3.01499       4.10167       11.6837
       806       3.40716       1.07354       3.02858       4.10213       11.6969
       807       3.37812       1.10009       3.00278       4.10286       11.8082
       808       3.31677       1.15555       2.94824       4.10379        11.981
       809       3.23844       1.22606       2.87862       4.10468       12.1904
       810       3.15939       1.29726       2.80834        4.1056       12.4159
       811       3.09498       1.35525        2.7511       4.10634       12.5845
       812       3.05831       1.38834        2.7185       4.10683       12.6906
       813       3.05736       1.38924       2.71765        4.1069       12.6894
       814       3.09347       1.35686       2.74975       4.10661       12.5699
       815       3.16184       1.29556       2.81052       4.10608       12.3428
       816       3.25311       1.21364       2.89166        4.1053       12.0459
       817       3.35456       1.12263       2.98183       4.10446       11.6757
       818        3.4519       1.03535       3.06835        4.1037       11.2642
       819       3.53187       0.96365       3.13944       4.10309       10.8445
       820        3.5839      0.917013       3.18568        4.1027       10.4473
       821       3.60109      0.901582       3.20097       4.10255       10.0999
       822       3.58089      0.919657       3.18301       4.10267       9.81733
       823       3.52521      0.969517       3.13352       4.10304       9.60462
       824       3.44024       1.04559       3.05799       4.10358       9.46407
       825       3.33607       1.13907        2.9654       4.10446       9.41524
       826       3.22575       1.23795       2.86733       4.10528       9.39372
       827       3.12324       1.32983       2.77621       4.10605       9.35605
       828       3.04121       1.40333       2.70329       4.10663       9.25834
       829       2.98906       1.44998       2.65694       4.10693        9.0752
       830       2.97135       1.46571        2.6412       4.10691       8.79577
       831       2.98725       1.45129       2.65533       4.10662       8.42579
       832       3.03136       1.41164       2.69454       4.10619       7.98526
       833       3.09547       1.35418       2.75153       4.10571        7.5028
       834       3.17055       1.28704       2.81827       4.10531       7.00897
       835       3.24843       1.21753       2.88749       4.10502       6.53084
       836       3.32278       1.15128       2.95358       4.10486       6.08879
       837       3.38941       1.09201       3.01281       4.10482       5.69567
       838       3.44608       1.04167       3.06319       4.10486       5.35749
       839       3.49208       1.00087       3.10407       4.10495       5.07491
       840       3.52775       0.96929       3.13578       4.10507       4.84495
       841       3.55394      0.946059       3.15906       4.10512       4.67549
       842       3.57139      0.930636       3.17457       4.10521       4.59364
       843       3.58078      0.922367       3.18292       4.10528       4.55296
       844       3.58289      0.920548       3.18479       4.10534       4.54928
       845       3.57832      0.924645       3.18073       4.10537       4.57916
       846       3.56743      0.934336       3.17105       4.10538       4.64008
       847       3.55031      0.949537       3.15583       4.10537       4.73051
       848       3.52681      0.970398       3.13494       4.10534       4.84989
       849       3.49678      0.997197       3.10825       4.10544       5.01161
       850       3.46026       1.02956       3.07579       4.10535       5.22154
       851       3.41672       1.06816       3.03709       4.10525       5.45651
       852       3.36516       1.11391       2.99126       4.10517       5.71905
       853       3.30511       1.16728       2.93788       4.10516       6.02634
       854       3.23675       1.22804       2.87711       4.10515       6.36448
       855       3.16093        1.2955       2.80971       4.10522       6.72424
       856       3.07975       1.36782       2.73756       4.10537        7.0973
       857       2.99686       1.44176       2.66388       4.10563       7.47005
       858       2.91749       1.51265       2.59333       4.10598       7.82349
       859       2.84816       1.57466        2.5317       4.10636       8.13436
       860       2.79588       1.62149       2.48523       4.10672       8.37787
       861       2.76707       1.64736       2.45962       4.10698       8.53161
       862       2.76627       1.64817       2.45891       4.10707       8.58002
       863       2.79516       1.62243       2.48458       4.10701       8.52284
       864       2.85224       1.57142       2.53533       4.10675       8.37274
       865       2.93304       1.49923       2.60715       4.10638       8.13573
       866         3.031       1.41176       2.69423       4.10598       7.83917
       867        3.1389        1.3155       2.79013       4.10563       7.50528
       868       3.24986       1.21657       2.88876       4.10533       7.17391
       869       3.35826       1.12004       2.98512       4.10516       6.85556
       870       3.46021       1.02934       3.07574       4.10508       6.56268
       871       3.55343      0.946479        3.1586       4.10508       6.30518
       872       3.63698      0.872266       3.23287       4.10514        6.0882
       873       3.71087      0.806675       3.29855       4.10522       5.92217
       874       3.77578      0.749078       3.35625       4.10533       5.79707
       875       3.83292      0.698445       3.40704       4.10548       5.71526
       876       3.88381      0.653309       3.45227       4.10558       5.68096
       877       3.92994      0.612392       3.49328       4.10567       5.67374
       878       3.97233      0.574683       3.53096       4.10564       5.70186
       879       4.01149      0.539925       3.56577        4.1057        5.7679
       880        4.0479      0.507596       3.59814       4.10573       5.85171
       881        4.0821      0.477221       3.62854       4.10576       5.94941
       882       4.11449      0.448433       3.65733       4.10576       6.06474
       883       4.14523        0.4211       3.68465       4.10575       6.18096
       884       4.17428      0.395286       3.71047       4.10576       6.34423
       885       4.20123      0.371248       3.73442       4.10567       6.50003
       886       4.22498      0.350032       3.75554       4.10557       6.63541
       887       4.24409       0.33292       3.77253       4.10545       6.74323
       888       4.25682      0.321462       3.78384        4.1053       6.82616
       889       4.26119      0.317428       3.78773       4.10515        6.8668
       890       4.25514      0.322652       3.78234         4.105       6.85526
       891       4.23655      0.339016       3.76582       4.10484       6.78292
       892       4.20341       0.36833       3.73636       4.10469       6.64228
       893       4.15396      0.412169        3.6924       4.10457       6.42797
       894       4.08682       0.47171       3.63273       4.10444       6.14659
       895       4.00121      0.547779       3.55663       4.10441       5.80682
       896       3.89744      0.640061       3.46439       4.10445       5.40571
       897       3.77731      0.746976       3.35761       4.10458       4.95886
       898       3.64423      0.865503       3.23932       4.10482       4.48861
       899       3.50338      0.991014       3.11412       4.10513       4.02606
       900       3.36138       1.11768       2.98789       4.10557       3.62524
       901       3.22654       1.23805       2.86804       4.10608       3.29574
       902       3.10849        1.3435        2.7631        4.1066        3.0667
       903       3.01675       1.42548       2.68156       4.10704       2.96072
       904       2.95933       1.47681       2.63051       4.10732       2.99127
       905       2.94124       1.49293       2.61443       4.10736       3.16156
       906       2.96339       1.47302       2.63412       4.10714       3.46494
       907       3.02164       1.42074       2.68591       4.10665       3.91781
       908       3.10756       1.34374       2.76227       4.10602       4.47733
       909       3.21014       1.25186       2.85346       4.10532        5.1151
       910       3.31724       1.15601       2.94865       4.10467       5.80552
       911       3.41728       1.06656       3.03758       4.10414       6.52325
       912       3.50073       0.99203       3.11176       4.10379       7.24473
       913       3.56093       0.93836       3.16527       4.10363       7.94929
       914       3.59438      0.908639         3.195       4.10364       8.61989
       915       3.60053      0.903314       3.20047       4.10378       9.24333
       916       3.58126      0.920681       3.18334       4.10402       9.81022
       917       3.54011      0.957541       3.14677       4.10431       10.3187
       918       3.48153       1.00989       3.09469       4.10458       10.7659
       919       3.41002       1.07369       3.03113       4.10482       11.1487
       920       3.32956       1.14539       2.95961       4.10499       11.4712
       921       3.24325       1.22222       2.88289       4.10511       11.7403
       922       3.15326       1.30227        2.8029       4.10517       11.9647
       923       3.06115       1.38421       2.72102       4.10523       12.1558
       924       2.96839       1.46676       2.63857       4.10532       12.3243
       925       2.87694       1.54821       2.55728       4.10549       12.4876
       926       2.79001       1.62574       2.48001       4.10575       12.6246
       927        2.7125       1.69498       2.41111       4.10609       12.7234
       928       2.65046       1.75049       2.35596       4.10645       12.7759
       929       2.61014       1.78663       2.32013       4.10676       12.7767
       930       2.59625       1.79907       2.30777       4.10684       12.6931
       931       2.61019       1.78654       2.32017       4.10671        12.517
       932       2.64966       1.75112       2.35525       4.10637       12.2577
       933       2.70881       1.69807       2.40783        4.1059       11.9362
       934       2.77927       1.63489       2.47046       4.10535       11.5858
       935       2.85153       1.57015        2.5347       4.10484       11.2477
       936       2.91664        1.5119       2.59257       4.10446       10.9582
       937       2.96725        1.4666       2.63756       4.10416       10.7442
       938       2.99784       1.43923       2.66475       4.10398       10.6073
       939       3.00483       1.43294       2.67096        4.1039       10.5597
       940       2.98668        1.4491       2.65483       4.10392       10.6059
       941       2.94379       1.48734       2.61671       4.10404       10.7435
       942       2.87842       1.54566        2.5586       4.10426       10.9636
       943       2.79468       1.62042       2.48416       4.10458       11.2505
       944       2.69816        1.7066       2.39836       4.10497       11.6064
       945        2.5959       1.79796       2.30747       4.10543       11.9849
       946       2.49622       1.88703       2.21886       4.10589       12.3545
       947       2.40742       1.96636       2.13993       4.10629        12.685
       948       2.33655       2.02961       2.07693       4.10654       12.9529
       949       2.28819       2.07265       2.03395        4.1066       13.1395
       950       2.26365       2.09433       2.01213       4.10647       13.2388
       951       2.26094       2.09647       2.00972       4.10619       13.2567
       952       2.27547       2.08319       2.02264       4.10584       13.2088
       953       2.30132       2.05987       2.04562       4.10549       13.1155
       954       2.33246       2.03191        2.0733       4.10521       12.9977
       955       2.36389        2.0038       2.10124       4.10503       12.8729
       956        2.3923       1.97852       2.12649       4.10501       12.7598
       957       2.41625       1.95726       2.14778       4.10503        12.666
       958       2.43589       1.93991       2.16523       4.10514       12.5805
       959       2.45264       1.92519       2.18013       4.10532       12.5024
       960       2.46893       1.91091        2.1946       4.10551       12.4273
       961       2.48765       1.89447       2.21124       4.10571       12.3389
       962       2.51176       1.87321       2.23268       4.10589       12.2265
       963       2.54397       1.84473       2.26131       4.10604       12.0813
       964       2.58645       1.80708       2.29907       4.10615       11.8963
       965       2.64065       1.75897       2.34724       4.10621       11.6672
       966       2.70722       1.69981       2.40642       4.10623       11.3925
       967         2.786       1.62975       2.47645        4.1062       11.0737
       968       2.87608       1.54962       2.55651       4.10613       10.7151
       969       2.97585       1.46084        2.6452       4.10604       10.3233
       970       3.08318       1.36532        2.7406       4.10592       9.90692
       971       3.19557       1.26529        2.8405        4.1058       9.47593
       972       3.31075       1.16283       2.94289       4.10572       9.06411
       973       3.42651       1.05981       3.04579        4.1056        8.6582
       974       3.54042      0.958468       3.14704       4.10551       8.26306
       975       3.65041      0.860639       3.24481       4.10545       7.88657
       976       3.75495      0.767684       3.33774       4.10542       7.53439
       977       3.85307      0.680467       3.42495       4.10542       7.20979
       978       3.94429      0.599405       3.50604       4.10544       6.91374
       979       4.02856      0.524542       3.58094       4.10548       6.64505
       980       4.10607      0.455665       3.64984       4.10551         6.405
       981       4.17711      0.392561       3.71299       4.10555       6.19642
       982       4.24206       0.33487       3.77072       4.10559       6.00324
       983       4.30117      0.282312       3.82327       4.10558       5.83347
       984       4.35445      0.234961       3.87062       4.10559       5.67322
       985       4.40183      0.192837       3.91274       4.10557       5.50927
       986       4.44324      0.156012       3.94955       4.10556       5.35054
       987       4.47865      0.124538       3.98102       4.10556       5.19168
       988       4.50756      0.098755       4.00672       4.10548       5.00475
       989       4.52879     0.0797852       4.02559       4.10538       4.77639
       990        4.5409     0.0689191       4.03635       4.10527       4.50326
       991       4.54253     0.0674448       4.03781       4.10525        4.2025
       992       4.53257     0.0761897       4.02896       4.10515       3.86607
       993        4.5099     0.0962678        4.0088       4.10506       3.47259
       994       4.47364      0.128458       3.97657       4.10502       3.02637
       995       4.42368      0.172882       3.93216       4.10504       2.53564
       996       4.36084      0.228818        3.8763       4.10512        2.0129
       997       4.28705      0.294555       3.81071       4.10527       1.47501
       998       4.20541      0.367341       3.73814       4.10548       0.94277
       999       4.12007      0.443456       3.66229       4.10574      0.439969
      1000       4.03604      0.518439       3.58759       4.10603   -0.00781907
      1001       3.95794      0.588125       3.51817       4.10629     -0.338329
      1002       3.89014      0.648632        3.4579       4.10653     -0.545844
      1003       3.83676      0.696211       3.41045       4.10666     -0.620064
      1004       3.80036      0.728582        3.3781       4.10668     -0.550804
      1005       3.78164       0.74514       3.36145       4.10659     -0.324377
      1006       3.77925      0.747055       3.35933       4.10639     0.0584944
      1007       3.78989      0.737292       3.36879       4.10608      0.582085
      1008       3.80866      0.720252       3.38547       4.10573       1.23113
      1009       3.82933      0.701349       3.40385        4.1052       2.00568
      1010        3.8448      0.687221        3.4176       4.10482       2.90101
      1011       3.84843      0.683669       3.42082       4.10449       3.86419
      1012       3.83504      0.695331       3.40893       4.10426       4.87209
      1013       3.80101      0.725456       3.37868       4.10413       5.90253
      1014       3.74467       0.77554       3.32859       4.10413       6.93433
      1015       3.66646      0.845127       3.25908        4.1042       7.95459
      1016       3.56886      0.932126       3.17232       4.10445       8.95842
      1017       3.45655       1.03232       3.07248       4.10481       9.91026
      1018       3.33622       1.13971       2.96553       4.10523       10.7833
      1019       3.21564       1.24732       2.85835       4.10567       11.5564
      1020       3.10258       1.34818       2.75785       4.10603       12.2117
      1021       3.00364       1.43636       2.66991       4.10627       12.7368
      1022       2.92327       1.50789       2.59846       4.10635       13.1279
      1023        2.8632       1.56121       2.54507       4.10628       13.3905
      1024       2.82263        1.5971         2.509        4.1061       13.5388
      1025       2.79892       1.61797       2.48793        4.1059       13.5924
      1026       2.78869       1.62688       2.47884       4.10572       13.5728
      1027       2.78885       1.62664       2.47898       4.10561       13.4993
      1028       2.79734       1.61907       2.48653        4.1056       13.3867
      1029        2.8134       1.60485        2.5008       4.10565       13.2442
      1030       2.83737       1.58365        2.5221       4.10575        13.076
      1031        2.8702       1.55456       2.55129       4.10586       12.8829
      1032       2.91296       1.51664        2.5893       4.10594       12.6643
      1033       2.96628       1.46929       2.63669       4.10598       12.4198
      1034       3.03028       1.41245       2.69358       4.10603       12.1625
      1035       3.10448       1.34644       2.75954       4.10599       11.8885
      1036        3.1876        1.2725       2.83342       4.10592       11.5902
      1037        3.2778       1.19223        2.9136       4.10584       11.2691
      1038       3.37299       1.10746       2.99821       4.10567       10.9321
      1039       3.47053       1.02066       3.08492       4.10558       10.5972
      1040       3.56782      0.934078       3.17139       4.10547        10.239
      1041       3.66255      0.849757        3.2556       4.10536       9.85098
      1042       3.75228      0.769864       3.33536       4.10522       9.42408
      1043       3.83446      0.696745       3.40841       4.10516       8.96581
      1044       3.90651       0.63249       3.47246       4.10495       8.47313
      1045       3.96518      0.580112       3.52461       4.10472       7.90237
      1046       4.00664      0.543026       3.56146       4.10449       7.24248
      1047       4.02714       0.52459       3.57968       4.10427       6.48423
      1048       4.02349      0.527666       3.57643        4.1041       5.63886
      1049       3.99328      0.554396       3.54959       4.10398       4.68853
      1050       3.93516      0.606042       3.49792       4.10396       3.63896
      1051        3.8495      0.682292       3.42177       4.10407       2.50712
      1052       3.73884      0.780894       3.32342       4.10431       1.32071
      1053       3.60818      0.897428       3.20727        4.1047      0.118539
      1054       3.46485       1.02534       3.07986        4.1052      -1.05052
      1055       3.31819       1.15629        2.9495       4.10579      -2.13025
      1056       3.17873       1.28084       2.82554       4.10638      -3.06145
      1057       3.05721       1.38941       2.71752       4.10694      -3.77514
      1058       2.96312       1.47344       2.63389       4.10733      -4.23597
      1059       2.90335       1.52678       2.58076       4.10753      -4.41478
      1060       2.88145       1.54624       2.56129       4.10753      -4.29774
      1061       2.89725       1.53199       2.57533       4.10732      -3.89222
      1062       2.94705       1.48737        2.6196       4.10696      -3.22612
      1063       3.02438       1.41818       2.68834       4.10651      -2.34464
      1064       3.12115       1.33169       2.77436       4.10605      -1.30517
      1065       3.22891       1.23549       2.87015       4.10564     -0.171091
      1066       3.34007       1.13638       2.96895       4.10534       1.00753
      1067       3.44795       1.03997       3.06485       4.10481       2.19487
      1068       3.54625      0.952373       3.15222       4.10459       3.35169
      1069       3.63009      0.877665       3.22675       4.10441       4.42183
      1070       3.69612      0.818772       3.28544       4.10421       5.39078
      1071       3.74106      0.778559       3.32539       4.10395       6.25964
      1072       3.76088      0.760552         3.343       4.10356       7.04448
      1073       3.75012       0.76957       3.33344       4.10301       7.77506
      1074       3.70143       0.81212       3.29016       4.10228       8.49278
      1075       3.60571      0.896354       3.20507       4.10143       9.24748
      1076       3.45307       1.03118       3.06939       4.10057       10.0916
      1077       3.23566       1.22388       2.87614       4.10002       11.0696
      1078       2.95281       1.47553       2.62472       4.10025       12.1995
      1079       2.61883       1.77398       2.32785       4.10183       13.4463
      1080       2.27074       2.08657       2.01844         4.105        14.694
      1081       1.96984       2.35816       1.75097       4.10913       15.7389
      1082       1.78871        2.5225       1.58996       4.11246       16.3303
      1083        1.7832       2.52807       1.58506       4.11313       16.2663
      1084       1.96409       2.36481       1.74585       4.11066       15.4971
      1085        2.2903       2.07061       2.03582       4.10643       14.1415
      1086       2.68908       1.71215       2.39029       4.10244       12.4356
      1087       3.08708        1.3558       2.74407       4.09987       10.5802
      1088       3.43144       1.04865       3.05016       4.09881       8.71463
      1089       3.69413      0.815159       3.28367       4.09883       6.90642
      1090       3.86666       0.66238       3.43703       4.09941       5.18164
      1091       3.95237      0.586998       3.51322       4.10022       3.51376
      1092       3.96068      0.580501       3.52061       4.10111       1.88949
      1093       3.90413      0.631689       3.47034       4.10203      0.309391
      1094       3.79718      0.727707       3.37527       4.10298      -1.20652
      1095       3.65575      0.854406       3.24956       4.10396      -2.61842
      1096       3.49677      0.996705       3.10824       4.10494      -3.87057
      1097       3.33736       1.13931       2.96654       4.10585      -4.89827
      1098       3.19358       1.26788       2.83873       4.10661      -5.63687
      1099       3.07885       1.37038       2.73676       4.10713       -6.0316
      1100       3.00225       1.43876       2.66867       4.10743      -5.99568
