#     Step          Temp           Pot           Kin           Tot         Press
         0         239.6      -1.61402      0.707588     -0.906436    -0.0244276
         1       239.499      -1.61373      0.707291     -0.906436    -0.0243859
         2       239.196      -1.61283      0.706396     -0.906437    -0.0242605
         3       238.686      -1.61133       0.70489     -0.906439    -0.0240504
         4       237.963       -1.6092      0.702755     -0.906441    -0.0237541
         5       237.019      -1.60641      0.699965     -0.906444    -0.0233696
         6       235.841      -1.60293      0.696486     -0.906447    -0.0228944
         7       234.416      -1.59873      0.692278     -0.906452    -0.0223255
         8       232.728      -1.59375      0.687294     -0.906456    -0.0216594
         9        230.76      -1.58794      0.681481     -0.906461    -0.0208985
        10       228.491      -1.58125      0.674781     -0.906468    -0.0200354
        11       225.898       -1.5736      0.667125     -0.906474    -0.0190572
        12       222.958      -1.56492       0.65844     -0.906481    -0.0179653
        13       219.644      -1.55514      0.648653     -0.906488    -0.0167565
        14       215.933      -1.54419      0.637694     -0.906497    -0.0154378
        15       211.802        -1.532      0.625496     -0.906504     -0.014002
        16       207.233      -1.51851      0.612001      -0.90651    -0.0124202
        17       202.209      -1.50368      0.597164     -0.906514    -0.0106995
        18       196.726      -1.48749      0.580971     -0.906517   -0.00884493
        19       190.793      -1.46997       0.56345     -0.906517   -0.00687817
        20       184.437      -1.45119       0.54468     -0.906514    -0.0048093
        21       177.706      -1.43131      0.524803     -0.906504   -0.00262428
        22       170.671      -1.41052      0.504027      -0.90649  -0.000352923
        23       163.427      -1.38911      0.482635     -0.906472    0.00196707
        24       156.094      -1.36743      0.460977     -0.906449    0.00430374
        25       148.807      -1.34588      0.439457     -0.906423    0.00662241
        26       141.712       -1.3249      0.418504     -0.906398    0.00888316
        27       134.951      -1.30491      0.398537     -0.906375     0.0110436
        28       128.654       -1.2863       0.37994     -0.906355     0.0130729
        29       122.929      -1.26938      0.363035     -0.906341      0.014933
        30       117.858      -1.25439       0.34806     -0.906333     0.0166027
        31       113.493       -1.2415      0.335168     -0.906329     0.0180718
        32       109.857      -1.23076      0.324431     -0.906329     0.0193313
        33        106.95      -1.22218      0.315844     -0.906333     0.0203853
        34       104.747      -1.21568      0.309341      -0.90634     0.0212292
        35        103.21      -1.21115        0.3048     -0.906349      0.021878
        36       102.283      -1.20842      0.302061      -0.90636     0.0223342
        37       101.902      -1.20731      0.300938     -0.906372     0.0226277
        38       101.999      -1.20761      0.301223     -0.906385     0.0227788
        39       102.499       -1.2091      0.302701     -0.906397      0.022793
        40       103.328      -1.21156      0.305149     -0.906409     0.0227136
        41       104.412      -1.21477      0.308349     -0.906421     0.0225384
        42        105.68      -1.21853      0.312094     -0.906432     0.0223101
        43       107.064      -1.22263      0.316183     -0.906443     0.0220267
        44       108.503      -1.22688      0.320433     -0.906452     0.0217158
        45        109.94      -1.23113      0.324674      -0.90646     0.0213826
        46       111.323      -1.23523      0.328761     -0.906467     0.0210563
        47       112.612      -1.23904      0.332566     -0.906472     0.0207447
        48       113.772      -1.24247      0.335991     -0.906476     0.0204663
        49       114.779      -1.24544      0.338965     -0.906478     0.0202124
        50        115.62      -1.24793      0.341448     -0.906478     0.0200009
        51       116.292      -1.24991      0.343434     -0.906476     0.0198355
        52       116.805      -1.25142      0.344949     -0.906471     0.0196971
        53       117.177      -1.25251      0.346047     -0.906465     0.0195985
        54       117.432      -1.25326        0.3468     -0.906459     0.0195277
        55       117.597      -1.25374      0.347289     -0.906454     0.0194818
        56       117.701      -1.25404      0.347595     -0.906449     0.0194561
        57       117.764      -1.25423      0.347782     -0.906446     0.0194408
        58       117.802      -1.25434      0.347893     -0.906444     0.0194404
        59        117.82      -1.25439      0.347947     -0.906444     0.0194438
        60       117.819      -1.25439      0.347944     -0.906445     0.0194426
        61       117.795      -1.25432      0.347874     -0.906445     0.0194555
        62       117.746      -1.25417      0.347729     -0.906445     0.0194784
        63        117.67      -1.25395      0.347505     -0.906445     0.0195048
        64       117.571      -1.25366      0.347213     -0.906442     0.0195384
        65       117.458      -1.25332      0.346876     -0.906439     0.0195804
        66       117.341      -1.25297      0.346532     -0.906436     0.0196176
        67       117.237      -1.25266      0.346224     -0.906432     0.0196607
        68       117.161      -1.25243      0.345999     -0.906429     0.0196926
        69       117.127      -1.25233      0.345899     -0.906426     0.0197242
        70       117.147      -1.25238      0.345958     -0.906424     0.0197376
        71       117.228      -1.25262      0.346198     -0.906422     0.0197307
        72       117.375      -1.25305      0.346631     -0.906423     0.0197025
        73       117.584      -1.25367       0.34725     -0.906424     0.0196664
        74        117.85      -1.25446      0.348035     -0.906426      0.019619
        75       118.161      -1.25538      0.348954     -0.906429     0.0195566
        76       118.503       -1.2564      0.349965     -0.906432     0.0194857
        77       118.861      -1.25746      0.351021     -0.906435     0.0194253
        78       119.217      -1.25851      0.352073     -0.906438      0.019355
        79       119.555      -1.25951      0.353071     -0.906441     0.0192775
        80        119.86      -1.26041       0.35397     -0.906443     0.0192145
        81       120.118      -1.26118      0.354733     -0.906445     0.0191577
        82       120.321      -1.26178      0.355331     -0.906446     0.0191192
        83       120.462      -1.26219      0.355748     -0.906446     0.0190923
        84        120.54      -1.26242      0.355979     -0.906445     0.0190821
        85       120.557      -1.26247       0.35603     -0.906444     0.0190849
        86       120.518      -1.26236      0.355914     -0.906443     0.0191058
        87        120.43       -1.2621      0.355655     -0.906441     0.0191331
        88       120.303      -1.26172       0.35528     -0.906439     0.0191723
        89       120.147      -1.26125      0.354817     -0.906437      0.019211
        90       119.972      -1.26074      0.354301     -0.906435     0.0192626
        91       119.789      -1.26019      0.353761     -0.906433     0.0193191
        92       119.609      -1.25966      0.353231     -0.906431     0.0193646
        93       119.443      -1.25917      0.352738      -0.90643     0.0193981
        94       119.297      -1.25874      0.352308     -0.906429     0.0194174
        95       119.179      -1.25839       0.35196     -0.906428     0.0194434
        96       119.094      -1.25814      0.351709     -0.906427     0.0194551
        97       119.046      -1.25799      0.351566     -0.906427     0.0194482
        98       119.035      -1.25796      0.351535     -0.906428     0.0194338
        99       119.062      -1.25804      0.351616     -0.906428     0.0193987
       100       119.126      -1.25823      0.351803     -0.906429     0.0193596
       101       119.222      -1.25852      0.352088     -0.906429     0.0193125
       102       119.347      -1.25889      0.352458      -0.90643     0.0192582
       103       119.498      -1.25933      0.352902     -0.906431     0.0191882
       104        119.67      -1.25984      0.353409     -0.906432     0.0191229
       105       119.859       -1.2604      0.353968     -0.906432     0.0190341
       106       120.064      -1.26101      0.354573     -0.906433     0.0189403
       107       120.283      -1.26165      0.355219     -0.906433     0.0188517
       108       120.516      -1.26234      0.355907     -0.906432     0.0187438
       109       120.765      -1.26307      0.356644     -0.906431     0.0186311
       110       121.034      -1.26387      0.357438     -0.906429     0.0185109
       111       121.327      -1.26473      0.358303     -0.906428     0.0183856
       112        121.65      -1.26569      0.359258     -0.906427     0.0182538
       113        122.01      -1.26675      0.360321     -0.906425     0.0180977
       114       122.412      -1.26793      0.361509     -0.906423     0.0179372
       115       122.863      -1.26926      0.362838     -0.906422     0.0177678
       116       123.364      -1.27074       0.36432     -0.906421      0.017579
       117       123.919      -1.27238      0.365957     -0.906421     0.0173771
       118       124.525      -1.27417      0.367749     -0.906421     0.0171626
       119       125.181      -1.27611      0.369686     -0.906422     0.0169382
       120        125.88      -1.27817      0.371751     -0.906424     0.0166961
       121       126.614      -1.28034      0.373918     -0.906425     0.0164502
       122       127.372      -1.28258      0.376157     -0.906428     0.0162003
       123       128.143      -1.28486      0.378433      -0.90643      0.015945
       124       128.914      -1.28714      0.380708     -0.906432      0.015688
       125       129.671      -1.28938      0.382946     -0.906434      0.015446
       126       130.403      -1.29154      0.385108     -0.906437     0.0152112
       127       131.099       -1.2936      0.387163     -0.906437     0.0149787
       128       131.749      -1.29552      0.389082     -0.906438      0.014761
       129       132.345      -1.29728      0.390841      -0.90644      0.014564
       130       132.879      -1.29886       0.39242      -0.90644     0.0143846
       131       133.349      -1.30025      0.393807     -0.906441     0.0142259
       132       133.751      -1.30143      0.394994     -0.906441      0.014094
       133       134.083      -1.30242      0.395975     -0.906441     0.0139779
       134       134.346      -1.30319      0.396751     -0.906441     0.0138927
       135       134.538      -1.30376       0.39732     -0.906441     0.0138271
       136       134.662      -1.30412      0.397684     -0.906441     0.0137779
       137       134.716      -1.30429      0.397845     -0.906441     0.0137596
       138       134.702      -1.30424      0.397804     -0.906441     0.0137625
       139       134.619        -1.304      0.397559     -0.906441     0.0137866
       140       134.467      -1.30355      0.397108     -0.906442     0.0138336
       141       134.243      -1.30289      0.396448     -0.906443     0.0139088
       142       133.946      -1.30201      0.395571     -0.906444     0.0140043
       143       133.574      -1.30092      0.394471     -0.906444     0.0141174
       144       133.124      -1.29959      0.393142     -0.906445     0.0142614
       145       132.594      -1.29802      0.391578     -0.906446     0.0144204
       146       131.983      -1.29622      0.389774     -0.906446     0.0146058
       147       131.291      -1.29418       0.38773     -0.906445     0.0148255
       148        130.52       -1.2919      0.385451     -0.906445     0.0150625
       149       129.671      -1.28939      0.382945     -0.906445     0.0153272
       150        128.75      -1.28667      0.380225     -0.906443     0.0156179
       151       127.764      -1.28376      0.377314     -0.906442     0.0159242
       152       126.722      -1.28068      0.374237      -0.90644      0.016237
       153       125.634      -1.27746      0.371024     -0.906437     0.0165662
       154       124.513      -1.27415      0.367712     -0.906435     0.0169033
       155       123.371      -1.27077       0.36434     -0.906432     0.0172562
       156       122.221      -1.26737      0.360945      -0.90643     0.0176011
       157       121.078        -1.264       0.35757     -0.906427     0.0179472
       158       119.956      -1.26068      0.354255     -0.906425     0.0182901
       159       118.869      -1.25747      0.351045     -0.906423     0.0186259
       160       117.831       -1.2544       0.34798      -0.90642     0.0189406
       161       116.857      -1.25152      0.345102     -0.906418     0.0192433
       162       115.959      -1.24886       0.34245     -0.906415     0.0195185
       163        115.15      -1.24647      0.340062     -0.906413     0.0197677
       164       114.443      -1.24438      0.337973     -0.906411     0.0199873
       165       113.847      -1.24262      0.336213      -0.90641     0.0201746
       166       113.371      -1.24122      0.334807     -0.906409     0.0203301
       167       113.021      -1.24018      0.333776     -0.906408     0.0204424
       168       112.803      -1.23954      0.333129     -0.906408     0.0205199
       169       112.715      -1.23928      0.332872     -0.906408     0.0205605
       170       112.758      -1.23941      0.332999     -0.906409     0.0205663
       171       112.927      -1.23991      0.333497      -0.90641     0.0205335
       172       113.214      -1.24076      0.334345     -0.906411     0.0204639
       173        113.61      -1.24193      0.335515     -0.906413     0.0203649
       174       114.105      -1.24339      0.336974     -0.906415     0.0202231
       175       114.685      -1.24511      0.338688     -0.906418     0.0200681
       176       115.339      -1.24704      0.340618     -0.906419     0.0198837
       177       116.052      -1.24915      0.342725     -0.906422     0.0196802
       178       116.813       -1.2514      0.344972     -0.906424     0.0194677
       179       117.609      -1.25375      0.347322     -0.906425     0.0192447
       180       118.428      -1.25617      0.349741     -0.906427         0.019
       181       119.259      -1.25863      0.352197     -0.906429     0.0187466
       182       120.093      -1.26109      0.354659     -0.906431     0.0185005
       183       120.919      -1.26353      0.357099     -0.906433     0.0182566
       184       121.727      -1.26592      0.359486     -0.906435     0.0180114
       185       122.508      -1.26823      0.361793     -0.906436     0.0177791
       186       123.253      -1.27043      0.363991     -0.906438      0.017551
       187       123.952      -1.27249      0.366055     -0.906439     0.0173396
       188       124.597       -1.2744      0.367961      -0.90644      0.017139
       189       125.182      -1.27613      0.369689      -0.90644     0.0169527
       190       125.703      -1.27767      0.371226      -0.90644     0.0167855
       191       126.156      -1.27901      0.372566     -0.906441     0.0166346
       192       126.543      -1.28015      0.373708      -0.90644     0.0165004
       193       126.866       -1.2811      0.374662     -0.906439     0.0163855
       194       127.128      -1.28187      0.375437     -0.906438     0.0162921
       195       127.336      -1.28249       0.37605     -0.906436      0.016214
       196       127.496      -1.28296      0.376522     -0.906435     0.0161446
       197       127.614       -1.2833       0.37687     -0.906433     0.0160805
       198       127.696      -1.28354      0.377112     -0.906432      0.016025
       199       127.748       -1.2837      0.377265     -0.906431     0.0159996
       200       127.773      -1.28377       0.37734     -0.906431     0.0159637
       201       127.776      -1.28378      0.377348      -0.90643     0.0159408
       202        127.76      -1.28373      0.377301     -0.906429     0.0159169
       203       127.729      -1.28364       0.37721      -0.90643     0.0159088
       204       127.686      -1.28351      0.377084     -0.906429     0.0159041
       205       127.637      -1.28337      0.376939     -0.906428     0.0159032
       206       127.586      -1.28321      0.376787     -0.906428     0.0158935
       207       127.536      -1.28307      0.376641     -0.906427     0.0158836
       208       127.494      -1.28294      0.376515     -0.906426     0.0158676
       209       127.461      -1.28284      0.376418     -0.906425     0.0158558
       210       127.441      -1.28278      0.376358     -0.906425     0.0158444
       211       127.435      -1.28277      0.376341     -0.906425     0.0158248
       212       127.443      -1.28279      0.376367     -0.906426     0.0157987
       213       127.465      -1.28286      0.376431     -0.906427     0.0157795
       214       127.498      -1.28296      0.376529     -0.906427     0.0157646
       215        127.54      -1.28308      0.376652     -0.906428     0.0157381
       216       127.587      -1.28322       0.37679     -0.906429     0.0157078
       217       127.635      -1.28336      0.376933      -0.90643     0.0156841
       218       127.681       -1.2835      0.377069     -0.906431     0.0156568
       219       127.722      -1.28362      0.377189     -0.906432     0.0156382
       220       127.753      -1.28371      0.377281     -0.906433     0.0156227
       221       127.771      -1.28377      0.377333     -0.906434     0.0156016
       222       127.771      -1.28377      0.377335     -0.906436     0.0155904
       223       127.752      -1.28371      0.377277     -0.906437     0.0155835
       224       127.708      -1.28358      0.377148     -0.906437       0.01558
       225       127.638      -1.28338      0.376941     -0.906437     0.0155919
       226        127.54      -1.28309      0.376653     -0.906437     0.0156112
       227       127.416      -1.28272      0.376285     -0.906436     0.0156327
       228       127.266      -1.28228      0.375842     -0.906435     0.0156672
       229       127.096      -1.28177      0.375339     -0.906434     0.0156988
       230       126.911      -1.28123      0.374794     -0.906432     0.0157418
       231       126.721      -1.28066      0.374233     -0.906429     0.0157841
       232       126.537      -1.28012      0.373688     -0.906427     0.0158326
       233        126.37      -1.27962      0.373196     -0.906425      0.015866
       234       126.234      -1.27922      0.372794     -0.906422     0.0158893
       235        126.14      -1.27894      0.372517      -0.90642     0.0158943
       236       126.099      -1.27882      0.372397     -0.906418     0.0158879
       237       126.121      -1.27888      0.372461     -0.906417     0.0158711
       238        126.21      -1.27914      0.372725     -0.906416     0.0158326
       239       126.371      -1.27962        0.3732     -0.906417     0.0157831
       240       126.602       -1.2803      0.373881     -0.906418       0.01571
       241       126.896      -1.28117      0.374751     -0.906419     0.0156163
       242       127.246      -1.28221      0.375785     -0.906421      0.015506
       243       127.641      -1.28337      0.376949     -0.906424     0.0153837
       244       128.066      -1.28463      0.378204     -0.906427     0.0152464
       245       128.507      -1.28594      0.379508      -0.90643     0.0151274
       246        128.95      -1.28725      0.380815     -0.906432     0.0149916
       247       129.379      -1.28852      0.382084     -0.906434     0.0148558
       248       129.783      -1.28971      0.383277     -0.906436     0.0147348
       249       130.151       -1.2908      0.384364     -0.906437     0.0146169
       250       130.476      -1.29176      0.385323     -0.906438     0.0145154
       251       130.753      -1.29258      0.386142     -0.906438     0.0144254
       252       130.981      -1.29325      0.386814     -0.906437     0.0143489
       253       131.161      -1.29378      0.387345     -0.906436     0.0142906
       254       131.297      -1.29418      0.387748     -0.906435     0.0142382
       255       131.398      -1.29448      0.388045     -0.906433     0.0142013
       256        131.47      -1.29469      0.388259     -0.906432     0.0141602
       257       131.523      -1.29484      0.388414      -0.90643     0.0141373
       258       131.564      -1.29496      0.388534     -0.906429     0.0141178
       259       131.599      -1.29507      0.388639     -0.906428     0.0141132
       260       131.633      -1.29517      0.388739     -0.906428     0.0141045
       261       131.666      -1.29527      0.388838     -0.906428     0.0140998
       262       131.697      -1.29536       0.38893     -0.906429       0.01409
       263       131.721      -1.29543      0.388998      -0.90643     0.0140828
       264       131.729      -1.29545      0.389022     -0.906432     0.0140902
       265       131.712      -1.29541      0.388972     -0.906434     0.0141046
       266       131.659      -1.29525      0.388816     -0.906437     0.0141256
       267       131.561      -1.29497      0.388527     -0.906439     0.0141718
       268       131.408      -1.29452      0.388076     -0.906442     0.0142163
       269       131.193      -1.29388      0.387441     -0.906443      0.014282
       270       130.911      -1.29305      0.386607     -0.906443     0.0143765
       271       130.559      -1.29201      0.385568     -0.906443     0.0144855
       272       130.139      -1.29077      0.384327     -0.906443     0.0146117
       273       129.656      -1.28934      0.382899     -0.906442     0.0147519
       274       129.117      -1.28775      0.381309      -0.90644     0.0149087
       275       128.534      -1.28602      0.379587     -0.906437     0.0150854
       276        127.92      -1.28421      0.377774     -0.906435     0.0152635
       277        127.29      -1.28235      0.375914     -0.906431     0.0154515
       278       126.663      -1.28049      0.374061     -0.906429     0.0156282
       279       126.056      -1.27869      0.372268     -0.906425     0.0157984
       280       125.487      -1.27701      0.370589     -0.906422     0.0159617
       281       124.975       -1.2755      0.369077     -0.906419     0.0161033
       282       124.536       -1.2742      0.367781     -0.906417     0.0162269
       283       124.185      -1.27316      0.366743     -0.906415     0.0163283
       284       123.933      -1.27241      0.365999     -0.906413     0.0163976
       285        123.79      -1.27199      0.365578     -0.906412     0.0164354
       286       123.764      -1.27191        0.3655     -0.906411     0.0164413
       287       123.857      -1.27219      0.365774     -0.906411     0.0164097
       288        124.07      -1.27281      0.366403     -0.906411     0.0163534
       289       124.399      -1.27379      0.367376     -0.906412     0.0162588
       290       124.838      -1.27509      0.368673     -0.906414     0.0161278
       291       125.377      -1.27668      0.370264     -0.906416     0.0159682
       292       126.001      -1.27853      0.372107     -0.906419     0.0157825
       293       126.695      -1.28058      0.374155     -0.906422     0.0155769
       294       127.438      -1.28278      0.376351     -0.906425     0.0153748
       295       128.211      -1.28506      0.378632     -0.906429      0.015161
       296       128.991      -1.28737      0.380937     -0.906432     0.0149415
       297       129.758      -1.28964      0.383202     -0.906435     0.0147174
       298       130.492      -1.29181      0.385369     -0.906437     0.0145025
       299       131.173      -1.29382      0.387382      -0.90644     0.0143005
       300       131.788      -1.29564      0.389197     -0.906442     0.0141239
       301       132.323      -1.29722      0.390776     -0.906443     0.0139666
       302       132.768      -1.29854      0.392092     -0.906443     0.0138315
       303       133.119      -1.29957      0.393129     -0.906443     0.0137218
       304       133.374      -1.30032       0.39388     -0.906443     0.0136451
       305       133.533      -1.30079       0.39435     -0.906442     0.0135963
       306       133.601      -1.30099       0.39455      -0.90644     0.0135794
       307       133.585      -1.30094      0.394505     -0.906438     0.0135874
       308       133.496      -1.30068      0.394242     -0.906435     0.0136148
       309       133.346      -1.30023      0.393798     -0.906433     0.0136486
       310       133.147      -1.29964       0.39321      -0.90643     0.0137131
       311       132.912      -1.29894      0.392515     -0.906428     0.0137856
       312       132.651      -1.29817      0.391745     -0.906427     0.0138662
       313       132.374      -1.29735      0.390926     -0.906426     0.0139443
       314       132.086       -1.2965      0.390078     -0.906426     0.0140247
       315       131.791      -1.29563      0.389206     -0.906426     0.0141276
       316       131.488      -1.29474       0.38831     -0.906427     0.0142298
       317       131.173      -1.29381      0.387382     -0.906429     0.0143478
       318       130.845      -1.29284      0.386412     -0.906429     0.0144643
       319       130.498      -1.29182      0.385389      -0.90643     0.0145893
       320       130.133      -1.29074      0.384309      -0.90643     0.0147163
       321       129.749       -1.2896      0.383176     -0.906429     0.0148477
       322       129.351      -1.28843      0.382001     -0.906429     0.0149757
       323       128.947      -1.28723      0.380806     -0.906427     0.0151076
       324       128.545      -1.28605      0.379621     -0.906425     0.0152388
       325        128.16      -1.28491      0.378484     -0.906422     0.0153542
       326       127.806      -1.28386      0.377437     -0.906419      0.015466
       327       127.497      -1.28294      0.376525     -0.906416     0.0155653
       328       127.247       -1.2822      0.375786     -0.906414     0.0156548
       329       127.067      -1.28167      0.375254     -0.906412      0.015723
       330       126.965      -1.28137      0.374954     -0.906411     0.0157595
       331       126.947      -1.28131        0.3749     -0.906411     0.0157727
       332       127.013      -1.28151      0.375095     -0.906411     0.0157654
       333        127.16      -1.28194       0.37553     -0.906412     0.0157268
       334       127.383       -1.2826      0.376188     -0.906413     0.0156614
       335       127.674      -1.28346      0.377047     -0.906415     0.0155794
       336       128.023      -1.28449      0.378077     -0.906416     0.0154766
       337       128.421      -1.28567      0.379253     -0.906419     0.0153603
       338       128.859      -1.28697      0.380548      -0.90642     0.0152314
       339        129.33      -1.28836      0.381937     -0.906422     0.0150887
       340       129.826      -1.28982      0.383402     -0.906422     0.0149342
       341       130.342      -1.29135      0.384926     -0.906422     0.0147692
       342       130.875      -1.29292        0.3865     -0.906423     0.0145917
       343       131.422      -1.29454      0.388117     -0.906421     0.0144126
       344       131.982      -1.29619      0.389771     -0.906422      0.014226
       345       132.553      -1.29788      0.391456     -0.906422     0.0140361
       346       133.133      -1.29959      0.393168     -0.906422     0.0138502
       347       133.718      -1.30132      0.394896     -0.906422       0.01365
       348       134.304      -1.30305      0.396628     -0.906422     0.0134549
       349       134.887      -1.30477      0.398349     -0.906423     0.0132632
       350        135.46      -1.30647      0.400042     -0.906424     0.0130687
       351       136.016      -1.30811      0.401683     -0.906426     0.0128771
       352       136.547      -1.30968       0.40325     -0.906427     0.0127071
       353       137.044      -1.31115      0.404718     -0.906428     0.0125417
       354       137.498      -1.31249      0.406059      -0.90643      0.012377
       355       137.901      -1.31368      0.407249     -0.906431     0.0122302
       356       138.244       -1.3147      0.408264     -0.906433     0.0120987
       357       138.521      -1.31552      0.409082     -0.906433     0.0119863
       358       138.727      -1.31612       0.40969     -0.906434     0.0118894
       359       138.859      -1.31651      0.410078     -0.906434      0.011827
       360       138.915      -1.31668      0.410245     -0.906434     0.0117846
       361       138.899      -1.31663      0.410197     -0.906433     0.0117554
       362       138.814      -1.31638      0.409947     -0.906431     0.0117431
       363       138.669      -1.31595      0.409518     -0.906429     0.0117621
       364       138.473      -1.31537      0.408939     -0.906427     0.0117871
       365       138.238      -1.31467      0.408244     -0.906424     0.0118298
       366       137.977       -1.3139      0.407475     -0.906422     0.0118832
       367       137.706      -1.31309      0.406673     -0.906418     0.0119372
       368       137.439       -1.3123      0.405884     -0.906415     0.0120006
       369       137.191      -1.31156      0.405153     -0.906412     0.0120501
       370       136.977      -1.31093       0.40452      -0.90641     0.0121031
       371       136.807      -1.31043       0.40402     -0.906408     0.0121336
       372       136.693      -1.31009      0.403681     -0.906407     0.0121589
       373       136.639      -1.30993      0.403523     -0.906406      0.012177
       374        136.65      -1.30996      0.403554     -0.906406     0.0121678
       375       136.723      -1.31018      0.403772     -0.906407     0.0121574
       376       136.856      -1.31057      0.404163     -0.906409     0.0121292
       377       137.039      -1.31112      0.404704     -0.906411     0.0120883
       378       137.262      -1.31178      0.405363     -0.906414     0.0120441
       379       137.512      -1.31252        0.4061     -0.906416     0.0119984
       380       137.773      -1.31329      0.406873     -0.906419      0.011945
       381       138.033      -1.31406       0.40764     -0.906422     0.0118959
       382       138.276      -1.31478      0.408358     -0.906424     0.0118466
       383       138.489      -1.31541      0.408987     -0.906426     0.0118039
       384        138.66      -1.31592      0.409492     -0.906428     0.0117741
       385       138.779      -1.31627      0.409844     -0.906429     0.0117615
       386        138.84      -1.31645      0.410023      -0.90643      0.011776
       387       138.837      -1.31644      0.410014      -0.90643     0.0118124
       388       138.768      -1.31624      0.409812     -0.906431     0.0118582
       389       138.634      -1.31585      0.409416      -0.90643     0.0119297
       390       138.438      -1.31526      0.408835     -0.906429     0.0120162
       391       138.184      -1.31451      0.408086     -0.906428      0.012118
       392       137.881      -1.31362       0.40719     -0.906426     0.0122348
       393       137.536       -1.3126      0.406172     -0.906424      0.012366
       394       137.159      -1.31148      0.405058     -0.906423     0.0125044
       395       136.759       -1.3103      0.403878     -0.906421     0.0126555
       396       136.346      -1.30908      0.402659     -0.906419     0.0128071
       397       135.929      -1.30784      0.401426     -0.906419     0.0129618
       398       135.513      -1.30662      0.400198     -0.906418     0.0131261
       399       135.105      -1.30541      0.398992     -0.906417     0.0132919
       400       134.707      -1.30423      0.397817     -0.906417     0.0134451
       401       134.322       -1.3031       0.39668     -0.906418     0.0136014
       402       133.949        -1.302      0.395579     -0.906419     0.0137608
       403       133.587      -1.30093      0.394509     -0.906419     0.0139123
       404       133.231      -1.29988       0.39346      -0.90642     0.0140566
       405       132.878      -1.29884      0.392415     -0.906422     0.0142178
       406       132.518      -1.29778      0.391353     -0.906424      0.014373
       407       132.144      -1.29667      0.390249     -0.906425      0.014539
       408       131.748      -1.29551      0.389078     -0.906428     0.0147013
       409       131.318      -1.29424       0.38781      -0.90643     0.0148752
       410       130.848      -1.29285      0.386421     -0.906431     0.0150542
       411       130.329      -1.29132      0.384889     -0.906433     0.0152513
       412       129.758      -1.28963      0.383201     -0.906433     0.0154558
       413       129.132      -1.28779      0.381353     -0.906433     0.0156773
       414       128.455      -1.28578      0.379353     -0.906432      0.015903
       415       127.734      -1.28365      0.377224      -0.90643     0.0161372
       416       126.982      -1.28143      0.375004     -0.906427     0.0163923
       417       126.217      -1.27917      0.372746     -0.906424     0.0166387
       418       125.462      -1.27693      0.370514     -0.906419     0.0168785
       419       124.741       -1.2748      0.368385     -0.906415     0.0171014
       420       124.083      -1.27285      0.366444     -0.906409     0.0172995
       421       123.518      -1.27118      0.364775     -0.906404     0.0174733
       422       123.074      -1.26986      0.363463     -0.906399     0.0176119
       423       122.775      -1.26897       0.36258     -0.906395     0.0177055
       424       122.641      -1.26858      0.362183     -0.906393     0.0177442
       425       122.684       -1.2687       0.36231     -0.906392     0.0177392
       426       122.908      -1.26937      0.362974     -0.906393     0.0176799
       427       123.309      -1.27055      0.364158     -0.906395      0.017566
       428       123.873      -1.27222      0.365821     -0.906399     0.0174029
       429       124.576       -1.2743      0.367899     -0.906405     0.0172047
       430       125.391      -1.27672      0.370306     -0.906411     0.0169694
       431       126.285      -1.27936      0.372945     -0.906418     0.0167044
       432        127.22      -1.28213      0.375706     -0.906425     0.0164293
       433       128.159      -1.28491       0.37848     -0.906432     0.0161494
       434       129.066       -1.2876      0.381157     -0.906438     0.0158699
       435       129.906      -1.29008      0.383638     -0.906444     0.0156163
       436       130.648      -1.29228      0.385832     -0.906449     0.0153792
       437       131.268      -1.29411      0.387661     -0.906453     0.0151644
       438       131.743      -1.29552      0.389065     -0.906455     0.0149956
       439       132.059      -1.29646      0.389999     -0.906457      0.014869
       440       132.208      -1.29689      0.390437     -0.906457     0.0147823
       441       132.186      -1.29683      0.390374     -0.906456      0.014743
       442           132      -1.29628      0.389823     -0.906455     0.0147466
       443       131.661      -1.29527      0.388823     -0.906451     0.0147868
       444       131.189      -1.29388      0.387429     -0.906447     0.0148636
       445        130.61      -1.29216      0.385719      -0.90644     0.0149704
       446       129.956      -1.29022      0.383786     -0.906434     0.0150958
       447       129.261      -1.28816      0.381734     -0.906426     0.0152323
       448       128.562      -1.28609      0.379671      -0.90642     0.0153671
       449       127.896      -1.28412      0.377704     -0.906414     0.0154956
       450       127.296      -1.28234      0.375931     -0.906409     0.0155961
       451        126.79      -1.28084      0.374437     -0.906405     0.0156825
       452         126.4      -1.27969      0.373286     -0.906402     0.0157426
       453        126.14      -1.27892      0.372518     -0.906401     0.0157693
       454       126.016      -1.27855      0.372151     -0.906401      0.015756
       455       126.027      -1.27859      0.372183     -0.906403     0.0157094
       456       126.167        -1.279      0.372596     -0.906405     0.0156295
       457       126.424      -1.27976      0.373356     -0.906408     0.0155175
       458       126.783      -1.28083      0.374416     -0.906411     0.0153792
       459       127.228      -1.28214      0.375729     -0.906414      0.015227
       460        127.74      -1.28366      0.377241     -0.906417     0.0150481
       461       128.301      -1.28532      0.378898      -0.90642     0.0148602
       462       128.893      -1.28707      0.380646     -0.906423     0.0146587
       463       129.498      -1.28886      0.382435     -0.906426     0.0144629
       464       130.102      -1.29065      0.384219     -0.906428      0.014269
       465        130.69      -1.29239      0.385956      -0.90643     0.0140812
       466        131.25      -1.29404      0.387607     -0.906432      0.013908
       467       131.769      -1.29557       0.38914     -0.906434     0.0137461
       468       132.237      -1.29696      0.390522     -0.906435     0.0136002
       469       132.646      -1.29817       0.39173     -0.906436     0.0134761
       470       132.988      -1.29918       0.39274     -0.906437     0.0133628
       471       133.257      -1.29997      0.393534     -0.906438     0.0132654
       472       133.448      -1.30054      0.394098     -0.906439     0.0131968
       473       133.557      -1.30086      0.394422     -0.906439     0.0131561
       474       133.585      -1.30094      0.394503     -0.906439     0.0131421
       475       133.531      -1.30078      0.394346     -0.906439     0.0131476
       476       133.401       -1.3004       0.39396     -0.906437     0.0131783
       477       133.199       -1.2998      0.393365     -0.906436     0.0132324
       478       132.935      -1.29902      0.392584     -0.906434     0.0133075
       479       132.618      -1.29808      0.391648     -0.906431     0.0134055
       480       132.261      -1.29702      0.390593     -0.906429       0.01351
       481       131.876      -1.29588      0.389457     -0.906427     0.0136257
       482       131.476       -1.2947      0.388276     -0.906425     0.0137521
       483       131.075      -1.29351      0.387091     -0.906422     0.0138658
       484       130.684      -1.29236      0.385936     -0.906421     0.0139831
       485       130.314      -1.29126      0.384843     -0.906419     0.0140942
       486       129.975      -1.29026      0.383843     -0.906418     0.0142044
       487       129.677      -1.28938      0.382963     -0.906417     0.0142947
       488       129.426      -1.28864      0.382221     -0.906416     0.0143826
       489       129.228      -1.28805      0.381637     -0.906415       0.01445
       490       129.088      -1.28764      0.381225     -0.906415     0.0145103
       491       129.009      -1.28741      0.380991     -0.906415     0.0145559
       492       128.993      -1.28736      0.380943     -0.906414     0.0145814
       493       129.039      -1.28749      0.381078     -0.906415     0.0145887
       494       129.143       -1.2878      0.381386     -0.906416     0.0145787
       495         129.3      -1.28827      0.381849     -0.906418     0.0145563
       496       129.499      -1.28886      0.382438      -0.90642     0.0145177
       497       129.728      -1.28954      0.383114     -0.906423     0.0144812
       498        129.97      -1.29025      0.383828     -0.906427     0.0144365
       499       130.206      -1.29096      0.384525      -0.90643     0.0144002
       500       130.416      -1.29158      0.385145     -0.906434      0.014368
       501       130.577      -1.29206       0.38562     -0.906438     0.0143474
       502       130.668      -1.29233      0.385889     -0.906442     0.0143474
       503        130.67      -1.29234      0.385896     -0.906445     0.0143615
       504       130.568      -1.29204      0.385593     -0.906447     0.0144154
       505       130.347      -1.29139      0.384942     -0.906448     0.0144978
       506       130.002      -1.29037      0.383923     -0.906449     0.0146039
       507       129.531      -1.28898      0.382532     -0.906449     0.0147537
       508       128.939      -1.28723      0.380784     -0.906446     0.0149363
       509       128.238      -1.28516      0.378713     -0.906443     0.0151438
       510       127.445      -1.28281       0.37637     -0.906439     0.0153781
       511       126.582      -1.28026      0.373823     -0.906434     0.0156334
       512       125.676      -1.27758      0.371146     -0.906429     0.0159029
       513       124.753      -1.27485      0.368422     -0.906424     0.0161714
       514       123.841      -1.27215      0.365729      -0.90642     0.0164432
       515       122.964      -1.26955      0.363138     -0.906416     0.0167004
       516        122.14      -1.26712      0.360704     -0.906415     0.0169626
       517       121.382      -1.26488      0.358465     -0.906414     0.0172031
       518       120.696      -1.26286      0.356441     -0.906414     0.0174263
       519       120.085      -1.26105      0.354637     -0.906415       0.01763
       520       119.545      -1.25946      0.353041     -0.906416     0.0178096
       521        119.07      -1.25805      0.351637     -0.906417     0.0179712
       522       118.653      -1.25682      0.350405     -0.906418     0.0181094
       523       118.288      -1.25575       0.34933     -0.906419     0.0182252
       524       117.975      -1.25482      0.348406     -0.906419     0.0183369
       525       117.715      -1.25406      0.347637     -0.906418     0.0184291
       526       117.513      -1.25346      0.347039     -0.906416     0.0185102
       527       117.376      -1.25305      0.346635     -0.906414     0.0185732
       528       117.315      -1.25287      0.346454     -0.906412     0.0186058
       529       117.337      -1.25293      0.346522     -0.906411     0.0186172
       530       117.451      -1.25327      0.346856      -0.90641     0.0186042
       531       117.656      -1.25387      0.347462      -0.90641     0.0185666
       532       117.949      -1.25474      0.348326     -0.906412      0.018494
       533       118.319      -1.25584      0.349421     -0.906414     0.0184136
       534       118.753      -1.25712      0.350702     -0.906417     0.0182998
       535       119.232      -1.25854      0.352117      -0.90642     0.0181868
       536       119.737      -1.26003      0.353607     -0.906423     0.0180502
       537       120.248      -1.26154      0.355118     -0.906426     0.0179129
       538       120.752      -1.26303      0.356606     -0.906428     0.0177723
       539       121.236      -1.26446      0.358036     -0.906429     0.0176365
       540       121.695      -1.26582      0.359389     -0.906428     0.0175092
       541       122.124      -1.26708      0.360657     -0.906427     0.0173848
       542       122.525      -1.26827       0.36184     -0.906425     0.0172749
       543       122.901      -1.26937      0.362951     -0.906424     0.0171656
       544       123.258      -1.27043      0.364005     -0.906422     0.0170558
       545       123.601      -1.27144      0.365019     -0.906421      0.016956
       546       123.936      -1.27243      0.366008     -0.906419     0.0168535
       547       124.266       -1.2734      0.366984     -0.906419     0.0167607
       548       124.593      -1.27437       0.36795     -0.906419     0.0166644
       549       124.917      -1.27532      0.368905     -0.906419     0.0165748
       550       125.233      -1.27626      0.369839      -0.90642     0.0164848
       551       125.536      -1.27715      0.370732     -0.906422     0.0163947
       552       125.816      -1.27799      0.371561     -0.906424       0.01631
       553       126.066      -1.27872      0.372298     -0.906425     0.0162381
       554       126.274      -1.27934      0.372912     -0.906427     0.0161754
       555       126.429       -1.2798      0.373372     -0.906429     0.0161392
       556       126.524      -1.28008       0.37365     -0.906431     0.0161189
       557       126.549      -1.28016      0.373726     -0.906432     0.0161085
       558         126.5      -1.28001      0.373582     -0.906432     0.0161255
       559       126.374      -1.27964      0.373209     -0.906432     0.0161626
       560       126.171      -1.27904       0.37261     -0.906431     0.0162262
       561       125.895      -1.27822      0.371795     -0.906429     0.0163119
       562       125.553      -1.27721      0.370783     -0.906428     0.0164162
       563       125.153      -1.27603      0.369603     -0.906426     0.0165268
       564       124.709      -1.27471       0.36829     -0.906423     0.0166501
       565       124.234      -1.27331      0.366887      -0.90642     0.0167888
       566       123.744      -1.27186      0.365441     -0.906417     0.0169255
       567       123.256      -1.27042      0.364002     -0.906414      0.017072
       568       122.788      -1.26903      0.362618     -0.906411     0.0172107
       569       122.354      -1.26775      0.361338     -0.906409     0.0173356
       570       121.971      -1.26661      0.360205     -0.906407     0.0174574
       571        121.65      -1.26566      0.359257     -0.906405       0.01755
       572       121.401      -1.26493      0.358523     -0.906404     0.0176283
       573       121.233      -1.26443      0.358026     -0.906404     0.0176822
       574        121.15      -1.26418      0.357781     -0.906403     0.0177168
       575       121.155       -1.2642      0.357794     -0.906403     0.0177297
       576       121.247      -1.26447      0.358068     -0.906404     0.0177176
       577       121.426        -1.265      0.358595     -0.906405     0.0176875
       578       121.685      -1.26577      0.359362     -0.906406     0.0176275
       579        122.02      -1.26676      0.360349     -0.906408     0.0175524
       580        122.42      -1.26794      0.361531      -0.90641     0.0174497
       581       122.876      -1.26929      0.362879     -0.906413     0.0173434
       582       123.378      -1.27077      0.364359     -0.906415     0.0172233
       583       123.911      -1.27235      0.365935     -0.906418     0.0170943
       584       124.464      -1.27399      0.367568      -0.90642     0.0169517
       585       125.025      -1.27565      0.369224     -0.906422     0.0168132
       586       125.581      -1.27729      0.370868     -0.906425     0.0166786
       587       126.124       -1.2789       0.37247     -0.906427      0.016544
       588       126.643      -1.28043      0.374004     -0.906428     0.0164135
       589       127.133      -1.28188       0.37545     -0.906429     0.0162904
       590       127.588      -1.28322      0.376793     -0.906429     0.0161679
       591       128.006      -1.28446      0.378028      -0.90643     0.0160596
       592       128.386      -1.28558       0.37915      -0.90643     0.0159626
       593       128.729      -1.28659      0.380163     -0.906429      0.015875
       594       129.039      -1.28751      0.381077     -0.906428      0.015804
       595       129.319      -1.28833      0.381906     -0.906426     0.0157355
       596       129.577      -1.28909      0.382668     -0.906425     0.0156727
       597       129.819      -1.28981      0.383382     -0.906424     0.0156138
       598       130.052      -1.29049       0.38407     -0.906422     0.0155555
       599       130.282      -1.29117      0.384751     -0.906421     0.0154994
       600       130.516      -1.29186      0.385439     -0.906421     0.0154443
       601       130.754      -1.29256      0.386144      -0.90642     0.0153861
       602       130.998      -1.29329      0.386865     -0.906421     0.0153232
       603       131.246      -1.29402      0.387596     -0.906421      0.015261
       604       131.493      -1.29475      0.388325     -0.906422      0.015199
       605       131.731      -1.29545       0.38903     -0.906424     0.0151373
       606       131.953      -1.29611      0.389686     -0.906426     0.0150911
       607        132.15      -1.29669      0.390266     -0.906428     0.0150415
       608       132.311      -1.29717      0.390742     -0.906429     0.0150039
       609       132.429      -1.29752      0.391089     -0.906431     0.0149821
       610       132.495      -1.29772      0.391286     -0.906432     0.0149615
       611       132.506      -1.29775      0.391317     -0.906433     0.0149628
       612       132.457      -1.29761      0.391174     -0.906433     0.0149687
       613       132.351      -1.29729      0.390859     -0.906432     0.0149968
       614       132.189      -1.29681      0.390381     -0.906431     0.0150346
       615       131.979      -1.29619      0.389762     -0.906429     0.0150948
       616       131.731      -1.29546      0.389029     -0.906427     0.0151501
       617       131.457      -1.29464      0.388219     -0.906424     0.0152086
       618        131.17      -1.29379      0.387373     -0.906421     0.0152744
       619       130.888      -1.29296       0.38654     -0.906418     0.0153384
       620       130.627      -1.29219       0.38577     -0.906416     0.0153877
       621       130.404      -1.29152      0.385109     -0.906413     0.0154216
       622       130.231      -1.29101      0.384599      -0.90641     0.0154523
       623       130.122      -1.29068      0.384276     -0.906409     0.0154586
       624       130.084      -1.29057      0.384166     -0.906408     0.0154382
       625       130.125      -1.29069      0.384287     -0.906408     0.0153991
       626       130.247      -1.29105      0.384646     -0.906408     0.0153391
       627       130.449      -1.29165      0.385243     -0.906409     0.0152469
       628       130.728      -1.29248      0.386068      -0.90641     0.0151431
       629       131.078      -1.29351      0.387101     -0.906411     0.0150082
       630       131.491      -1.29473      0.388321     -0.906413     0.0148473
       631       131.959      -1.29612      0.389703     -0.906414     0.0146793
       632       132.474      -1.29764      0.391223     -0.906416     0.0144966
       633       133.028      -1.29928      0.392859     -0.906418     0.0142935
       634       133.614      -1.30101      0.394589     -0.906419      0.014082
       635       134.225      -1.30282      0.396394     -0.906421     0.0138708
       636       134.856      -1.30468      0.398257     -0.906422      0.013649
       637         135.5      -1.30658      0.400158     -0.906423     0.0134218
       638        136.15       -1.3085       0.40208     -0.906423     0.0132031
       639       136.801      -1.31043      0.404002     -0.906425     0.0129786
       640       137.444      -1.31233        0.4059     -0.906426     0.0127561
       641       138.069      -1.31417      0.407745     -0.906428     0.0125401
       642       138.666      -1.31594      0.409508      -0.90643     0.0123321
       643       139.224      -1.31759      0.411156     -0.906431     0.0121471
       644       139.731      -1.31909      0.412653     -0.906433     0.0119752
       645       140.175       -1.3204      0.413965     -0.906436     0.0118234
       646       140.546       -1.3215       0.41506     -0.906437     0.0116965
       647       140.832      -1.32235      0.415906     -0.906439     0.0115877
       648       141.026      -1.32292      0.416477     -0.906441     0.0115078
       649       141.117      -1.32319      0.416749     -0.906442     0.0114625
       650       141.101      -1.32314        0.4167     -0.906443     0.0114487
       651       140.971      -1.32276      0.416316     -0.906444      0.011476
       652       140.724      -1.32203      0.415586     -0.906445     0.0115339
       653       140.358      -1.32095      0.414506     -0.906444     0.0116228
       654       139.874      -1.31952      0.413076     -0.906444     0.0117504
       655       139.274      -1.31775      0.411306     -0.906443     0.0119158
       656       138.566      -1.31565      0.409213     -0.906442     0.0121106
       657       137.757      -1.31326      0.406826     -0.906439     0.0123368
       658       136.862      -1.31062      0.404181     -0.906436     0.0125907
       659       135.896      -1.30776       0.40133     -0.906433     0.0128495
       660       134.882      -1.30476      0.398335     -0.906428     0.0131368
       661       133.843      -1.30169      0.395265     -0.906424     0.0134264
       662       132.804      -1.29862      0.392198     -0.906418     0.0137324
       663       131.793      -1.29563      0.389212     -0.906413     0.0140215
       664       130.836       -1.2928      0.386387     -0.906409     0.0142946
       665       129.959       -1.2902      0.383796     -0.906405     0.0145482
       666       129.182       -1.2879      0.381502     -0.906402     0.0147817
       667       128.522      -1.28595      0.379552       -0.9064     0.0149939
       668       127.989      -1.28438      0.377977       -0.9064     0.0151676
       669       127.584      -1.28318      0.376782     -0.906401     0.0153102
       670       127.304      -1.28236      0.375954     -0.906404     0.0154213
       671       127.136      -1.28187      0.375458     -0.906408      0.015504
       672       127.061      -1.28165      0.375237     -0.906413     0.0155666
       673       127.056      -1.28164      0.375222     -0.906418     0.0156167
       674       127.093      -1.28176      0.375332     -0.906424     0.0156486
       675       127.143      -1.28191       0.37548      -0.90643     0.0156832
       676       127.176      -1.28201      0.375576     -0.906436     0.0157234
       677       127.162      -1.28198      0.375536     -0.906441     0.0157718
       678       127.076      -1.28173      0.375282     -0.906445     0.0158385
       679       126.897       -1.2812      0.374753     -0.906448     0.0159256
       680       126.609      -1.28035      0.373904      -0.90645     0.0160421
       681       126.203      -1.27916      0.372705     -0.906451     0.0162001
       682       125.677       -1.2776      0.371149      -0.90645     0.0163919
       683       125.034       -1.2757      0.369252     -0.906448     0.0166143
       684       124.288      -1.27349      0.367047     -0.906445     0.0168558
       685       123.457      -1.27103      0.364593      -0.90644     0.0171307
       686       122.566       -1.2684      0.361963     -0.906434     0.0174139
       687       121.647      -1.26568      0.359249     -0.906428     0.0176956
       688       120.733      -1.26297       0.35655     -0.906421     0.0179762
       689       119.861      -1.26039      0.353973     -0.906415     0.0182527
       690       119.064      -1.25803      0.351621     -0.906408     0.0185075
       691       118.375      -1.25599      0.349585     -0.906403     0.0187223
       692       117.818      -1.25434       0.34794       -0.9064     0.0189082
       693       117.411      -1.25314      0.346738     -0.906398     0.0190534
       694       117.164      -1.25241      0.346009     -0.906398     0.0191472
       695       117.077      -1.25215      0.345754     -0.906399      0.019197
       696       117.144      -1.25235       0.34595     -0.906402     0.0191964
       697       117.348      -1.25296      0.346554     -0.906405     0.0191668
       698       117.673      -1.25392      0.347512      -0.90641     0.0190999
       699       118.095      -1.25517      0.348758     -0.906414     0.0190027
       700       118.593      -1.25665       0.35023     -0.906417     0.0188808
       701       119.148      -1.25829      0.351869     -0.906421     0.0187395
       702       119.741      -1.26004      0.353621     -0.906424     0.0185754
       703       120.359      -1.26187      0.355445     -0.906425     0.0184136
       704       120.991      -1.26374       0.35731     -0.906426     0.0182392
       705       121.628      -1.26562      0.359193     -0.906426     0.0180644
       706       122.267      -1.26751      0.361081     -0.906426      0.017876
       707       122.905      -1.26939      0.362964     -0.906427     0.0176852
       708       123.539      -1.27126      0.364836     -0.906426     0.0174947
       709       124.167      -1.27312       0.36669     -0.906427     0.0173056
       710       124.784      -1.27494      0.368513     -0.906427     0.0171177
       711       125.386      -1.27672      0.370292     -0.906428     0.0169377
       712       125.968      -1.27844      0.372009     -0.906429     0.0167641
       713       126.522      -1.28008      0.373646     -0.906431     0.0165893
       714       127.041      -1.28161       0.37518     -0.906432     0.0164237
       715       127.518      -1.28302      0.376588     -0.906433     0.0162679
       716       127.946      -1.28429      0.377852     -0.906433      0.016132
       717        128.32      -1.28539      0.378956     -0.906434     0.0160094
       718       128.636      -1.28632      0.379887     -0.906434     0.0158964
       719       128.891      -1.28708      0.380642     -0.906434     0.0158165
       720       129.086      -1.28765      0.381217     -0.906434     0.0157406
       721       129.222      -1.28805      0.381618     -0.906434      0.015678
       722       129.302      -1.28829      0.381854     -0.906433     0.0156231
       723       129.329      -1.28837      0.381936     -0.906432     0.0155993
       724       129.311      -1.28831      0.381881     -0.906431     0.0155837
       725       129.253      -1.28814      0.381709      -0.90643     0.0155861
       726       129.163      -1.28787      0.381445     -0.906428     0.0156008
       727       129.052      -1.28754      0.381116     -0.906425     0.0156221
       728        128.93      -1.28718      0.380757     -0.906423     0.0156403
       729        128.81      -1.28682      0.380401     -0.906421     0.0156604
       730       128.705      -1.28651      0.380092     -0.906418     0.0156836
       731       128.631      -1.28629      0.379873     -0.906415     0.0156897
       732       128.602       -1.2862      0.379787     -0.906413     0.0156881
       733       128.631      -1.28629      0.379875      -0.90641     0.0156639
       734       128.731      -1.28658      0.380168     -0.906409     0.0156242
       735       128.906       -1.2871      0.380687     -0.906408     0.0155708
       736       129.159      -1.28784      0.381434     -0.906409     0.0154968
       737       129.485      -1.28881      0.382396     -0.906411     0.0154038
       738       129.872      -1.28995       0.38354     -0.906413     0.0152995
       739       130.305      -1.29123      0.384818     -0.906417     0.0151882
       740       130.763      -1.29259       0.38617      -0.90642     0.0150557
       741       131.223      -1.29395      0.387529     -0.906424     0.0149422
       742       131.662      -1.29525      0.388824     -0.906428     0.0148359
       743       132.057      -1.29642       0.38999     -0.906432     0.0147345
       744       132.388       -1.2974      0.390968     -0.906435      0.014653
       745       132.639      -1.29815       0.39171     -0.906437      0.014594
       746       132.798      -1.29862      0.392179     -0.906438      0.014564
       747       132.856      -1.29879      0.392353     -0.906438     0.0145552
       748       132.812      -1.29866       0.39222     -0.906438     0.0145816
       749       132.664      -1.29822      0.391784     -0.906437     0.0146346
       750       132.418      -1.29749      0.391057     -0.906435     0.0147261
       751        132.08      -1.29649      0.390061     -0.906433     0.0148245
       752       131.662      -1.29526      0.388826     -0.906431     0.0149498
       753       131.176      -1.29382       0.38739     -0.906429     0.0150902
       754       130.635      -1.29222      0.385793     -0.906426     0.0152516
       755       130.055       -1.2905      0.384078     -0.906423     0.0154234
       756        129.45      -1.28871      0.382291     -0.906421     0.0155994
       757       128.836       -1.2869      0.380479     -0.906418     0.0157801
       758       128.229       -1.2851      0.378686     -0.906416     0.0159415
       759       127.643      -1.28337      0.376957     -0.906414     0.0161054
       760       127.093      -1.28174      0.375332     -0.906411     0.0162613
       761       126.592      -1.28026      0.373853     -0.906409     0.0163954
       762       126.153      -1.27896      0.372555     -0.906407     0.0165125
       763       125.786      -1.27788      0.371471     -0.906406     0.0166063
       764         125.5      -1.27703      0.370626     -0.906405     0.0166806
       765       125.302      -1.27644      0.370041     -0.906404     0.0167272
       766       125.196      -1.27613      0.369729     -0.906403     0.0167398
       767       125.185       -1.2761      0.369697     -0.906404     0.0167259
       768       125.269      -1.27635      0.369945     -0.906404     0.0166807
       769       125.445      -1.27687      0.370464     -0.906406      0.016618
       770       125.707      -1.27765      0.371239     -0.906407     0.0165246
       771        126.05      -1.27866      0.372253     -0.906408     0.0164073
       772       126.466      -1.27989      0.373481      -0.90641     0.0162683
       773       126.945      -1.28131      0.374893     -0.906412     0.0161152
       774       127.476      -1.28288      0.376462     -0.906414     0.0159494
       775       128.049      -1.28457      0.378155     -0.906416     0.0157707
       776       128.653      -1.28636       0.37994     -0.906418     0.0155823
       777       129.278       -1.2882      0.381783      -0.90642     0.0153841
       778       129.911      -1.29007      0.383653     -0.906422     0.0151827
       779       130.542      -1.29194      0.385519     -0.906424     0.0149812
       780       131.163      -1.29378      0.387351     -0.906425     0.0147761
       781       131.762      -1.29555       0.38912     -0.906427     0.0145916
       782       132.331      -1.29723        0.3908     -0.906428      0.014414
       783        132.86      -1.29879      0.392364     -0.906429     0.0142427
       784       133.344      -1.30022      0.393792     -0.906431      0.014093
       785       133.774      -1.30149      0.395062     -0.906432     0.0139456
       786       134.145      -1.30259      0.396159     -0.906433     0.0138187
       787       134.453       -1.3035      0.397067     -0.906433     0.0137056
       788       134.692      -1.30421      0.397774     -0.906434     0.0136091
       789        134.86       -1.3047       0.39827     -0.906435     0.0135448
       790       134.956      -1.30499      0.398554     -0.906435      0.013505
       791        134.98      -1.30506      0.398623     -0.906435     0.0134766
       792       134.932      -1.30492      0.398483     -0.906434     0.0134756
       793       134.817      -1.30458      0.398144     -0.906433     0.0135009
       794        134.64      -1.30405       0.39762     -0.906433     0.0135367
       795       134.406      -1.30336      0.396928     -0.906432     0.0135894
       796       134.122      -1.30252       0.39609     -0.906431     0.0136604
       797       133.796      -1.30156      0.395127     -0.906429      0.013741
       798       133.436      -1.30049      0.394065     -0.906429     0.0138338
       799        133.05      -1.29935      0.392925     -0.906427     0.0139418
       800       132.645      -1.29815      0.391727     -0.906427     0.0140399
       801       132.227      -1.29692      0.390493     -0.906426     0.0141492
       802       131.802      -1.29566      0.389238     -0.906425     0.0142615
       803       131.376       -1.2944      0.387979     -0.906424      0.014372
       804       130.952      -1.29315      0.386728     -0.906424     0.0144877
       805       130.535      -1.29192      0.385497     -0.906424     0.0145925
       806        130.13      -1.29072        0.3843     -0.906424     0.0146934
       807       129.741      -1.28958      0.383152     -0.906424     0.0147974
       808       129.374      -1.28849      0.382068     -0.906423     0.0148997
       809       129.034      -1.28749      0.381063     -0.906423     0.0149956
       810       128.726      -1.28658      0.380156     -0.906422     0.0150822
       811       128.456      -1.28578      0.379358     -0.906422     0.0151584
       812       128.225       -1.2851      0.378674     -0.906424     0.0152271
       813       128.031      -1.28453      0.378101     -0.906426     0.0152822
       814       127.868      -1.28405       0.37762     -0.906428     0.0153353
       815       127.725      -1.28363      0.377198     -0.906431     0.0153939
       816       127.587      -1.28323      0.376791     -0.906435      0.015444
       817       127.437      -1.28279      0.376348     -0.906439     0.0154897
       818       127.258      -1.28226      0.375818     -0.906442     0.0155532
       819       127.033       -1.2816      0.375156     -0.906444     0.0156235
       820       126.755      -1.28078      0.374334     -0.906445     0.0157126
       821       126.419      -1.27979      0.373342     -0.906445     0.0158178
       822        126.03      -1.27864      0.372193     -0.906442     0.0159295
       823         125.6      -1.27736      0.370923     -0.906438     0.0160525
       824       125.149      -1.27602       0.36959     -0.906433      0.016185
       825         124.7      -1.27469      0.368265     -0.906428     0.0163189
       826       124.282      -1.27345      0.367031     -0.906422     0.0164452
       827       123.924      -1.27239      0.365973     -0.906416     0.0165466
       828       123.652      -1.27158      0.365171     -0.906411     0.0166258
       829       123.491       -1.2711      0.364693     -0.906408     0.0166738
       830       123.455        -1.271      0.364589     -0.906406     0.0166909
       831       123.556      -1.27129      0.364887     -0.906405     0.0166699
       832       123.794        -1.272      0.365589     -0.906406     0.0166222
       833       124.162      -1.27308      0.366676     -0.906408     0.0165281
       834       124.648      -1.27452       0.36811      -0.90641     0.0164026
       835       125.233      -1.27625      0.369838     -0.906415     0.0162406
       836       125.897      -1.27822      0.371799     -0.906418      0.016064
       837       126.618      -1.28035      0.373928     -0.906421     0.0158705
       838       127.374      -1.28259      0.376161     -0.906424     0.0156806
       839       128.146      -1.28487      0.378442     -0.906427     0.0154701
       840       128.916      -1.28714      0.380716     -0.906429       0.01527
       841       129.669      -1.28937       0.38294     -0.906431     0.0150698
       842       130.394      -1.29151       0.38508     -0.906432     0.0148859
       843        131.08      -1.29354      0.387106     -0.906433     0.0147079
       844        131.72      -1.29543      0.388996     -0.906434     0.0145365
       845       132.308      -1.29717      0.390732     -0.906434     0.0143863
       846       132.839      -1.29874      0.392302     -0.906435     0.0142552
       847       133.313      -1.30013        0.3937     -0.906434     0.0141455
       848       133.727      -1.30136      0.394922     -0.906433     0.0140429
       849       134.081       -1.3024      0.395969     -0.906432     0.0139669
       850       134.376      -1.30327       0.39684     -0.906431     0.0138977
       851       134.614      -1.30398      0.397544     -0.906431      0.013846
       852         134.8      -1.30452      0.398091      -0.90643     0.0138108
       853       134.936      -1.30492      0.398493     -0.906428      0.013791
       854       135.027      -1.30519      0.398762     -0.906427     0.0137768
       855       135.079      -1.30534      0.398915     -0.906426     0.0137734
       856       135.097      -1.30539      0.398968     -0.906425     0.0137772
       857       135.087      -1.30536      0.398938     -0.906424     0.0137901
       858       135.053      -1.30526      0.398839     -0.906423     0.0138139
       859           135       -1.3051      0.398681     -0.906423      0.013844
       860       134.929       -1.3049      0.398474     -0.906422     0.0138713
       861       134.844      -1.30464      0.398222     -0.906422     0.0139035
       862       134.743      -1.30435      0.397923     -0.906423     0.0139421
       863       134.624        -1.304      0.397572     -0.906424     0.0139823
       864       134.484      -1.30358       0.39716     -0.906425     0.0140331
       865        134.32       -1.3031      0.396675     -0.906427     0.0140705
       866       134.127      -1.30253      0.396104     -0.906428     0.0141183
       867       133.901      -1.30187      0.395437     -0.906429     0.0141757
       868       133.641       -1.3011      0.394668     -0.906429     0.0142382
       869       133.344      -1.30022      0.393793     -0.906429     0.0143122
       870       133.014      -1.29925      0.392817     -0.906428     0.0143923
       871       132.654      -1.29818      0.391756     -0.906427     0.0144756
       872       132.274      -1.29706      0.390633     -0.906425      0.014558
       873       131.885      -1.29591      0.389485     -0.906422       0.01464
       874       131.502      -1.29477      0.388353      -0.90642     0.0147307
       875       131.141       -1.2937      0.387287     -0.906417     0.0148048
       876        130.82      -1.29275      0.386337     -0.906413     0.0148612
       877       130.554      -1.29196      0.385553      -0.90641     0.0149087
       878        130.36      -1.29139      0.384978     -0.906409     0.0149341
       879       130.247      -1.29105      0.384645     -0.906408     0.0149333
       880        130.22      -1.29097      0.384567     -0.906408     0.0149198
       881       130.279      -1.29115      0.384741      -0.90641     0.0148731
       882       130.417      -1.29156      0.385149     -0.906412     0.0148081
       883       130.623      -1.29217      0.385756     -0.906415     0.0147249
       884        130.88      -1.29293      0.386516     -0.906418     0.0146278
       885       131.171       -1.2938      0.387375     -0.906421     0.0145233
       886       131.477       -1.2947       0.38828     -0.906424     0.0144082
       887       131.782      -1.29561       0.38918     -0.906427     0.0142987
       888       132.072      -1.29646      0.390035     -0.906429     0.0141906
       889       132.336      -1.29724      0.390814      -0.90643     0.0140951
       890       132.566      -1.29793      0.391495     -0.906431      0.014003
       891       132.759       -1.2985      0.392066     -0.906432     0.0139273
       892       132.913      -1.29895      0.392521     -0.906432     0.0138652
       893       133.029      -1.29929      0.392861     -0.906431     0.0138057
       894       133.106      -1.29952      0.393088      -0.90643     0.0137616
       895       133.146      -1.29964      0.393206      -0.90643     0.0137345
       896       133.149      -1.29965      0.393217     -0.906431     0.0137145
       897       133.117      -1.29955      0.393121      -0.90643     0.0137113
       898       133.048      -1.29935      0.392918      -0.90643     0.0137218
       899       132.942      -1.29903      0.392604      -0.90643     0.0137328
       900       132.798      -1.29861      0.392181     -0.906429     0.0137688
       901       132.619      -1.29808      0.391652     -0.906429     0.0138144
       902       132.407      -1.29745      0.391026     -0.906428     0.0138722
       903       132.167      -1.29674      0.390316     -0.906427     0.0139341
       904       131.905      -1.29597      0.389544     -0.906425     0.0139931
       905       131.631      -1.29516      0.388735     -0.906423     0.0140597
       906       131.356      -1.29434       0.38792      -0.90642     0.0141327
       907        131.09      -1.29355      0.387135     -0.906418     0.0142037
       908       130.847      -1.29283      0.386417     -0.906416     0.0142662
       909       130.637      -1.29221      0.385798     -0.906413     0.0143284
       910       130.471      -1.29172      0.385308     -0.906412     0.0143744
       911       130.357      -1.29138      0.384971      -0.90641     0.0143971
       912         130.3      -1.29121      0.384802     -0.906409     0.0144113
       913       130.302      -1.29122      0.384807      -0.90641     0.0144127
       914       130.363       -1.2914      0.384988      -0.90641     0.0144027
       915       130.482      -1.29175       0.38534     -0.906411     0.0143702
       916       130.656      -1.29227      0.385854     -0.906413     0.0143225
       917        130.88      -1.29293      0.386514     -0.906414     0.0142606
       918       131.148      -1.29372      0.387308     -0.906414     0.0141858
       919       131.457      -1.29464       0.38822     -0.906415     0.0141025
       920       131.801      -1.29565      0.389234     -0.906416     0.0140023
       921       132.175      -1.29676       0.39034     -0.906417     0.0138959
       922       132.577      -1.29794      0.391528     -0.906417     0.0137844
       923       133.004      -1.29921       0.39279     -0.906417      0.013662
       924       133.454      -1.30054      0.394118     -0.906417     0.0135294
       925       133.925      -1.30193      0.395508     -0.906418     0.0133908
       926       134.414      -1.30337      0.396952     -0.906418     0.0132405
       927       134.917      -1.30486      0.398438     -0.906419      0.013096
       928        135.43      -1.30637      0.399953     -0.906421      0.012954
       929       135.946       -1.3079      0.401477     -0.906422     0.0128035
       930       136.458      -1.30941      0.402988     -0.906424     0.0126581
       931       136.955      -1.31088      0.404456     -0.906427     0.0125258
       932       137.426      -1.31228      0.405848     -0.906429     0.0123984
       933       137.858      -1.31356      0.407124     -0.906432     0.0122877
       934       138.238      -1.31468      0.408244     -0.906434     0.0121813
       935        138.55       -1.3156      0.409165     -0.906437     0.0120929
       936        138.78      -1.31628      0.409845      -0.90644     0.0120299
       937       138.914      -1.31668      0.410241     -0.906442     0.0120011
       938       138.938      -1.31676      0.410313     -0.906444     0.0119954
       939       138.841      -1.31647      0.410026     -0.906447     0.0120274
       940       138.612       -1.3158      0.409349     -0.906449     0.0121014
       941       138.244      -1.31471      0.408261      -0.90645     0.0122179
       942       137.731       -1.3132      0.406747     -0.906451     0.0123649
       943       137.072      -1.31125        0.4048      -0.90645     0.0125625
       944       136.268      -1.30888      0.402427     -0.906449     0.0127984
       945       135.326      -1.30609      0.399645     -0.906448     0.0130659
       946       134.257      -1.30293      0.396487     -0.906445     0.0133667
       947       133.076      -1.29944      0.392999     -0.906442     0.0136995
       948       131.804      -1.29568      0.389244     -0.906437      0.014044
       949       130.467      -1.29173      0.385297     -0.906432      0.014429
       950       129.095      -1.28767      0.381245     -0.906426     0.0148219
       951       127.721      -1.28361      0.377186      -0.90642     0.0152075
       952       126.378      -1.27963      0.373221     -0.906414     0.0155796
       953       125.101      -1.27586       0.36945     -0.906408     0.0159422
       954       123.922      -1.27237      0.365967     -0.906403     0.0162836
       955       122.869      -1.26925      0.362856     -0.906399      0.016588
       956       121.962      -1.26657      0.360178     -0.906396     0.0168446
       957       121.216      -1.26437      0.357976     -0.906395     0.0170594
       958       120.638      -1.26267      0.356269     -0.906396     0.0172351
       959       120.227      -1.26145      0.355054     -0.906398      0.017359
       960       119.973      -1.26071      0.354305     -0.906401     0.0174479
       961       119.862      -1.26038      0.353977     -0.906405     0.0175006
       962       119.873      -1.26042       0.35401     -0.906409     0.0175043
       963       119.984      -1.26075      0.354339     -0.906414     0.0174908
       964       120.172      -1.26131      0.354891     -0.906419     0.0174534
       965       120.411      -1.26202      0.355597     -0.906423     0.0173983
       966        120.68      -1.26282      0.356394     -0.906426     0.0173327
       967       120.962      -1.26366      0.357227     -0.906429     0.0172534
       968       121.243      -1.26449      0.358054     -0.906431     0.0171824
       969        121.51      -1.26528      0.358845     -0.906432     0.0171095
       970        121.76      -1.26601      0.359583     -0.906432     0.0170429
       971       121.992       -1.2667      0.360267     -0.906431     0.0169734
       972       122.209      -1.26734      0.360908     -0.906429     0.0169117
       973        122.42      -1.26796      0.361531     -0.906428     0.0168463
       974       122.635      -1.26859      0.362165     -0.906425     0.0167864
       975       122.865      -1.26927      0.362845     -0.906423     0.0167212
       976       123.121      -1.27002      0.363602     -0.906422     0.0166517
       977       123.411      -1.27088      0.364458     -0.906421       0.01656
       978       123.736      -1.27184      0.365419     -0.906422     0.0164638
       979       124.093       -1.2729      0.366473     -0.906424     0.0163689
       980       124.472      -1.27402      0.367592     -0.906428     0.0162782
       981       124.858      -1.27516       0.36873     -0.906432     0.0161823
       982       125.231      -1.27627      0.369833     -0.906436     0.0160891
       983       125.574      -1.27729      0.370847     -0.906439     0.0159967
       984       125.872      -1.27817      0.371726     -0.906441     0.0159252
       985       126.113      -1.27888      0.372436     -0.906442     0.0158674
       986       126.293      -1.27941       0.37297     -0.906441      0.015819
       987       126.418      -1.27978      0.373339     -0.906439     0.0157918
       988       126.498      -1.28001      0.373574     -0.906436     0.0157763
       989       126.549      -1.28016      0.373726     -0.906432     0.0157647
       990       126.592      -1.28028      0.373853     -0.906428     0.0157534
       991       126.647      -1.28044      0.374015     -0.906424     0.0157435
       992       126.732      -1.28069      0.374266     -0.906422     0.0157219
       993       126.862      -1.28107       0.37465     -0.906419     0.0156846
       994       127.047      -1.28162      0.375196     -0.906419     0.0156373
       995        127.29      -1.28233      0.375914     -0.906419     0.0155722
       996       127.589      -1.28322      0.376796     -0.906421     0.0154948
       997       127.938      -1.28425      0.377827     -0.906422     0.0154001
       998       128.328       -1.2854      0.378978     -0.906424     0.0152951
       999       128.747      -1.28664      0.380217     -0.906426     0.0151812
      1000       129.185      -1.28794      0.381509     -0.906429     0.0150615
