#     Step          Temp           Pot           Kin           Tot         Press
         0             2       -6.7797       2.97222      -3.80748      -4.05072
         1       1.99916      -6.77846       2.97097      -3.80748      -4.04381
         2       1.99663       -6.7747       2.96721      -3.80749      -4.02302
         3       1.99237      -6.76838       2.96089      -3.80749      -3.98817
         4       1.98634      -6.75942       2.95192       -3.8075      -3.93904
         5       1.97845      -6.74772        2.9402      -3.80752      -3.87528
         6       1.96862      -6.73312       2.92559      -3.80753      -3.79649
         7       1.95673      -6.71546       2.90791      -3.80755      -3.70215
         8       1.94264      -6.69455       2.88698      -3.80757      -3.59168
         9       1.92621      -6.67015       2.86256      -3.80759      -3.46551
        10       1.90727      -6.64203       2.83442      -3.80762      -3.32239
        11       1.88563       -6.6099       2.80226      -3.80764      -3.16017
        12       1.86108      -6.57345       2.76578      -3.80767      -2.97911
        13       1.83342      -6.53237       2.72467       -3.8077      -2.77866
        14       1.80244      -6.48637       2.67863      -3.80774      -2.55999
        15       1.76797      -6.43516        2.6274      -3.80777       -2.3219
        16       1.72982       -6.3785       2.57071      -3.80779      -2.05959
        17       1.68789       -6.3162       2.50839      -3.80781      -1.77425
        18       1.64212      -6.24819       2.44037      -3.80782      -1.46672
        19       1.59259      -6.17459       2.36677      -3.80782      -1.14058
        20       1.53954      -6.09574       2.28793      -3.80781     -0.797505
        21       1.48336       -6.0122       2.20443      -3.80777     -0.435173
        22       1.42463      -5.92487       2.11716      -3.80771    -0.0585238
        23       1.36417      -5.83494       2.02731      -3.80763      0.326191
        24       1.30295      -5.74387       1.93633      -3.80754      0.713671
        25       1.24213      -5.65337       1.84594      -3.80743       1.09817
        26        1.1829      -5.56525       1.75792      -3.80732       1.47306
        27       1.12647      -5.48128       1.67405      -3.80723       1.83131
        28        1.0739      -5.40308       1.59594      -3.80714       2.16783
        29       1.02612      -5.33201       1.52493      -3.80709       2.47627
        30      0.983792      -5.26907       1.46202      -3.80705       2.75315
        31      0.947354      -5.21491       1.40787      -3.80703       2.99678
        32      0.917005       -5.1698       1.36277      -3.80703       3.20564
        33      0.892735      -5.13375        1.3267      -3.80705       3.38042
        34      0.874353      -5.10646       1.29939      -3.80708       3.52035
        35      0.861517      -5.08743       1.28031      -3.80712       3.62794
        36      0.853778      -5.07597       1.26881      -3.80716       3.70359
        37      0.850602       -5.0713       1.26409      -3.80721       3.75225
        38      0.851409      -5.07256       1.26529      -3.80727       3.77732
        39      0.855584      -5.07881       1.27149      -3.80732       3.77967
        40      0.862503      -5.08915       1.28178      -3.80737       3.76651
        41      0.871551      -5.10264       1.29522      -3.80742       3.73744
        42      0.882134      -5.11842       1.31095      -3.80747       3.69959
        43      0.893694      -5.13564       1.32813      -3.80751       3.65259
        44      0.905705      -5.15353       1.34598      -3.80755       3.60105
        45      0.917693      -5.17138       1.36379      -3.80758       3.54579
        46      0.929243      -5.18857       1.38096      -3.80761       3.49168
        47      0.939999      -5.20458       1.39694      -3.80764       3.44001
        48      0.949681      -5.21898       1.41133      -3.80765       3.39384
        49      0.958087      -5.23148       1.42382      -3.80766       3.35173
        50      0.965105      -5.24191       1.43425      -3.80766       3.31667
        51      0.970717      -5.25024       1.44259      -3.80765       3.28924
        52      0.974999      -5.25659       1.44896      -3.80763       3.26629
        53      0.978103      -5.26118       1.45357      -3.80761       3.24993
        54       0.98023      -5.26431       1.45673      -3.80758       3.23819
        55      0.981614      -5.26635       1.45879      -3.80756       3.23058
        56      0.982479      -5.26761       1.46007      -3.80754       3.22633
        57      0.983007      -5.26838       1.46086      -3.80752       3.22378
        58       0.98332      -5.26884       1.46132      -3.80752       3.22372
        59      0.983473      -5.26907       1.46155      -3.80752       3.22428
        60      0.983464      -5.26906       1.46154      -3.80752       3.22408
        61      0.983268      -5.26877       1.46125      -3.80752       3.22622
        62      0.982857      -5.26816       1.46063      -3.80752       3.23002
        63      0.982224      -5.26721       1.45969      -3.80752       3.23439
        64      0.981398      -5.26598       1.45847      -3.80751       3.23998
        65      0.980447      -5.26455       1.45705       -3.8075       3.24694
        66      0.979474      -5.26309       1.45561      -3.80748        3.2531
        67      0.978604      -5.26178       1.45431      -3.80747       3.26025
        68      0.977969      -5.26082       1.45337      -3.80745       3.26554
        69      0.977686      -5.26039       1.45295      -3.80744       3.27078
        70      0.977851      -5.26063        1.4532      -3.80743         3.273
        71       0.97853      -5.26163        1.4542      -3.80743       3.27187
        72      0.979754      -5.26345       1.45602      -3.80743       3.26718
        73      0.981504      -5.26606       1.45862      -3.80743        3.2612
        74      0.983722      -5.26936       1.46192      -3.80744       3.25334
        75      0.986319      -5.27323       1.46578      -3.80745       3.24298
        76      0.989177      -5.27749       1.47003      -3.80746       3.23124
        77      0.992163      -5.28194       1.47446      -3.80748       3.22122
        78      0.995136      -5.28638       1.47888      -3.80749       3.20956
        79      0.997957      -5.29058       1.48307       -3.8075        3.1967
        80        1.0005      -5.29437       1.48685      -3.80751       3.18625
        81       1.00266      -5.29758       1.49006      -3.80752       3.17684
        82       1.00435      -5.30009       1.49257      -3.80752       3.17046
        83       1.00552      -5.30184       1.49432      -3.80752       3.16599
        84       1.00618      -5.30281       1.49529      -3.80752        3.1643
        85       1.00632      -5.30302        1.4955      -3.80752       3.16476
        86       1.00599      -5.30253       1.49502      -3.80751       3.16823
        87       1.00526      -5.30143       1.49393       -3.8075       3.17275
        88        1.0042      -5.29985       1.49235       -3.8075       3.17927
        89       1.00289       -5.2979       1.49041      -3.80749       3.18569
        90       1.00143      -5.29572       1.48824      -3.80748       3.19423
        91      0.999907      -5.29344       1.48597      -3.80747        3.2036
        92      0.998408      -5.29121       1.48374      -3.80746       3.21114
        93      0.997016      -5.28913       1.48168      -3.80746        3.2167
        94        0.9958      -5.28732       1.47987      -3.80745        3.2199
        95      0.994815      -5.28586       1.47841      -3.80745       3.22422
        96      0.994107       -5.2848       1.47735      -3.80745       3.22616
        97      0.993703       -5.2842       1.47675      -3.80745       3.22502
        98      0.993615      -5.28407       1.47662      -3.80745       3.22263
        99      0.993843      -5.28441       1.47696      -3.80745       3.21681
       100      0.994373       -5.2852       1.47775      -3.80745       3.21032
       101      0.995177       -5.2864       1.47894      -3.80745       3.20251
       102      0.996223      -5.28796        1.4805      -3.80746       3.19351
       103      0.997478      -5.28982       1.48236      -3.80746        3.1819
       104      0.998912      -5.29196       1.48449      -3.80746       3.17108
       105       1.00049      -5.29431       1.48684      -3.80747       3.15634
       106        1.0022      -5.29685       1.48938      -3.80747       3.14079
       107       1.00403      -5.29957        1.4921      -3.80747        3.1261
       108       1.00597      -5.30246       1.49499      -3.80747       3.10821
       109       1.00805      -5.30554       1.49808      -3.80746       3.08951
       110        1.0103      -5.30887       1.50142      -3.80746       3.06959
       111       1.01274       -5.3125       1.50505      -3.80745       3.04881
       112       1.01544      -5.31651       1.50906      -3.80745       3.02695
       113       1.01845      -5.32096       1.51353      -3.80744       3.00106
       114       1.02181      -5.32595       1.51852      -3.80743       2.97445
       115       1.02556      -5.33153        1.5241      -3.80742       2.94636
       116       1.02975      -5.33775       1.53032      -3.80742       2.91505
       117       1.03438      -5.34462        1.5372      -3.80742       2.88157
       118       1.03944      -5.35215       1.54473      -3.80742         2.846
       119       1.04492      -5.36029       1.55287      -3.80742       2.80879
       120       1.05075      -5.36897       1.56154      -3.80743       2.76864
       121       1.05688      -5.37808       1.57064      -3.80744       2.72787
       122       1.06321       -5.3875       1.58005      -3.80745       2.68642
       123       1.06964      -5.39706       1.58961      -3.80746        2.6441
       124       1.07607      -5.40663       1.59917      -3.80747       2.60148
       125        1.0824      -5.41604       1.60856      -3.80748       2.56135
       126       1.08851      -5.42513       1.61765      -3.80749       2.52241
       127       1.09432      -5.43377       1.62628      -3.80749       2.48386
       128       1.09974      -5.44183       1.63434      -3.80749       2.44776
       129       1.10471      -5.44922       1.64173       -3.8075       2.41508
       130       1.10918      -5.45586       1.64836       -3.8075       2.38534
       131        1.1131      -5.46169       1.65419       -3.8075       2.35903
       132       1.11645      -5.46667       1.65917       -3.8075       2.33715
       133       1.11923       -5.4708       1.66329       -3.8075       2.31789
       134       1.12142      -5.47406       1.66655      -3.80751       2.30376
       135       1.12303      -5.47645       1.66894       -3.8075       2.29289
       136       1.12405      -5.47797       1.67047       -3.8075       2.28473
       137       1.12451      -5.47865       1.67115       -3.8075        2.2817
       138       1.12439      -5.47848       1.67097       -3.8075       2.28218
       139        1.1237      -5.47745       1.66995      -3.80751       2.28617
       140       1.12243      -5.47556       1.66805      -3.80751       2.29397
       141       1.12056      -5.47279       1.66528      -3.80751       2.30643
       142       1.11808      -5.46911        1.6616      -3.80752       2.32228
       143       1.11497      -5.46449       1.65698      -3.80752       2.34103
       144       1.11122      -5.45892       1.65139      -3.80752       2.36491
       145        1.1068      -5.45235       1.64482      -3.80752       2.39127
       146        1.1017      -5.44477       1.63724      -3.80752       2.42201
       147       1.09592      -5.43618       1.62866      -3.80752       2.45845
       148       1.08948      -5.42661       1.61909      -3.80752       2.49775
       149       1.08239      -5.41608       1.60856      -3.80752       2.54164
       150       1.07471      -5.40465       1.59714      -3.80751       2.58984
       151       1.06648      -5.39241       1.58491      -3.80751       2.64064
       152       1.05778      -5.37948       1.57198       -3.8075       2.69251
       153        1.0487      -5.36597       1.55849      -3.80749        2.7471
       154       1.03934      -5.35205       1.54458      -3.80748       2.80301
       155       1.02981      -5.33788       1.53041      -3.80747       2.86152
       156       1.02021      -5.32361       1.51615      -3.80746       2.91872
       157       1.01067      -5.30942       1.50197      -3.80745       2.97611
       158        1.0013      -5.29549       1.48805      -3.80744       3.03298
       159      0.992231      -5.28199       1.47456      -3.80743       3.08866
       160      0.983568      -5.26911       1.46169      -3.80742       3.14084
       161      0.975431      -5.25701        1.4496      -3.80741       3.19103
       162      0.967935      -5.24585       1.43846       -3.8074       3.23668
       163      0.961186      -5.23582       1.42843      -3.80739       3.27799
       164      0.955281      -5.22703       1.41965      -3.80738       3.31442
       165      0.950306      -5.21963       1.41226      -3.80737       3.34546
       166      0.946333      -5.21373       1.40636      -3.80737       3.37126
       167      0.943418      -5.20939       1.40202      -3.80737       3.38987
       168      0.941591      -5.20667       1.39931      -3.80736       3.40273
       169      0.940863      -5.20559       1.39823      -3.80737       3.40947
       170      0.941222      -5.20613       1.39876      -3.80737       3.41043
       171       0.94263      -5.20823       1.40085      -3.80737       3.40499
       172      0.945027      -5.21179       1.40441      -3.80738       3.39344
       173      0.948333      -5.21672       1.40933      -3.80739       3.37702
       174      0.952459      -5.22286       1.41546       -3.8074       3.35352
       175      0.957304      -5.23007       1.42266      -3.80741        3.3278
       176      0.962759      -5.23818       1.43077      -3.80741       3.29724
       177      0.968714      -5.24704       1.43962      -3.80742       3.26348
       178      0.975065      -5.25649       1.44905      -3.80743       3.22824
       179      0.981708      -5.26637       1.45893      -3.80744       3.19127
       180      0.988545      -5.27653       1.46909      -3.80745       3.15069
       181      0.995486      -5.28686        1.4794      -3.80745       3.10866
       182       1.00245      -5.29721       1.48975      -3.80746       3.06786
       183       1.00934      -5.30746       1.49999      -3.80747       3.02742
       184       1.01609       -5.3175       1.51002      -3.80748       2.98675
       185       1.02261      -5.32719       1.51971      -3.80748       2.94823
       186       1.02882      -5.33643       1.52894      -3.80749       2.91041
       187       1.03466      -5.34511       1.53761      -3.80749       2.87535
       188       1.04004      -5.35312       1.54562       -3.8075       2.84209
       189       1.04493      -5.36038       1.55288       -3.8075        2.8112
       190       1.04927      -5.36684       1.55933       -3.8075       2.78346
       191       1.05306      -5.37246       1.56496       -3.8075       2.75845
       192       1.05629      -5.37726       1.56976       -3.8075       2.73619
       193       1.05898      -5.38126       1.57377      -3.80749       2.71713
       194       1.06117      -5.38451       1.57702      -3.80749       2.70165
       195       1.06291      -5.38708        1.5796      -3.80748        2.6887
       196       1.06424      -5.38906       1.58158      -3.80748       2.67719
       197       1.06522      -5.39051       1.58304      -3.80747       2.66656
       198       1.06591      -5.39153       1.58406      -3.80747       2.65736
       199       1.06634      -5.39216        1.5847      -3.80746       2.65314
       200       1.06655      -5.39247       1.58501      -3.80746       2.64719
       201       1.06658      -5.39251       1.58505      -3.80746        2.6434
       202       1.06644      -5.39231       1.58485      -3.80746       2.63943
       203       1.06618      -5.39192       1.58447      -3.80746       2.63808
       204       1.06583      -5.39139       1.58394      -3.80745       2.63731
       205       1.06542      -5.39078       1.58333      -3.80745       2.63716
       206       1.06499      -5.39014       1.58269      -3.80745       2.63555
       207       1.06458      -5.38953       1.58208      -3.80744       2.63392
       208       1.06422      -5.38899       1.58155      -3.80744       2.63125
       209       1.06395      -5.38858       1.58114      -3.80744        2.6293
       210       1.06378      -5.38833       1.58089      -3.80744       2.62741
       211       1.06373      -5.38826       1.58082      -3.80744       2.62416
       212        1.0638      -5.38837       1.58093      -3.80744       2.61984
       213       1.06398      -5.38864        1.5812      -3.80744       2.61666
       214       1.06426      -5.38905       1.58161      -3.80744       2.61417
       215       1.06461      -5.38958       1.58213      -3.80745       2.60979
       216         1.065      -5.39016       1.58271      -3.80745       2.60475
       217        1.0654      -5.39076       1.58331      -3.80746       2.60084
       218       1.06579      -5.39134       1.58388      -3.80746       2.59631
       219       1.06613      -5.39185       1.58438      -3.80747       2.59322
       220       1.06639      -5.39224       1.58477      -3.80747       2.59065
       221       1.06653      -5.39246       1.58499      -3.80748       2.58715
       222       1.06654      -5.39248         1.585      -3.80748       2.58529
       223       1.06637      -5.39224       1.58475      -3.80749       2.58414
       224       1.06601       -5.3917       1.58421      -3.80749       2.58357
       225       1.06543      -5.39083       1.58334      -3.80749       2.58553
       226       1.06461      -5.38961       1.58213      -3.80749       2.58873
       227       1.06357      -5.38806       1.58058      -3.80748       2.59231
       228       1.06232       -5.3862       1.57873      -3.80748       2.59803
       229        1.0609      -5.38409       1.57661      -3.80747       2.60326
       230       1.05936      -5.38179       1.57432      -3.80746        2.6104
       231       1.05777      -5.37942       1.57197      -3.80746       2.61741
       232       1.05623      -5.37712       1.56968      -3.80745       2.62545
       233       1.05484      -5.37505       1.56761      -3.80744         2.631
       234        1.0537      -5.37334       1.56592      -3.80743       2.63486
       235       1.05292      -5.37217       1.56475      -3.80741       2.63569
       236       1.05258      -5.37166       1.56425      -3.80741       2.63462
       237       1.05276      -5.37192       1.56452       -3.8074       2.63184
       238       1.05351      -5.37303       1.56563       -3.8074       2.62546
       239       1.05485      -5.37503       1.56763       -3.8074       2.61725
       240       1.05678      -5.37789       1.57049      -3.80741       2.60513
       241       1.05923      -5.38155       1.57414      -3.80741       2.58959
       242       1.06216       -5.3859       1.57848      -3.80742        2.5713
       243       1.06545      -5.39081       1.58337      -3.80743       2.55101
       244         1.069      -5.39609       1.58865      -3.80744       2.52825
       245       1.07268      -5.40158       1.59412      -3.80746       2.50852
       246       1.07638      -5.40708       1.59961      -3.80746         2.486
       247       1.07996      -5.41242       1.60494      -3.80747       2.46348
       248       1.08333      -5.41744       1.60995      -3.80748       2.44342
       249       1.08641      -5.42201       1.61452      -3.80749       2.42385
       250       1.08912      -5.42604       1.61855      -3.80749       2.40704
       251       1.09143      -5.42948       1.62199      -3.80749        2.3921
       252       1.09333       -5.4323       1.62481      -3.80749       2.37942
       253       1.09483      -5.43453       1.62704      -3.80748       2.36976
       254       1.09597      -5.43621       1.62874      -3.80748       2.36105
       255       1.09681      -5.43745       1.62998      -3.80747       2.35494
       256       1.09741      -5.43834       1.63088      -3.80746       2.34812
       257       1.09785      -5.43899       1.63153      -3.80746       2.34433
       258       1.09819      -5.43949       1.63204      -3.80745        2.3411
       259       1.09849      -5.43993       1.63248      -3.80745       2.34032
       260       1.09877      -5.44034        1.6329      -3.80745       2.33889
       261       1.09905      -5.44076       1.63331      -3.80745       2.33812
       262       1.09931      -5.44115        1.6337      -3.80746       2.33648
       263       1.09951      -5.44145       1.63399      -3.80746        2.3353
       264       1.09957      -5.44155       1.63409      -3.80747       2.33651
       265       1.09943      -5.44135       1.63387      -3.80748       2.33891
       266       1.09899      -5.44071       1.63322      -3.80749       2.34238
       267       1.09817       -5.4395       1.63201       -3.8075       2.35005
       268        1.0969      -5.43762       1.63011      -3.80751       2.35743
       269        1.0951      -5.43496       1.62744      -3.80751       2.36832
       270       1.09275      -5.43146       1.62394      -3.80751         2.384
       271       1.08981      -5.42709       1.61958      -3.80751       2.40208
       272        1.0863      -5.42188       1.61437      -3.80751         2.423
       273       1.08227      -5.41588       1.60837      -3.80751       2.44625
       274       1.07777      -5.40918       1.60169       -3.8075       2.47225
       275        1.0729      -5.40194       1.59445      -3.80749       2.50155
       276       1.06778      -5.39431       1.58684      -3.80748       2.53108
       277       1.06252      -5.38649       1.57903      -3.80746       2.56226
       278       1.05728      -5.37869       1.57124      -3.80745       2.59157
       279       1.05222      -5.37115       1.56371      -3.80744       2.61978
       280       1.04747      -5.36408       1.55666      -3.80742       2.64686
       281        1.0432      -5.35772       1.55031      -3.80741       2.67035
       282       1.03953      -5.35226       1.54486       -3.8074       2.69084
       283        1.0366       -5.3479        1.5405      -3.80739       2.70766
       284        1.0345      -5.34476       1.53738      -3.80739       2.71915
       285       1.03331      -5.34299       1.53561      -3.80738       2.72541
       286       1.03309      -5.34266       1.53528      -3.80738        2.7264
       287       1.03386      -5.34381       1.53643      -3.80738       2.72115
       288       1.03564      -5.34645       1.53907      -3.80738       2.71182
       289       1.03839      -5.35054       1.54316      -3.80738       2.69612
       290       1.04206        -5.356       1.54861      -3.80739        2.6744
       291       1.04655      -5.36269       1.55529       -3.8074       2.64794
       292       1.05176      -5.37045       1.56304      -3.80741       2.61714
       293       1.05755      -5.37906       1.57164      -3.80742       2.58305
       294       1.06376       -5.3883       1.58086      -3.80744       2.54955
       295       1.07021       -5.3979       1.59044      -3.80745       2.51409
       296       1.07672      -5.40759       1.60012      -3.80747       2.47769
       297       1.08312      -5.41712       1.60964      -3.80748       2.44053
       298       1.08925      -5.42623       1.61874      -3.80749        2.4049
       299       1.09494       -5.4347        1.6272       -3.8075       2.37139
       300       1.10007      -5.44233       1.63482      -3.80751        2.3421
       301       1.10453      -5.44896       1.64145      -3.80751       2.31603
       302       1.10825      -5.45449       1.64698      -3.80751       2.29361
       303       1.11118      -5.45885       1.65134      -3.80751       2.27543
       304        1.1133      -5.46201       1.65449      -3.80751       2.26271
       305       1.11463      -5.46397       1.65646      -3.80751       2.25462
       306        1.1152      -5.46481       1.65731       -3.8075       2.25181
       307       1.11507      -5.46461       1.65712      -3.80749       2.25315
       308       1.11433      -5.46349       1.65601      -3.80748       2.25769
       309       1.11307      -5.46161       1.65415      -3.80747       2.26329
       310       1.11141      -5.45914       1.65168      -3.80746       2.27399
       311       1.10945      -5.45621       1.64876      -3.80745         2.286
       312       1.10727      -5.45297       1.64553      -3.80744       2.29937
       313       1.10495      -5.44953       1.64209      -3.80744       2.31233
       314       1.10256      -5.44596       1.63852      -3.80744       2.32565
       315       1.10009       -5.4423       1.63486      -3.80744       2.34271
       316       1.09756      -5.43854       1.63109      -3.80745       2.35966
       317       1.09494      -5.43465        1.6272      -3.80745       2.37924
       318       1.09219      -5.43058       1.62312      -3.80746       2.39856
       319        1.0893      -5.42628       1.61882      -3.80746       2.41929
       320       1.08625      -5.42175       1.61429      -3.80746       2.44034
       321       1.08305      -5.41698       1.60953      -3.80745       2.46214
       322       1.07973      -5.41205        1.6046      -3.80745       2.48335
       323       1.07635      -5.40702       1.59958      -3.80745       2.50523
       324         1.073      -5.40203        1.5946      -3.80743       2.52699
       325       1.06979      -5.39724       1.58982      -3.80742       2.54613
       326       1.06683      -5.39284       1.58542      -3.80741       2.56467
       327       1.06425      -5.38899       1.58159       -3.8074       2.58113
       328       1.06216      -5.38588       1.57849      -3.80739       2.59596
       329       1.06066      -5.38364       1.57625      -3.80738       2.60728
       330       1.05981      -5.38237         1.575      -3.80738       2.61334
       331       1.05966      -5.38215       1.57477      -3.80738       2.61553
       332       1.06021      -5.38297       1.57559      -3.80738       2.61432
       333       1.06144       -5.3848       1.57741      -3.80738        2.6079
       334        1.0633      -5.38757       1.58018      -3.80739       2.59706
       335       1.06572      -5.39118       1.58378      -3.80739       2.58346
       336       1.06864      -5.39551       1.58811       -3.8074       2.56642
       337       1.07196      -5.40046       1.59305      -3.80741       2.54714
       338       1.07562      -5.40591       1.59849      -3.80742       2.52576
       339       1.07955      -5.41175       1.60433      -3.80742        2.5021
       340       1.08369       -5.4179       1.61048      -3.80743       2.47647
       341       1.08799      -5.42431       1.61688      -3.80743       2.44911
       342       1.09244      -5.43092       1.62349      -3.80743       2.41969
       343       1.09701      -5.43771       1.63028      -3.80742       2.38998
       344       1.10169      -5.44466       1.63723      -3.80742       2.35904
       345       1.10645      -5.45174       1.64431      -3.80742       2.32754
       346       1.11129      -5.45892        1.6515      -3.80742       2.29672
       347       1.11617      -5.46618       1.65876      -3.80742       2.26353
       348       1.12107      -5.47346       1.66603      -3.80743       2.23117
       349       1.12594      -5.48069       1.67327      -3.80743       2.19938
       350       1.13072      -5.48781       1.68037      -3.80743       2.16713
       351       1.13536      -5.49471       1.68727      -3.80744       2.13536
       352       1.13979       -5.5013       1.69385      -3.80744       2.10716
       353       1.14394      -5.50747       1.70002      -3.80745       2.07973
       354       1.14773      -5.51311       1.70565      -3.80746       2.05242
       355       1.15109      -5.51811       1.71065      -3.80746       2.02808
       356       1.15396      -5.52238       1.71491      -3.80747       2.00628
       357       1.15627      -5.52582       1.71835      -3.80747       1.98763
       358       1.15799      -5.52837        1.7209      -3.80747       1.97157
       359       1.15909      -5.53001       1.72253      -3.80747       1.96122
       360       1.15956      -5.53071       1.72324      -3.80747        1.9542
       361       1.15942       -5.5305       1.72303      -3.80747       1.94935
       362       1.15872      -5.52944       1.72198      -3.80746        1.9473
       363        1.1575      -5.52763       1.72018      -3.80745       1.95046
       364       1.15587      -5.52519       1.71775      -3.80745       1.95461
       365        1.1539      -5.52226       1.71483      -3.80743       1.96168
       366       1.15173      -5.51902        1.7116      -3.80742       1.97054
       367       1.14946      -5.51564       1.70823      -3.80741       1.97949
       368       1.14723      -5.51231       1.70492      -3.80739       1.99001
       369       1.14517      -5.50923       1.70185      -3.80738       1.99821
       370       1.14338      -5.50656       1.69919      -3.80737         2.007
       371       1.14197      -5.50445       1.69709      -3.80737       2.01207
       372       1.14101      -5.50302       1.69566      -3.80736       2.01625
       373       1.14056      -5.50236         1.695      -3.80736       2.01927
       374       1.14065      -5.50249       1.69513      -3.80736       2.01773
       375       1.14126       -5.5034       1.69604      -3.80736       2.01602
       376       1.14237      -5.50506       1.69769      -3.80737       2.01133
       377        1.1439      -5.50734       1.69996      -3.80738       2.00455
       378       1.14576      -5.51012       1.70273      -3.80739       1.99723
       379       1.14784      -5.51322       1.70582       -3.8074       1.98965
       380       1.15003      -5.51648       1.70907      -3.80741       1.98079
       381        1.1522      -5.51971       1.71229      -3.80742       1.97265
       382       1.15422      -5.52274       1.71531      -3.80743       1.96447
       383         1.156      -5.52539       1.71795      -3.80744       1.95739
       384       1.15743      -5.52752       1.72007      -3.80745       1.95245
       385       1.15843      -5.52901       1.72155      -3.80746       1.95035
       386       1.15893      -5.52976        1.7223      -3.80746       1.95276
       387       1.15891      -5.52972       1.72226      -3.80746       1.95881
       388       1.15833      -5.52887       1.72141      -3.80746        1.9664
       389       1.15721      -5.52721       1.71975      -3.80746       1.97825
       390       1.15557      -5.52476       1.71731      -3.80745        1.9926
       391       1.15346      -5.52161       1.71417      -3.80745       2.00947
       392       1.15092      -5.51784        1.7104      -3.80744       2.02884
       393       1.14805      -5.51356       1.70612      -3.80743       2.05061
       394        1.1449      -5.50887       1.70145      -3.80743       2.07355
       395       1.14156      -5.50391       1.69649      -3.80742       2.09861
       396       1.13812      -5.49878       1.69137      -3.80741       2.12375
       397       1.13463       -5.4936       1.68619      -3.80741       2.14941
       398       1.13116      -5.48844       1.68103      -3.80741       2.17665
       399       1.12775      -5.48337       1.67596       -3.8074       2.20414
       400       1.12443      -5.47843       1.67103       -3.8074       2.22954
       401       1.12122      -5.47366       1.66625      -3.80741       2.25546
       402       1.11811      -5.46904       1.66163      -3.80741       2.28189
       403       1.11508      -5.46455       1.65714      -3.80741       2.30701
       404       1.11212      -5.46014       1.65273      -3.80742       2.33094
       405       1.10916      -5.45576       1.64834      -3.80742       2.35767
       406       1.10616      -5.45131       1.64388      -3.80743       2.38342
       407       1.10304      -5.44668       1.63924      -3.80744       2.41094
       408       1.09973      -5.44177       1.63432      -3.80745       2.43786
       409       1.09615      -5.43645         1.629      -3.80746       2.46669
       410       1.09222      -5.43062       1.62316      -3.80746       2.49638
       411       1.08789      -5.42419       1.61673      -3.80747       2.52907
       412       1.08312      -5.41711       1.60963      -3.80747       2.56297
       413       1.07789      -5.40934       1.60187      -3.80747       2.59969
       414       1.07224      -5.40094       1.59347      -3.80747       2.63714
       415       1.06622      -5.39199       1.58453      -3.80746       2.67597
       416       1.05995      -5.38265        1.5752      -3.80745       2.71827
       417       1.05357      -5.37315       1.56572      -3.80743       2.75913
       418       1.04726      -5.36376       1.55635      -3.80741        2.7989
       419       1.04124      -5.35479        1.5474      -3.80739       2.83585
       420       1.03575      -5.34662       1.53925      -3.80737        2.8687
       421       1.03104      -5.33959       1.53224      -3.80735       2.89752
       422       1.02733      -5.33405       1.52673      -3.80733       2.92051
       423       1.02483      -5.33033       1.52302      -3.80731       2.93604
       424       1.02371      -5.32865       1.52135       -3.8073       2.94244
       425       1.02407      -5.32918       1.52188       -3.8073       2.94162
       426       1.02595      -5.33197       1.52467       -3.8073       2.93178
       427       1.02929      -5.33696       1.52964      -3.80731       2.91289
       428         1.034      -5.34396       1.53663      -3.80733       2.88585
       429       1.03987      -5.35271       1.54536      -3.80735       2.85299
       430       1.04667      -5.36285       1.55547      -3.80738       2.81397
       431       1.05413      -5.37396       1.56655      -3.80741       2.77002
       432       1.06194      -5.38559       1.57815      -3.80744        2.7244
       433       1.06977      -5.39727        1.5898      -3.80747       2.67799
       434       1.07734      -5.40854       1.60105      -3.80749       2.63163
       435       1.08436      -5.41899       1.61147      -3.80752       2.58958
       436       1.09056      -5.42822       1.62069      -3.80754       2.55028
       437       1.09573      -5.43592       1.62837      -3.80755       2.51465
       438       1.09969      -5.44183       1.63426      -3.80756       2.48666
       439       1.10233      -5.44576       1.63819      -3.80757       2.46566
       440       1.10357       -5.4476       1.64003      -3.80757       2.45129
       441       1.10339      -5.44733       1.63976      -3.80757       2.44477
       442       1.10184      -5.44501       1.63745      -3.80756       2.44536
       443       1.09901      -5.44079       1.63325      -3.80754       2.45203
       444       1.09507      -5.43492       1.62739      -3.80753       2.46477
       445       1.09024      -5.42771       1.62021       -3.8075       2.48248
       446       1.08477      -5.41957       1.61209      -3.80747       2.50327
       447       1.07897      -5.41092       1.60347      -3.80744       2.52591
       448       1.07314      -5.40222       1.59481      -3.80741       2.54826
       449       1.06758      -5.39393       1.58654      -3.80739       2.56957
       450       1.06257      -5.38647        1.5791      -3.80737       2.58624
       451       1.05835      -5.38017       1.57282      -3.80735       2.60057
       452       1.05509      -5.37532       1.56799      -3.80734       2.61053
       453       1.05292      -5.37209       1.56476      -3.80734       2.61495
       454       1.05189      -5.37055       1.56322      -3.80734       2.61275
       455       1.05198       -5.3707       1.56335      -3.80734       2.60502
       456       1.05314      -5.37244       1.56509      -3.80735       2.59177
       457       1.05529      -5.37564       1.56828      -3.80736       2.57321
       458       1.05829      -5.38011       1.57274      -3.80738       2.55027
       459         1.062      -5.38564       1.57825      -3.80739       2.52504
       460       1.06627      -5.39201        1.5846       -3.8074       2.49536
       461       1.07096      -5.39898       1.59156      -3.80742       2.46421
       462        1.0759      -5.40633        1.5989      -3.80743       2.43079
       463       1.08095      -5.41386       1.60642      -3.80744       2.39832
       464         1.086      -5.42136       1.61391      -3.80745       2.36617
       465       1.09091      -5.42867       1.62121      -3.80746       2.33503
       466       1.09557      -5.43561       1.62814      -3.80747       2.30631
       467        1.0999      -5.44206       1.63458      -3.80748       2.27946
       468       1.10381      -5.44787       1.64039      -3.80748       2.25527
       469       1.10722      -5.45294       1.64546      -3.80748       2.23468
       470       1.11008      -5.45719        1.6497      -3.80749       2.21589
       471       1.11233      -5.46053       1.65304      -3.80749       2.19975
       472       1.11392       -5.4629       1.65541       -3.8075       2.18837
       473       1.11483      -5.46427       1.65677       -3.8075       2.18163
       474       1.11506      -5.46461       1.65711       -3.8075        2.1793
       475       1.11462      -5.46394       1.65645      -3.80749       2.18022
       476       1.11353      -5.46232       1.65483      -3.80749       2.18531
       477       1.11185      -5.45981       1.65233      -3.80748       2.19427
       478       1.10964      -5.45652       1.64905      -3.80747       2.20672
       479         1.107      -5.45258       1.64512      -3.80746       2.22297
       480       1.10401      -5.44814       1.64069      -3.80746       2.24031
       481        1.1008      -5.44336       1.63591      -3.80745       2.25949
       482       1.09746      -5.43839       1.63095      -3.80744       2.28045
       483       1.09411       -5.4334       1.62598      -3.80743       2.29931
       484       1.09085      -5.42854       1.62112      -3.80742       2.31877
       485       1.08776      -5.42394       1.61653      -3.80741       2.33719
       486       1.08493      -5.41974       1.61233      -3.80741       2.35545
       487       1.08245      -5.41604       1.60863       -3.8074       2.37042
       488       1.08035      -5.41292       1.60552       -3.8074         2.385
       489        1.0787      -5.41046       1.60307       -3.8074       2.39619
       490       1.07753      -5.40873       1.60133      -3.80739       2.40618
       491       1.07687      -5.40775       1.60035      -3.80739       2.41374
       492       1.07674      -5.40754       1.60015      -3.80739       2.41798
       493       1.07712      -5.40811       1.60072      -3.80739       2.41919
       494       1.07799      -5.40941       1.60201       -3.8074       2.41752
       495        1.0793      -5.41136       1.60396      -3.80741       2.41381
       496       1.08096      -5.41385       1.60643      -3.80742       2.40741
       497       1.08287       -5.4167       1.60927      -3.80743       2.40135
       498       1.08489      -5.41971       1.61227      -3.80744       2.39394
       499       1.08686      -5.42266        1.6152      -3.80746       2.38792
       500       1.08861      -5.42527        1.6178      -3.80748       2.38259
       501       1.08996      -5.42729        1.6198      -3.80749       2.37917
       502       1.09072      -5.42843       1.62093      -3.80751       2.37916
       503       1.09074      -5.42848       1.62096      -3.80752       2.38151
       504       1.08988      -5.42721       1.61968      -3.80753       2.39045
       505       1.08804      -5.42448       1.61695      -3.80754       2.40411
       506       1.08516       -5.4202       1.61267      -3.80754        2.4217
       507       1.08123      -5.41436       1.60682      -3.80754       2.44655
       508       1.07629      -5.40701       1.59948      -3.80753       2.47683
       509       1.07043      -5.39829       1.59078      -3.80751       2.51123
       510       1.06381      -5.38844       1.58094       -3.8075       2.55008
       511       1.05661      -5.37772       1.57024      -3.80748       2.59242
       512       1.04905      -5.36645         1.559      -3.80745       2.63712
       513       1.04135      -5.35499       1.54756      -3.80743       2.68164
       514       1.03374      -5.34366       1.53625      -3.80741        2.7267
       515       1.02641      -5.33276       1.52536       -3.8074       2.76936
       516       1.01953      -5.32253       1.51514      -3.80739       2.81283
       517        1.0132      -5.31312       1.50573      -3.80739       2.85271
       518       1.00748      -5.30462       1.49723      -3.80739       2.88973
       519       1.00238      -5.29704       1.48965      -3.80739       2.92351
       520      0.997872      -5.29035       1.48295       -3.8074       2.95329
       521      0.993904      -5.28446       1.47705       -3.8074       2.98008
       522      0.990422      -5.27929       1.47188      -3.80741         3.003
       523      0.987383      -5.27477       1.46736      -3.80741       3.02221
       524       0.98477      -5.27089       1.46348      -3.80741       3.04073
       525      0.982598      -5.26766       1.46025      -3.80741       3.05602
       526      0.980908      -5.26514       1.45774       -3.8074       3.06947
       527      0.979766      -5.26343       1.45604      -3.80739       3.07992
       528      0.979254      -5.26266       1.45528      -3.80738       3.08532
       529      0.979445      -5.26294       1.45556      -3.80738       3.08721
       530       0.98039      -5.26434       1.45697      -3.80737       3.08506
       531      0.982103      -5.26689       1.45951      -3.80738       3.07882
       532      0.984546      -5.27053       1.46314      -3.80738       3.06678
       533       0.98764      -5.27513       1.46774      -3.80739       3.05344
       534      0.991262      -5.28053       1.47312       -3.8074       3.03458
       535      0.995259      -5.28648       1.47907      -3.80742       3.01584
       536      0.999471      -5.29275       1.48532      -3.80743       2.99319
       537       1.00374      -5.29911       1.49167      -3.80744       2.97041
       538       1.00795      -5.30537       1.49792      -3.80745        2.9471
       539       1.01199      -5.31138       1.50393      -3.80745       2.92459
       540       1.01582      -5.31706       1.50961      -3.80745       2.90348
       541        1.0194      -5.32238       1.51494      -3.80745       2.88285
       542       1.02274      -5.32735       1.51991      -3.80744       2.86462
       543       1.02588      -5.33201       1.52458      -3.80743       2.84649
       544       1.02886      -5.33643         1.529      -3.80743        2.8283
       545       1.03173      -5.34068       1.53326      -3.80742       2.81174
       546       1.03452      -5.34483       1.53742      -3.80741       2.79475
       547       1.03728      -5.34892       1.54151      -3.80741       2.77936
       548       1.04001      -5.35298       1.54557      -3.80741       2.76338
       549       1.04271        -5.357       1.54959      -3.80741       2.74852
       550       1.04535      -5.36092       1.55351      -3.80742       2.73361
       551       1.04788      -5.36468       1.55726      -3.80742       2.71867
       552       1.05022      -5.36817       1.56074      -3.80743       2.70462
       553        1.0523      -5.37127       1.56384      -3.80744        2.6927
       554       1.05404      -5.37386       1.56642      -3.80745        2.6823
       555       1.05534       -5.3758       1.56835      -3.80746       2.67629
       556       1.05612      -5.37698       1.56952      -3.80746       2.67294
       557       1.05634       -5.3773       1.56983      -3.80747        2.6712
       558       1.05593       -5.3767       1.56923      -3.80747       2.67403
       559       1.05488      -5.37513       1.56766      -3.80747       2.68018
       560       1.05318      -5.37261       1.56515      -3.80746       2.69072
       561       1.05088      -5.36918       1.56172      -3.80746       2.70493
       562       1.04802      -5.36492       1.55747      -3.80745       2.72223
       563       1.04468      -5.35996       1.55252      -3.80744       2.74056
       564       1.04097      -5.35443         1.547      -3.80743       2.76102
       565       1.03701      -5.34853       1.54111      -3.80742       2.78402
       566       1.03292      -5.34244       1.53503       -3.8074       2.80668
       567       1.02885      -5.33638       1.52899      -3.80739       2.83097
       568       1.02494      -5.33055       1.52317      -3.80738       2.85398
       569       1.02132      -5.32517        1.5178      -3.80737       2.87469
       570       1.01812       -5.3204       1.51304      -3.80736        2.8949
       571       1.01544      -5.31641       1.50906      -3.80735       2.91024
       572       1.01337      -5.31332       1.50598      -3.80735       2.92323
       573       1.01196      -5.31124       1.50389      -3.80735       2.93217
       574       1.01127       -5.3102       1.50286      -3.80735       2.93791
       575       1.01131      -5.31026       1.50291      -3.80735       2.94005
       576       1.01208      -5.31141       1.50406      -3.80735       2.93803
       577       1.01357      -5.31363       1.50628      -3.80735       2.93304
       578       1.01574      -5.31686        1.5095      -3.80736       2.92309
       579       1.01853      -5.32101       1.51365      -3.80737       2.91064
       580       1.02187      -5.32599       1.51861      -3.80737       2.89361
       581       1.02568      -5.33166       1.52427      -3.80739       2.87598
       582       1.02986      -5.33789       1.53049       -3.8074       2.85607
       583       1.03432      -5.34451       1.53711      -3.80741       2.83468
       584       1.03893      -5.35139       1.54397      -3.80742       2.81102
       585       1.04361      -5.35835       1.55092      -3.80743       2.78806
       586       1.04826      -5.36527       1.55783      -3.80744       2.76574
       587       1.05279        -5.372       1.56456      -3.80744       2.74343
       588       1.05712      -5.37845         1.571      -3.80745       2.72179
       589       1.06121      -5.38453       1.57708      -3.80745       2.70138
       590       1.06501      -5.39018       1.58272      -3.80746       2.68105
       591        1.0685      -5.39536       1.58791      -3.80746        2.6631
       592       1.07167      -5.40008       1.59262      -3.80746       2.64702
       593       1.07453      -5.40433       1.59687      -3.80745       2.63249
       594       1.07712      -5.40817       1.60072      -3.80745       2.62072
       595       1.07946      -5.41164        1.6042      -3.80744       2.60935
       596       1.08161      -5.41483        1.6074      -3.80744       2.59893
       597       1.08363      -5.41783        1.6104      -3.80743       2.58917
       598       1.08558      -5.42071       1.61329      -3.80743        2.5795
       599        1.0875      -5.42357       1.61615      -3.80742        2.5702
       600       1.08945      -5.42646       1.61904      -3.80742       2.56106
       601       1.09144      -5.42941         1.622      -3.80742       2.55142
       602       1.09347      -5.43244       1.62502      -3.80742       2.54099
       603       1.09554      -5.43552        1.6281      -3.80742       2.53067
       604        1.0976      -5.43859       1.63116      -3.80743       2.52038
       605       1.09959      -5.44155       1.63412      -3.80743       2.51016
       606       1.10145      -5.44431       1.63687      -3.80744        2.5025
       607       1.10309      -5.44676       1.63931      -3.80745       2.49427
       608       1.10443      -5.44876       1.64131      -3.80745       2.48804
       609       1.10541      -5.45023       1.64277      -3.80746       2.48442
       610       1.10597      -5.45106       1.64359      -3.80747         2.481
       611       1.10606      -5.45119       1.64372      -3.80747       2.48123
       612       1.10566       -5.4506       1.64313      -3.80747        2.4822
       613       1.10476      -5.44927        1.6418      -3.80747       2.48686
       614       1.10341      -5.44726       1.63979      -3.80746       2.49312
       615       1.10166      -5.44465       1.63719      -3.80745        2.5031
       616       1.09959      -5.44156       1.63412      -3.80744       2.51228
       617        1.0973      -5.43814       1.63071      -3.80743       2.52197
       618       1.09491      -5.43458       1.62716      -3.80742       2.53289
       619       1.09256      -5.43107       1.62366      -3.80741        2.5435
       620       1.09038      -5.42782       1.62042       -3.8074       2.55168
       621       1.08851      -5.42503       1.61765      -3.80739       2.55729
       622       1.08707      -5.42288       1.61551      -3.80738       2.56238
       623       1.08616      -5.42152       1.61415      -3.80737       2.56344
       624       1.08585      -5.42105       1.61369      -3.80737       2.56004
       625       1.08619      -5.42156        1.6142      -3.80736       2.55356
       626        1.0872      -5.42307       1.61571      -3.80737       2.54362
       627       1.08889      -5.42558       1.61821      -3.80737       2.52833
       628       1.09122      -5.42905       1.62168      -3.80738       2.51112
       629       1.09414       -5.4334       1.62602      -3.80738       2.48874
       630       1.09759      -5.43853       1.63114      -3.80739       2.46207
       631        1.1015      -5.44434       1.63695      -3.80739        2.4342
       632       1.10579      -5.45073       1.64333       -3.8074       2.40391
       633       1.11042      -5.45761        1.6502      -3.80741       2.37024
       634       1.11531      -5.46488       1.65747      -3.80741       2.33516
       635       1.12041      -5.47247       1.66505      -3.80742       2.30014
       636       1.12567       -5.4803       1.67288      -3.80742       2.26335
       637       1.13105      -5.48829       1.68086      -3.80743       2.22569
       638       1.13648      -5.49637       1.68894      -3.80743       2.18941
       639       1.14191      -5.50445       1.69701      -3.80744       2.15218
       640       1.14728      -5.51242       1.70498      -3.80744       2.11529
       641       1.15249      -5.52018       1.71273      -3.80745       2.07947
       642       1.15748      -5.52759       1.72014      -3.80746       2.04499
       643       1.16213      -5.53452       1.72706      -3.80746        2.0143
       644       1.16637      -5.54082       1.73335      -3.80747        1.9858
       645       1.17007      -5.54634       1.73886      -3.80748       1.96063
       646       1.17317      -5.55095       1.74346      -3.80749       1.93958
       647       1.17556      -5.55451       1.74701       -3.8075       1.92154
       648       1.17717      -5.55692       1.74941       -3.8075       1.90829
       649       1.17794      -5.55806       1.75055      -3.80751       1.90077
       650       1.17781      -5.55786       1.75035      -3.80751       1.89849
       651       1.17672      -5.55625       1.74873      -3.80752       1.90302
       652       1.17466      -5.55319       1.74567      -3.80752       1.91262
       653        1.1716      -5.54865       1.74113      -3.80752       1.92735
       654       1.16756      -5.54264       1.73512      -3.80752       1.94852
       655       1.16256       -5.5352       1.72769      -3.80751       1.97595
       656       1.15664      -5.52641        1.7189      -3.80751       2.00825
       657       1.14989      -5.51637       1.70887       -3.8075       2.04576
       658       1.14242      -5.50525       1.69776      -3.80748       2.08787
       659       1.13436      -5.49326       1.68579      -3.80747       2.13078
       660       1.12589      -5.48065        1.6732      -3.80745       2.17842
       661       1.11722      -5.46774       1.66031      -3.80743       2.22644
       662       1.10855      -5.45483       1.64743      -3.80741       2.27719
       663       1.10011      -5.44227       1.63488      -3.80739       2.32513
       664       1.09212      -5.43039       1.62302      -3.80737       2.37041
       665        1.0848      -5.41949       1.61213      -3.80735       2.41246
       666       1.07832      -5.40984        1.6025      -3.80734       2.45118
       667       1.07281      -5.40164       1.59431      -3.80733       2.48638
       668       1.06835      -5.39502       1.58769      -3.80733       2.51518
       669       1.06498      -5.39001       1.58267      -3.80734       2.53883
       670       1.06264      -5.38654        1.5792      -3.80735       2.55725
       671       1.06123      -5.38447       1.57711      -3.80736       2.57097
       672       1.06061      -5.38356       1.57618      -3.80738       2.58134
       673       1.06057      -5.38353       1.57612      -3.80741       2.58965
       674       1.06088      -5.38402       1.57658      -3.80743       2.59494
       675        1.0613      -5.38466        1.5772      -3.80746       2.60067
       676       1.06157      -5.38509       1.57761      -3.80748       2.60734
       677       1.06145      -5.38494       1.57744       -3.8075       2.61538
       678       1.06074      -5.38389       1.57637      -3.80752       2.62643
       679       1.05924      -5.38168       1.57415      -3.80753       2.64088
       680       1.05684      -5.37812       1.57058      -3.80754       2.66019
       681       1.05345      -5.37309       1.56555      -3.80755       2.68639
       682       1.04905      -5.36655       1.55901      -3.80754        2.7182
       683       1.04369      -5.35857       1.55104      -3.80753       2.75509
       684       1.03746       -5.3493       1.54178      -3.80752       2.79513
       685       1.03052      -5.33897       1.53147       -3.8075       2.84071
       686       1.02309       -5.3279       1.52043      -3.80747       2.88768
       687       1.01542      -5.31647       1.50902      -3.80745       2.93438
       688       1.00779      -5.30511       1.49769      -3.80742       2.98092
       689       1.00051      -5.29426       1.48686      -3.80739       3.02676
       690      0.993857      -5.28435       1.47698      -3.80737       3.06902
       691      0.988102      -5.27578       1.46843      -3.80735       3.10464
       692      0.983452      -5.26885       1.46152      -3.80733       3.13546
       693      0.980057       -5.2638       1.45647      -3.80732       3.15955
       694      0.977995      -5.26073       1.45341      -3.80732       3.17509
       695      0.977274      -5.25967       1.45234      -3.80733       3.18336
       696      0.977828       -5.2605       1.45316      -3.80734       3.18326
       697      0.979537      -5.26305        1.4557      -3.80735       3.17835
       698      0.982243      -5.26709       1.45972      -3.80737       3.16725
       699      0.985766      -5.27235       1.46496      -3.80739       3.15113
       700      0.989927      -5.27855       1.47114      -3.80741       3.13092
       701      0.994558      -5.28544       1.47802      -3.80742       3.10749
       702       0.99951      -5.29281       1.48538      -3.80743       3.08028
       703       1.00467      -5.30048       1.49305      -3.80744       3.05345
       704       1.00994      -5.30832       1.50088      -3.80744       3.02454
       705       1.01526      -5.31623       1.50879      -3.80744       2.99554
       706        1.0206      -5.32416       1.51672      -3.80744       2.96431
       707       1.02592      -5.33207       1.52463      -3.80744       2.93266
       708       1.03121      -5.33994        1.5325      -3.80744       2.90107
       709       1.03645      -5.34772       1.54028      -3.80744       2.86972
       710        1.0416      -5.35539       1.54794      -3.80745       2.83856
       711       1.04663      -5.36286       1.55541      -3.80745       2.80871
       712       1.05149      -5.37008       1.56262      -3.80745       2.77992
       713       1.05611      -5.37696        1.5695      -3.80746       2.75093
       714       1.06045      -5.38341       1.57594      -3.80747       2.72348
       715       1.06443      -5.38933       1.58186      -3.80747       2.69764
       716         1.068      -5.39464       1.58717      -3.80747        2.6751
       717       1.07112      -5.39928        1.5918      -3.80747       2.65477
       718       1.07375      -5.40319       1.59572      -3.80748       2.63603
       719       1.07588      -5.40636       1.59888      -3.80748       2.62279
       720       1.07751      -5.40878        1.6013      -3.80747       2.61019
       721       1.07865      -5.41046       1.60299      -3.80747       2.59981
       722       1.07931      -5.41145       1.60398      -3.80747       2.59071
       723       1.07954      -5.41179       1.60432      -3.80747       2.58676
       724       1.07939      -5.41156       1.60409      -3.80746       2.58418
       725        1.0789      -5.41083       1.60337      -3.80746       2.58458
       726       1.07815      -5.40971       1.60226      -3.80745       2.58702
       727       1.07723      -5.40832       1.60088      -3.80744       2.59054
       728       1.07621       -5.4068       1.59937      -3.80743       2.59356
       729       1.07521      -5.40529       1.59788      -3.80742       2.59689
       730       1.07433      -5.40398       1.59658      -3.80741       2.60074
       731       1.07371      -5.40305       1.59566       -3.8074       2.60176
       732       1.07347      -5.40268        1.5953      -3.80738       2.60149
       733       1.07372      -5.40304       1.59567      -3.80737       2.59748
       734       1.07455      -5.40427        1.5969      -3.80737        2.5909
       735       1.07601      -5.40644       1.59908      -3.80737       2.58204
       736       1.07813      -5.40958       1.60221      -3.80737       2.56978
       737       1.08084      -5.41363       1.60625      -3.80738       2.55434
       738       1.08408      -5.41845       1.61106      -3.80739       2.53705
       739       1.08769      -5.42383       1.61643       -3.8074       2.51859
       740       1.09151      -5.42952       1.62211      -3.80742       2.49662
       741       1.09535      -5.43525       1.62781      -3.80743        2.4778
       742       1.09901      -5.44071       1.63325      -3.80745       2.46018
       743       1.10231      -5.44562       1.63815      -3.80747       2.44336
       744       1.10507      -5.44974       1.64226      -3.80748       2.42985
       745       1.10717      -5.45286       1.64538      -3.80749       2.42007
       746        1.1085      -5.45484       1.64735      -3.80749       2.41509
       747       1.10899      -5.45557       1.64808      -3.80749       2.41364
       748       1.10861      -5.45501       1.64752      -3.80749       2.41801
       749       1.10738      -5.45318       1.64569      -3.80749        2.4268
       750       1.10532      -5.45011       1.64263      -3.80748       2.44197
       751       1.10251      -5.44592       1.63845      -3.80747       2.45829
       752       1.09902      -5.44073       1.63326      -3.80746       2.47906
       753       1.09496      -5.43468       1.62723      -3.80745       2.50234
       754       1.09044      -5.42796       1.62052      -3.80744       2.52912
       755        1.0856      -5.42075       1.61332      -3.80743        2.5576
       756       1.08055      -5.41323       1.60581      -3.80742       2.58678
       757       1.07543      -5.40561        1.5982      -3.80741       2.61675
       758       1.07036      -5.39807       1.59067       -3.8074       2.64351
       759       1.06547      -5.39079       1.58341      -3.80739       2.67069
       760       1.06088      -5.38396       1.57658      -3.80738       2.69654
       761        1.0567      -5.37774       1.57037      -3.80737       2.71878
       762       1.05303      -5.37228       1.56492      -3.80736        2.7382
       763       1.04996      -5.36772       1.56036      -3.80736       2.75375
       764       1.04758      -5.36417       1.55681      -3.80735       2.76608
       765       1.04592       -5.3617       1.55436      -3.80735       2.77381
       766       1.04504      -5.36039       1.55305      -3.80735       2.77589
       767       1.04495      -5.36026       1.55291      -3.80735       2.77358
       768       1.04565       -5.3613       1.55395      -3.80735       2.76609
       769       1.04712      -5.36349       1.55613      -3.80736        2.7557
       770       1.04931      -5.36675       1.55939      -3.80736       2.74021
       771       1.05217      -5.37101       1.56365      -3.80737       2.72075
       772       1.05564      -5.37618        1.5688      -3.80738        2.6977
       773       1.05964      -5.38212       1.57474      -3.80738       2.67232
       774       1.06407      -5.38872       1.58133      -3.80739       2.64483
       775       1.06886      -5.39584       1.58844       -3.8074       2.61519
       776        1.0739      -5.40334       1.59594      -3.80741       2.58394
       777       1.07911      -5.41109       1.60368      -3.80741       2.55108
       778        1.0844      -5.41896       1.61153      -3.80742       2.51768
       779       1.08967       -5.4268       1.61937      -3.80743       2.48426
       780       1.09485       -5.4345       1.62707      -3.80744       2.45026
       781       1.09985      -5.44194        1.6345      -3.80745       2.41966
       782        1.1046        -5.449       1.64155      -3.80745       2.39022
       783       1.10902      -5.45558       1.64813      -3.80746       2.36181
       784       1.11305      -5.46158       1.65412      -3.80746       2.33698
       785       1.11665      -5.46693       1.65946      -3.80747       2.31254
       786       1.11974      -5.47154       1.66406      -3.80747       2.29149
       787       1.12231      -5.47535       1.66788      -3.80747       2.27274
       788       1.12431      -5.47832       1.67085      -3.80747       2.25674
       789       1.12571      -5.48041       1.67293      -3.80748       2.24609
       790       1.12651       -5.4816       1.67412      -3.80748       2.23948
       791       1.12671      -5.48189       1.67442      -3.80748       2.23477
       792       1.12631       -5.4813       1.67383      -3.80747        2.2346
       793       1.12535      -5.47987        1.6724      -3.80747        2.2388
       794       1.12387      -5.47767        1.6702      -3.80747       2.24473
       795       1.12192      -5.47476        1.6673      -3.80747       2.25347
       796       1.11955      -5.47123       1.66377      -3.80746       2.26524
       797       1.11683      -5.46719       1.65973      -3.80746       2.27861
       798       1.11382      -5.46272       1.65527      -3.80745       2.29401
       799        1.1106      -5.45793       1.65048      -3.80745       2.31191
       800       1.10722      -5.45289       1.64545      -3.80744       2.32818
       801       1.10373       -5.4477       1.64026      -3.80744        2.3463
       802       1.10018      -5.44243         1.635      -3.80744       2.36492
       803       1.09662      -5.43714       1.62971      -3.80743       2.38325
       804       1.09309      -5.43188       1.62445      -3.80743       2.40243
       805       1.08961      -5.42671       1.61928      -3.80743       2.41981
       806       1.08623      -5.42168       1.61425      -3.80743       2.43655
       807       1.08298      -5.41686       1.60943      -3.80743       2.45379
       808       1.07992       -5.4123       1.60488      -3.80743       2.47075
       809       1.07708      -5.40808       1.60066      -3.80743       2.48666
       810       1.07451      -5.40427       1.59684      -3.80742       2.50102
       811       1.07226      -5.40092       1.59349      -3.80743       2.51365
       812       1.07032      -5.39805       1.59062      -3.80743       2.52504
       813        1.0687      -5.39565       1.58821      -3.80744       2.53418
       814       1.06734      -5.39364       1.58619      -3.80745       2.54299
       815       1.06615      -5.39188       1.58442      -3.80746       2.55271
       816         1.065      -5.39019       1.58271      -3.80748       2.56101
       817       1.06375      -5.38834       1.58085      -3.80749       2.56859
       818       1.06225      -5.38613       1.57862      -3.80751       2.57912
       819       1.06038      -5.38336       1.57584      -3.80752       2.59078
       820       1.05806      -5.37991       1.57239      -3.80752       2.60555
       821       1.05525      -5.37574       1.56822      -3.80752       2.62299
       822         1.052       -5.3709        1.5634      -3.80751       2.64152
       823       1.04842      -5.36555       1.55806      -3.80749       2.66192
       824       1.04465      -5.35993       1.55246      -3.80747        2.6839
       825        1.0409      -5.35435        1.5469      -3.80745        2.7061
       826       1.03741      -5.34914       1.54171      -3.80742       2.72704
       827       1.03442      -5.34467       1.53727       -3.8074       2.74385
       828       1.03216      -5.34128        1.5339      -3.80738         2.757
       829       1.03081      -5.33926       1.53189      -3.80736       2.76494
       830       1.03051      -5.33881       1.53146      -3.80736       2.76778
       831       1.03135      -5.34006       1.53271      -3.80735        2.7643
       832       1.03334      -5.34301       1.53566      -3.80736       2.75638
       833       1.03641      -5.34759       1.54022      -3.80736       2.74078
       834       1.04046      -5.35362       1.54624      -3.80737       2.71998
       835       1.04535       -5.3609        1.5535      -3.80739       2.69311
       836       1.05089      -5.36915       1.56174      -3.80741       2.66383
       837       1.05691       -5.3781       1.57068      -3.80742       2.63175
       838       1.06322       -5.3875       1.58006      -3.80743       2.60024
       839       1.06967      -5.39709       1.58964      -3.80745       2.56534
       840       1.07609      -5.40665        1.5992      -3.80745       2.53216
       841       1.08238        -5.416       1.60854      -3.80746       2.49896
       842       1.08843      -5.42499       1.61753      -3.80747       2.46846
       843       1.09416      -5.43351       1.62604      -3.80747       2.43895
       844        1.0995      -5.44145       1.63398      -3.80747       2.41053
       845        1.1044      -5.44874       1.64127      -3.80747       2.38562
       846       1.10884      -5.45534       1.64787      -3.80748       2.36387
       847       1.11279      -5.46121       1.65374      -3.80747       2.34569
       848       1.11625      -5.46634       1.65887      -3.80747       2.32867
       849       1.11921      -5.47073       1.66327      -3.80747       2.31607
       850       1.12167      -5.47439       1.66693      -3.80746        2.3046
       851       1.12366      -5.47735       1.66988      -3.80746       2.29602
       852       1.12521      -5.47964       1.67218      -3.80746       2.29019
       853       1.12634      -5.48132       1.67387      -3.80745        2.2869
       854        1.1271      -5.48245         1.675      -3.80745       2.28455
       855       1.12753      -5.48308       1.67564      -3.80744       2.28398
       856       1.12768       -5.4833       1.67586      -3.80744       2.28462
       857        1.1276      -5.48317       1.67574      -3.80743       2.28676
       858       1.12732      -5.48275       1.67532      -3.80743        2.2907
       859       1.12687      -5.48209       1.67466      -3.80743       2.29569
       860       1.12629      -5.48122       1.67379      -3.80743       2.30022
       861       1.12558      -5.48016       1.67273      -3.80743       2.30556
       862       1.12473       -5.4789       1.67147      -3.80743       2.31195
       863       1.12374      -5.47743          1.67      -3.80743       2.31863
       864       1.12257      -5.47571       1.66827      -3.80744       2.32704
       865        1.1212      -5.47367       1.66623      -3.80744       2.33325
       866       1.11959      -5.47128       1.66383      -3.80745       2.34119
       867        1.1177      -5.46848       1.66103      -3.80745        2.3507
       868       1.11553      -5.46525        1.6578      -3.80745       2.36105
       869       1.11306      -5.46158       1.65413      -3.80745       2.37333
       870        1.1103      -5.45748       1.65003      -3.80745       2.38662
       871        1.1073      -5.45302       1.64557      -3.80745       2.40042
       872       1.10413      -5.44829       1.64086      -3.80744        2.4141
       873       1.10088      -5.44346       1.63603      -3.80743       2.42769
       874       1.09768      -5.43869       1.63128      -3.80741       2.44273
       875       1.09467       -5.4342        1.6268       -3.8074       2.45502
       876       1.09198      -5.43019       1.62281      -3.80739       2.46437
       877       1.08977      -5.42689       1.61951      -3.80738       2.47226
       878       1.08814      -5.42447        1.6171      -3.80737       2.47646
       879        1.0872      -5.42306        1.6157      -3.80737       2.47632
       880       1.08698      -5.42274       1.61537      -3.80737       2.47409
       881       1.08747      -5.42348       1.61611      -3.80737       2.46634
       882       1.08863       -5.4252       1.61782      -3.80738       2.45556
       883       1.09034      -5.42776       1.62037      -3.80739       2.44176
       884       1.09249      -5.43097       1.62356      -3.80741       2.42566
       885       1.09492      -5.43459       1.62717      -3.80742       2.40833
       886       1.09747       -5.4384       1.63097      -3.80743       2.38925
       887       1.10002       -5.4422       1.63475      -3.80745        2.3711
       888       1.10244       -5.4458       1.63834      -3.80745       2.35316
       889       1.10464      -5.44907       1.64161      -3.80746       2.33733
       890       1.10656      -5.45194       1.64448      -3.80746       2.32207
       891       1.10818      -5.45434       1.64687      -3.80746        2.3095
       892       1.10946      -5.45625       1.64878      -3.80746       2.29921
       893       1.11042      -5.45767       1.65021      -3.80746       2.28934
       894       1.11107      -5.45862       1.65117      -3.80746       2.28203
       895        1.1114      -5.45912       1.65166      -3.80746       2.27754
       896       1.11143      -5.45917       1.65171      -3.80746       2.27422
       897       1.11116      -5.45877       1.65131      -3.80746       2.27369
       898       1.11058      -5.45791       1.65045      -3.80746       2.27542
       899        1.1097      -5.45659       1.64913      -3.80746       2.27725
       900        1.1085      -5.45481       1.64735      -3.80745       2.28322
       901       1.10701      -5.45258       1.64513      -3.80745       2.29079
       902       1.10524      -5.44995        1.6425      -3.80745       2.30037
       903       1.10323      -5.44697       1.63952      -3.80744       2.31063
       904       1.10105      -5.44371       1.63628      -3.80744       2.32041
       905       1.09876      -5.44031       1.63288      -3.80743       2.33146
       906       1.09646      -5.43688       1.62946      -3.80742       2.34356
       907       1.09424      -5.43357       1.62616      -3.80741       2.35534
       908       1.09221      -5.43054       1.62314       -3.8074        2.3657
       909       1.09046      -5.42793       1.62054      -3.80739       2.37602
       910       1.08907      -5.42586       1.61848      -3.80738       2.38365
       911       1.08812      -5.42444       1.61707      -3.80738       2.38741
       912       1.08764      -5.42373       1.61636      -3.80737       2.38976
       913       1.08766      -5.42375       1.61638      -3.80737       2.38999
       914       1.08817      -5.42452       1.61714      -3.80738       2.38834
       915       1.08917        -5.426       1.61862      -3.80738       2.38295
       916       1.09062      -5.42816       1.62078      -3.80738       2.37504
       917       1.09248      -5.43094       1.62355      -3.80739       2.36478
       918       1.09473      -5.43428       1.62689      -3.80739       2.35237
       919       1.09731      -5.43811       1.63072      -3.80739       2.33856
       920       1.10017      -5.44238       1.63498       -3.8074       2.32194
       921        1.1033      -5.44703       1.63962       -3.8074        2.3043
       922       1.10666      -5.45201       1.64461       -3.8074       2.28581
       923       1.11022      -5.45731       1.64991       -3.8074       2.26551
       924       1.11398       -5.4629       1.65549      -3.80741       2.24353
       925       1.11791      -5.46874       1.66133      -3.80741       2.22054
       926       1.12199       -5.4748       1.66739      -3.80741       2.19561
       927       1.12619      -5.48105       1.67364      -3.80741       2.17165
       928       1.13047      -5.48742          1.68      -3.80742       2.14811
       929       1.13478      -5.49383        1.6864      -3.80742       2.12315
       930       1.13905      -5.50018       1.69275      -3.80743       2.09905
       931        1.1432      -5.50636       1.69892      -3.80744        2.0771
       932       1.14713      -5.51222       1.70476      -3.80745       2.05597
       933       1.15074      -5.51759       1.71012      -3.80747       2.03761
       934        1.1539       -5.5223       1.71483      -3.80747       2.01997
       935       1.15651      -5.52619        1.7187      -3.80749       2.00532
       936       1.15843      -5.52905       1.72155       -3.8075       1.99488
       937       1.15955      -5.53072       1.72321      -3.80751        1.9901
       938       1.15975      -5.53104       1.72352      -3.80752       1.98915
       939       1.15894      -5.52984       1.72231      -3.80753       1.99445
       940       1.15703      -5.52701       1.71947      -3.80754       2.00673
       941       1.15395      -5.52244        1.7149      -3.80754       2.02604
       942       1.14967      -5.51608       1.70854      -3.80754       2.05043
       943       1.14417      -5.50791       1.70036      -3.80754       2.08319
       944       1.13746      -5.49793       1.69039      -3.80754       2.12231
       945        1.1296      -5.48624       1.67871      -3.80753       2.16666
       946       1.12067      -5.47296       1.66544      -3.80752       2.21654
       947       1.11081       -5.4583       1.65079      -3.80751       2.27174
       948        1.1002      -5.44251       1.63502      -3.80749       2.32885
       949       1.08904      -5.42591       1.61844      -3.80747        2.3927
       950       1.07759      -5.40886       1.60142      -3.80744       2.45786
       951       1.06612      -5.39178       1.58437      -3.80741       2.52179
       952       1.05491       -5.3751       1.56771      -3.80739        2.5835
       953       1.04425      -5.35924       1.55188      -3.80737       2.64363
       954       1.03441      -5.34459       1.53725      -3.80734       2.70024
       955       1.02561       -5.3315       1.52418      -3.80733       2.75072
       956       1.01805      -5.32025       1.51293      -3.80732       2.79328
       957       1.01182      -5.31099       1.50368      -3.80731       2.82889
       958         1.007      -5.30382       1.49651      -3.80732       2.85803
       959       1.00356      -5.29873       1.49141      -3.80732       2.87858
       960       1.00145       -5.2956       1.48826      -3.80734       2.89331
       961       1.00052      -5.29423       1.48688      -3.80735       2.90205
       962       1.00061      -5.29439       1.48702      -3.80737       2.90266
       963       1.00154      -5.29579        1.4884      -3.80739       2.90043
       964        1.0031      -5.29813       1.49072      -3.80741       2.89423
       965        1.0051      -5.30111       1.49369      -3.80743       2.88508
       966       1.00735      -5.30447       1.49703      -3.80744        2.8742
       967        1.0097      -5.30799       1.50053      -3.80745       2.86105
       968       1.01204      -5.31147       1.50401      -3.80746       2.84928
       969       1.01428      -5.31479       1.50733      -3.80747       2.83719
       970       1.01636      -5.31789       1.51043      -3.80747       2.82616
       971        1.0183      -5.32076        1.5133      -3.80746       2.81463
       972       1.02011      -5.32345         1.516      -3.80746       2.80439
       973       1.02187      -5.32606       1.51861      -3.80745       2.79355
       974       1.02366      -5.32871       1.52127      -3.80744       2.78362
       975       1.02558      -5.33156       1.52413      -3.80743       2.77281
       976       1.02772      -5.33474       1.52731      -3.80743       2.76128
       977       1.03014      -5.33833       1.53091      -3.80742       2.74608
       978       1.03286      -5.34237       1.53494      -3.80742       2.73012
       979       1.03584       -5.3468       1.53937      -3.80743       2.71439
       980         1.039      -5.35152       1.54407      -3.80745       2.69934
       981       1.04222      -5.35632       1.54885      -3.80747       2.68344
       982       1.04533      -5.36096       1.55348      -3.80748       2.66799
       983        1.0482      -5.36524       1.55774       -3.8075       2.65266
       984       1.05068      -5.36894       1.56143       -3.8075       2.64081
       985       1.05269      -5.37193       1.56442      -3.80751       2.63122
       986        1.0542      -5.37416       1.56666       -3.8075       2.62319
       987       1.05524       -5.3757       1.56821       -3.8075       2.61868
       988       1.05591      -5.37668        1.5692      -3.80748       2.61611
       989       1.05634       -5.3773       1.56984      -3.80747       2.61419
       990        1.0567      -5.37782       1.57037      -3.80745       2.61232
       991       1.05715      -5.37848       1.57105      -3.80743       2.61068
       992       1.05786      -5.37953        1.5721      -3.80742       2.60709
       993       1.05895      -5.38113       1.57372      -3.80741       2.60092
       994       1.06049      -5.38342       1.57601      -3.80741       2.59306
       995       1.06252      -5.38644       1.57902      -3.80741       2.58228
       996       1.06502      -5.39015       1.58273      -3.80742       2.56944
       997       1.06793      -5.39449       1.58706      -3.80743       2.55373
       998       1.07118      -5.39933        1.5919      -3.80743       2.53632
       999       1.07468      -5.40454        1.5971      -3.80744       2.51744
      1000       1.07834      -5.40998       1.60253      -3.80745       2.49758
