#     Step          Temp           Pot           Kin           Tot         Press
         0             1      -1.44798         0.875     -0.572981     -0.965432
         1      0.999874      -1.44788      0.874889     -0.572986     -0.945091
         2      0.999235      -1.44732      0.874331     -0.572992     -0.921477
         3      0.998003      -1.44625      0.873253     -0.572999      -0.89433
         4      0.996084      -1.44458      0.871574     -0.573007     -0.863357
         5      0.993371      -1.44222        0.8692     -0.573016     -0.828236
         6      0.989743      -1.43905      0.866025     -0.573026     -0.788605
         7      0.985065      -1.43497      0.861932     -0.573037     -0.744072
         8      0.979186      -1.42984      0.856788      -0.57305     -0.694205
         9      0.971939      -1.42351      0.850447     -0.573064     -0.638543
        10      0.963144      -1.41583      0.842751     -0.573079     -0.576593
        11      0.952605      -1.40662      0.833529     -0.573095     -0.507839
        12      0.940116      -1.39571      0.822602     -0.573112     -0.431753
        13      0.925466      -1.38291      0.809783      -0.57313     -0.347807
        14      0.908443      -1.36803      0.794887     -0.573147     -0.255496
        15       0.88884       -1.3509      0.777735     -0.573165     -0.154365
        16      0.866474      -1.33135      0.758165      -0.57318    -0.0440437
        17      0.841196      -1.30924      0.736046     -0.573194     0.0757066
        18      0.812909       -1.2845      0.711295     -0.573203      0.204941
        19      0.781592       -1.2571      0.683893     -0.573208      0.343469
        20      0.747325      -1.22711      0.653909     -0.573205      0.490781
        21      0.710312      -1.19472      0.621523     -0.573194      0.645985
        22      0.670909      -1.16022      0.587045     -0.573173      0.807738
        23      0.629638      -1.12408      0.550933     -0.573142      0.974197
        24      0.587204       -1.0869      0.513803       -0.5731         1.143
        25      0.544483      -1.04947      0.476423     -0.573048       1.31129
        26      0.502508      -1.01268      0.439694     -0.572989       1.47577
        27      0.462417     -0.977542      0.404615     -0.572927       1.63286
        28      0.425395     -0.945086      0.372221     -0.572866       1.77889
        29      0.392588     -0.916325      0.343515     -0.572811       1.91031
        30      0.365014     -0.892155      0.319387     -0.572768       2.02399
        31      0.343475     -0.873281      0.300541      -0.57274       2.11745
        32      0.328488     -0.860157      0.287427      -0.57273       2.18907
        33       0.32024     -0.852949       0.28021     -0.572739       2.23821
        34      0.318583     -0.851526       0.27876     -0.572765       2.26524
        35      0.323067     -0.855488      0.282684     -0.572804       2.27143
        36      0.332996     -0.864223      0.291372     -0.572851       2.25879
        37      0.347514     -0.876976      0.304075     -0.572902       2.22985
        38       0.36569     -0.892929      0.319978      -0.57295       2.18738
        39      0.386602      -0.91127      0.338277     -0.572994       2.13414
        40      0.409402     -0.931256      0.358226     -0.573029       2.07274
        41       0.43336     -0.952246       0.37919     -0.573056       2.00545
        42      0.457889     -0.973727      0.400653     -0.573074       1.93418
        43      0.482545     -0.995311      0.422227     -0.573084       1.86042
        44      0.507016      -1.01673      0.443639     -0.573088       1.78528
        45      0.531103       -1.0378      0.464715     -0.573087       1.70956
        46       0.55469      -1.05844      0.485354     -0.573083       1.63381
        47      0.577721      -1.07858      0.505506     -0.573077        1.5584
        48      0.600175      -1.09822      0.525153     -0.573071       1.48361
        49      0.622048      -1.11736      0.544292     -0.573065       1.40963
        50      0.643339      -1.13598      0.562922     -0.573059       1.33664
        51      0.664042      -1.15409      0.581037     -0.573055       1.26484
        52       0.68414      -1.17167      0.598622     -0.573052       1.19444
        53      0.703606       -1.1887      0.615655     -0.573049       1.12567
        54      0.722402      -1.20515      0.632102     -0.573048       1.05878
        55      0.740487      -1.22097      0.647926     -0.573046      0.994023
        56      0.757814      -1.23613      0.663087     -0.573045      0.931674
        57      0.774336      -1.25059      0.677544     -0.573044      0.871984
        58      0.790012       -1.2643       0.69126     -0.573043      0.815191
        59      0.804804      -1.27725      0.704203     -0.573042       0.76151
        60      0.818682      -1.28939      0.716347     -0.573041      0.711129
        61      0.831625      -1.30071      0.727672     -0.573039      0.664204
        62      0.843619       -1.3112      0.738167     -0.573037      0.620861
        63      0.854658      -1.32086      0.747826     -0.573035      0.581195
        64      0.864743      -1.32968       0.75665     -0.573032      0.545274
        65       0.87388      -1.33768      0.764645      -0.57303      0.513138
        66      0.882083      -1.34485      0.771822     -0.573027      0.484807
        67      0.889366      -1.35122      0.778195     -0.573025      0.460281
        68      0.895748       -1.3568      0.783779     -0.573022      0.439544
        69      0.901249      -1.36161      0.788593      -0.57302      0.422566
        70      0.905891      -1.36567      0.792655     -0.573018      0.409309
        71      0.909696        -1.369      0.795984     -0.573016      0.399724
        72      0.912684      -1.37161      0.798598     -0.573014      0.393757
        73      0.914877      -1.37353      0.800517     -0.573013      0.391347
        74      0.916295      -1.37477      0.801758     -0.573011      0.392428
        75      0.916958      -1.37535      0.802338      -0.57301      0.396931
        76      0.916885      -1.37528      0.802275     -0.573009      0.404778
        77      0.916098      -1.37459      0.801585     -0.573008      0.415887
        78      0.914615      -1.37329      0.800288     -0.573007      0.430168
        79      0.912458      -1.37141        0.7984     -0.573005      0.447524
        80       0.90965      -1.36895      0.795944     -0.573004      0.467845
        81      0.906217      -1.36594       0.79294     -0.573003       0.49101
        82      0.902188      -1.36242      0.789414     -0.573002      0.516885
        83      0.897594       -1.3584      0.785395        -0.573      0.545319
        84      0.892474      -1.35391      0.780915     -0.572999      0.576145
        85      0.886869      -1.34901       0.77601     -0.572997      0.609179
        86      0.880826      -1.34372      0.770723     -0.572994      0.644218
        87      0.874398      -1.33809      0.765099     -0.572992      0.681041
        88      0.867643      -1.33218      0.759188     -0.572989       0.71941
        89      0.860624      -1.32603      0.753046     -0.572986      0.759074
        90      0.853406      -1.31971       0.74673     -0.572983      0.799768
        91      0.846058      -1.31328      0.740301      -0.57298       0.84122
        92       0.83865       -1.3068      0.733819     -0.572977      0.883159
        93      0.831251      -1.30032      0.727344     -0.572974      0.925315
        94      0.823926      -1.29391      0.720935     -0.572972      0.967429
        95      0.816735      -1.28761      0.714643      -0.57297       1.00926
        96      0.809732      -1.28148      0.708515     -0.572968       1.05059
        97      0.802958      -1.27556      0.702588     -0.572967       1.09124
        98      0.796444      -1.26986      0.696889     -0.572967       1.13106
        99      0.790209       -1.2644      0.691433     -0.572968       1.16993
       100      0.784255      -1.25919      0.686223      -0.57297       1.20781
       101      0.778573      -1.25422      0.681252     -0.572972       1.24466
       102      0.773138      -1.24947      0.676496     -0.572975       1.28051
       103      0.767913       -1.2449      0.671924     -0.572979       1.31542
       104      0.762853      -1.24048      0.667496     -0.572983       1.34948
       105      0.757903      -1.23615      0.663165     -0.572988        1.3828
       106      0.753007      -1.23187      0.658881     -0.572992        1.4155
       107      0.748108      -1.22759      0.654594     -0.572997        1.4477
       108      0.743153      -1.22326      0.650259        -0.573        1.4795
       109        0.7381      -1.21884      0.645838     -0.573003         1.511
       110      0.732919      -1.21431      0.641304     -0.573005       1.54222
       111      0.727597      -1.20965      0.636647     -0.573006       1.57316
       112       0.72214      -1.20488      0.631873     -0.573005       1.60375
       113       0.71658      -1.20001      0.627007     -0.573004       1.63384
       114      0.710969       -1.1951      0.622098        -0.573       1.66324
       115      0.705386      -1.19021      0.617213     -0.572995       1.69165
       116      0.699935      -1.18543      0.612443     -0.572989       1.71875
       117      0.694737      -1.18088      0.607895     -0.572982       1.74411
       118      0.689932      -1.17667      0.603691     -0.572974       1.76729
       119      0.685672      -1.17293      0.599963     -0.572966       1.78782
       120      0.682111      -1.16981      0.596847     -0.572958        1.8052
       121      0.679398      -1.16742      0.594473     -0.572951       1.81897
       122      0.677672      -1.16591      0.592963     -0.572945       1.82872
       123      0.677044      -1.16535      0.592414     -0.572941        1.8341
       124      0.677598      -1.16584      0.592898     -0.572939       1.83486
       125      0.679373      -1.16739      0.594451      -0.57294        1.8309
       126      0.682363      -1.17001      0.597068     -0.572944       1.82224
       127      0.686512      -1.17365      0.600698     -0.572951       1.80907
       128       0.69171      -1.17821      0.605246     -0.572961       1.79174
       129      0.697796      -1.18354      0.610572     -0.572973       1.77074
       130      0.704564      -1.18948      0.616493     -0.572988       1.74672
       131      0.711767       -1.1958      0.622796     -0.573004       1.72045
       132      0.719132      -1.20226      0.629241     -0.573022       1.69275
       133      0.726369      -1.20861      0.635573     -0.573039       1.66453
       134      0.733186      -1.21459      0.641538     -0.573056       1.63668
       135      0.739302      -1.21996       0.64689     -0.573072       1.61006
       136      0.744464      -1.22449      0.651406     -0.573085       1.58544
       137       0.74846        -1.228      0.654903     -0.573095       1.56348
       138      0.751132      -1.23034       0.65724     -0.573102       1.54465
       139      0.752388      -1.23144      0.658339     -0.573103       1.52926
       140      0.752212      -1.23129      0.658186     -0.573101       1.51734
       141      0.750672      -1.22993      0.656838     -0.573093       1.50872
       142       0.74792      -1.22751       0.65443      -0.57308       1.50294
       143      0.744192      -1.22423      0.651168     -0.573063       1.49932
       144      0.739803      -1.22037      0.647327     -0.573041       1.49693
       145      0.735133      -1.21626      0.643242     -0.573017       1.49464
       146      0.730614      -1.21228      0.639287      -0.57299       1.49122
       147      0.726701      -1.20883      0.635864     -0.572964       1.48532
       148      0.723853      -1.20631      0.633371     -0.572939       1.47561
       149      0.722498       -1.2051      0.632185     -0.572917       1.46087
       150      0.723008      -1.20553      0.632632       -0.5729       1.44004
       151      0.725675      -1.20785      0.634965     -0.572888       1.41229
       152      0.730685      -1.21223       0.63935     -0.572883       1.37712
       153      0.738114      -1.21873       0.64585     -0.572884       1.33437
       154      0.747917      -1.22732      0.654428     -0.572892       1.28423
       155      0.759938      -1.23785      0.664945     -0.572905       1.22723
       156      0.773921       -1.2501      0.677181     -0.572923       1.16421
       157      0.789537      -1.26379      0.690845     -0.572943       1.09621
       158      0.806399      -1.27856      0.705599     -0.572965       1.02448
       159      0.824095      -1.29407      0.721083     -0.572986      0.950338
       160       0.84221      -1.30994      0.736933     -0.573007      0.875119
       161      0.860343      -1.32583        0.7528     -0.573025      0.800123
       162      0.878131      -1.34141      0.768365     -0.573041      0.726555
       163      0.895253       -1.3564      0.783347     -0.573053      0.655491
       164      0.911441      -1.37057      0.797511     -0.573063      0.587858
       165      0.926477      -1.38374      0.810667     -0.573069      0.524427
       166      0.940197      -1.39575      0.822672     -0.573073      0.465814
       167      0.952482       -1.4065      0.833422     -0.573075      0.412494
       168      0.963254      -1.41592      0.842847     -0.573076      0.364812
       169      0.972467      -1.42398      0.850909     -0.573074      0.323009
       170      0.980101      -1.43066      0.857588     -0.573073      0.287239
       171      0.986155      -1.43596      0.862885      -0.57307      0.257588
       172      0.990638      -1.43988      0.866808     -0.573068      0.234096
       173      0.993568      -1.44244      0.869372     -0.573066      0.216773
       174      0.994961      -1.44366      0.870591     -0.573064      0.205609
       175      0.994834      -1.44354      0.870479     -0.573063      0.200593
       176      0.993193      -1.44211      0.869044     -0.573063      0.201715
       177      0.990042      -1.43935      0.866287     -0.573064      0.208976
       178       0.98537      -1.43526      0.862199     -0.573065      0.222391
       179       0.97916      -1.42983      0.856765     -0.573068       0.24199
       180      0.971384      -1.42303      0.849961     -0.573071      0.267819
       181      0.962005      -1.41483      0.841754     -0.573075      0.299933
       182      0.950979      -1.40519      0.832107      -0.57308      0.338392
       183      0.938259      -1.39406      0.820977     -0.573085      0.383253
       184      0.923797      -1.38141      0.808322      -0.57309      0.434561
       185      0.907546       -1.3672      0.794103     -0.573095       0.49233
       186       0.88947      -1.35139      0.778287       -0.5731      0.556534
       187       0.86955      -1.33396      0.760856     -0.573103      0.627082
       188      0.847784      -1.31492      0.741811     -0.573106      0.703801
       189      0.824206      -1.29429       0.72118     -0.573106      0.786409
       190      0.798886      -1.27213      0.699025     -0.573103      0.874494
       191      0.771943      -1.24855       0.67545     -0.573097      0.967484
       192      0.743555       -1.2237      0.650611     -0.573088       1.06462
       193      0.713966      -1.19779       0.62472     -0.573074       1.16495
       194      0.683493      -1.17111      0.598056     -0.573056       1.26729
       195      0.652531        -1.144      0.570965     -0.573033       1.37021
       196      0.621553      -1.11686      0.543859     -0.573006       1.47208
       197      0.591106      -1.09019      0.517218     -0.572974       1.57105
       198      0.561803      -1.06452      0.491578      -0.57294       1.66507
       199      0.534301      -1.04042      0.467513     -0.572903       1.75201
       200       0.50928      -1.01849       0.44562     -0.572867       1.82965
       201      0.487414      -0.99932      0.426487     -0.572833       1.89585
       202      0.469332     -0.983468      0.410666     -0.572802       1.94861
       203      0.455586     -0.971416      0.398638     -0.572778       1.98619
       204       0.44661     -0.963546      0.390784     -0.572762       2.00721
       205      0.442693     -0.960112      0.387356     -0.572755       2.01078
       206      0.443955     -0.961219      0.388461     -0.572759        1.9965
       207      0.450338     -0.966817      0.394046     -0.572772       1.96453
       208      0.461607       -0.9767      0.403906     -0.572793       1.91559
       209      0.477368     -0.990519      0.417697     -0.572823        1.8509
       210      0.497089      -1.00781      0.434953     -0.572857        1.7721
       211      0.520141      -1.02802      0.455123     -0.572895       1.68114
       212      0.545831      -1.05053      0.477602     -0.572933       1.58019
       213      0.573444      -1.07473      0.501764      -0.57297       1.47153
       214       0.60228          -1.1      0.526995     -0.573004       1.35738
       215      0.631678      -1.12575      0.552718     -0.573034        1.2399
       216      0.661045      -1.15147      0.578415      -0.57306       1.12104
       217      0.689869      -1.17671      0.603635     -0.573079       1.00253
       218      0.717724       -1.2011      0.628009     -0.573094      0.885857
       219      0.744276      -1.22434      0.651242     -0.573103      0.772222
       220      0.769276      -1.24622      0.673116     -0.573108      0.662584
       221      0.792553      -1.26659      0.693484     -0.573109      0.557655
       222      0.814007      -1.28536      0.712256     -0.573107      0.457932
       223      0.833598       -1.3025      0.729398     -0.573102       0.36372
       224      0.851333      -1.31801      0.744916     -0.573095      0.275165
       225      0.867258      -1.33194       0.75885     -0.573087      0.192283
       226      0.881449      -1.34435      0.771268     -0.573078      0.114985
       227      0.894003      -1.35532      0.782253     -0.573068     0.0431008
       228      0.905032      -1.36496      0.791903     -0.573058     -0.023598
       229      0.914656      -1.37337      0.800324     -0.573048    -0.0853813
       230      0.922999      -1.38066      0.807624     -0.573038     -0.142545
       231      0.930185      -1.38694      0.813912     -0.573029       -0.1954
       232      0.936336      -1.39231      0.819294      -0.57302      -0.24426
       233       0.94157      -1.39689      0.823874     -0.573012     -0.289438
       234      0.945997      -1.40075      0.827748     -0.573004     -0.331235
       235      0.949722        -1.404      0.831007     -0.572997     -0.369942
       236      0.952841      -1.40673      0.833736     -0.572991     -0.405831
       237      0.955442        -1.409      0.836011     -0.572985     -0.439159
       238      0.957605      -1.41088      0.837904      -0.57298      -0.47016
       239      0.959403      -1.41245      0.839477     -0.572975     -0.499049
       240      0.960899      -1.41376      0.840787     -0.572971     -0.526023
       241      0.962152      -1.41485      0.841883     -0.572967     -0.551254
       242      0.963209      -1.41577      0.842808     -0.572964     -0.574899
       243      0.964114      -1.41656        0.8436     -0.572962     -0.597093
       244      0.964904      -1.41725      0.844291     -0.572959     -0.617952
       245      0.965609      -1.41787      0.844908     -0.572958     -0.637578
       246      0.966271      -1.41846      0.845488     -0.572969      -0.65609
       247       0.96691      -1.41901      0.846046     -0.572968     -0.673514
       248      0.967523      -1.41955      0.846582     -0.572967     -0.689904
       249       0.96812      -1.42007      0.847105     -0.572966     -0.705301
       250      0.968708      -1.42059       0.84762     -0.572966     -0.719729
       251       0.96929       -1.4211      0.848129     -0.572966     -0.733201
       252      0.969865       -1.4216      0.848632     -0.572966     -0.745716
       253      0.970428      -1.42209      0.849124     -0.572967     -0.757265
       254       0.97097      -1.42257      0.849599     -0.572967     -0.767826
       255      0.971482      -1.42301      0.850047     -0.572968     -0.777366
       256      0.971948      -1.42342      0.850454     -0.572969     -0.785843
       257       0.97235      -1.42378      0.850807     -0.572971     -0.793205
       258      0.972669      -1.42406      0.851085     -0.572972      -0.79939
       259      0.972941      -1.42434      0.851324     -0.573014      -0.80445
       260      0.973137      -1.42451      0.851495     -0.573016     -0.808164
       261      0.973163      -1.42454      0.851518     -0.573018     -0.810448
       262      0.972987      -1.42438      0.851364     -0.573021     -0.811203
       263      0.972569      -1.42402      0.850998     -0.573024     -0.810316
       264      0.971869      -1.42341      0.850386     -0.573027     -0.807668
       265       0.97084      -1.42252      0.849485     -0.573031     -0.803128
       266      0.969433      -1.42129      0.848254     -0.573035     -0.796556
       267      0.967594      -1.41968      0.846644     -0.573039     -0.787804
       268      0.965264      -1.41765      0.844606     -0.573043     -0.776714
       269      0.962383      -1.41513      0.842085     -0.573048     -0.763123
       270      0.958885      -1.41208      0.839025     -0.573053     -0.746865
       271      0.954704      -1.40842      0.835366     -0.573059     -0.727771
       272      0.949771      -1.40411      0.831049     -0.573064     -0.705673
       273      0.944016      -1.39908      0.826014      -0.57307     -0.680413
       274      0.937444      -1.39332      0.820263     -0.573055      -0.65188
       275      0.929992       -1.3868      0.813743      -0.57306     -0.620013
       276      0.921532      -1.37941      0.806341     -0.573065     -0.584614
       277      0.912019      -1.37109      0.798016     -0.573069     -0.545627
       278       0.90142      -1.36182      0.788743     -0.573072     -0.503053
       279      0.889727      -1.35158      0.778511     -0.573074      -0.45696
       280      0.876953      -1.34041      0.767334     -0.573074       -0.4075
       281      0.863143      -1.32832       0.75525     -0.573072     -0.354926
       282      0.848381       -1.3154      0.742333     -0.573068     -0.299604
       283      0.832835      -1.30183      0.728731     -0.573096     -0.242136
       284      0.816676      -1.28768      0.714592     -0.573086     -0.183036
       285      0.800077      -1.27314      0.700068     -0.573073     -0.123099
       286      0.783306      -1.25845      0.685393     -0.573058    -0.0632447
       287      0.766677      -1.24388      0.670842     -0.573039   -0.00452251
       288      0.750542      -1.22974      0.656724      -0.57302     0.0519125
       289      0.735282      -1.21637      0.643372     -0.572999      0.104835
       290       0.72129      -1.20411      0.631129     -0.572978      0.152993
       291      0.708954      -1.19329      0.620335     -0.572958      0.195169
       292      0.698637      -1.18425      0.611307     -0.572941      0.230238
       293      0.690652      -1.17725       0.60432     -0.572927      0.257233
       294      0.685245      -1.17251       0.59959     -0.572918      0.275406
       295      0.682578      -1.17017      0.597256     -0.572915      0.284277
       296      0.682716      -1.17029      0.597376     -0.572917      0.283668
       297      0.685619      -1.17284      0.599917     -0.572925      0.273721
       298      0.691152       -1.1777      0.604758     -0.572937      0.254887
       299      0.699083      -1.18465      0.611698     -0.572954      0.227906
       300      0.709108      -1.19344      0.620469     -0.572974      0.193757
       301      0.720861      -1.20375      0.630754     -0.572996      0.153604
       302      0.733944      -1.21522      0.642201     -0.573019      0.108733
       303       0.74794      -1.22749      0.654447      -0.57304     0.0604851
       304      0.762438      -1.24019      0.667133     -0.573061     0.0101973
       305      0.777049        -1.253      0.679918     -0.573079     -0.040849
       306      0.791419      -1.26559      0.692492     -0.573095      -0.09147
       307      0.805235      -1.27769      0.704581     -0.573108     -0.140609
       308      0.818235      -1.28907      0.715956     -0.573118     -0.187353
       309      0.830205      -1.29955       0.72643     -0.573125     -0.230943
       310      0.840983      -1.30899       0.73586     -0.573129      -0.27077
       311      0.850448      -1.31727      0.744142     -0.573131     -0.306372
       312      0.858525      -1.32434       0.75121     -0.573131      -0.33742
       313      0.865174      -1.33016      0.757027      -0.57313     -0.363705
       314      0.870384      -1.33471      0.761586     -0.573127     -0.385124
       315      0.874171      -1.33802        0.7649     -0.573123     -0.401665
       316      0.876575      -1.34012      0.767003     -0.573119     -0.413397
       317      0.877651      -1.34106      0.767944     -0.573114     -0.420454
       318      0.877467      -1.34089      0.767784     -0.573108     -0.423025
       319      0.876107       -1.3397      0.766593     -0.573102      -0.42135
       320       0.87366      -1.33755      0.764453     -0.573095     -0.415709
       321      0.870227      -1.33454      0.761449     -0.573089     -0.406418
       322      0.865915      -1.33076      0.757675     -0.573082     -0.393825
       323      0.860835       -1.3263       0.75323     -0.573074     -0.378305
       324      0.855106      -1.32129      0.748218     -0.573067     -0.360258
       325      0.848853      -1.31581      0.742746      -0.57306     -0.340105
       326      0.842202      -1.30998      0.736927     -0.573052     -0.318287
       327      0.835286      -1.30392      0.730875     -0.573044     -0.295255
       328      0.828238      -1.29774      0.724708     -0.573036     -0.271473
       329      0.821192      -1.29157      0.718543     -0.573029     -0.247408
       330      0.814282      -1.28552      0.712497     -0.573021     -0.223523
       331      0.807639       -1.2797      0.706684     -0.573014     -0.200274
       332      0.801389      -1.27422      0.701216     -0.573007     -0.178097
       333       0.79565       -1.2692      0.696194     -0.573001     -0.157404
       334       0.79053      -1.26471      0.691714     -0.572996     -0.138571
       335      0.786123      -1.26085      0.687858     -0.572991     -0.121933
       336       0.78251      -1.25768      0.684696     -0.572988     -0.107772
       337      0.779752      -1.25527      0.682283     -0.572985    -0.0963157
       338      0.777893      -1.25364      0.680657     -0.572984    -0.0877265
       339       0.77705      -1.25291      0.679919     -0.572991     -0.082205
       340      0.777225      -1.25306      0.680072     -0.572992    -0.0797497
       341      0.778308      -1.25401      0.681019     -0.572994    -0.0802457
       342      0.780261      -1.25573      0.682728     -0.572997    -0.0835912
       343       0.78303      -1.25815      0.685151     -0.573001    -0.0896247
       344      0.786755      -1.26148      0.688411     -0.573065    -0.0984262
       345      0.791355      -1.26551      0.692435      -0.57307     -0.109549
       346      0.796522      -1.27003      0.696957     -0.573076     -0.122594
       347      0.802156      -1.27497      0.701887     -0.573082     -0.137233
       348       0.80815      -1.28022      0.707131     -0.573088     -0.153122
       349      0.814393      -1.28569      0.712594     -0.573094     -0.169905
       350      0.820777      -1.29128       0.71818       -0.5731     -0.187223
       351      0.827197       -1.2969      0.723797     -0.573106     -0.204724
       352       0.83355      -1.30247      0.729356     -0.573111     -0.222067
       353       0.83974      -1.30789      0.734773     -0.573116     -0.238929
       354       0.84568      -1.31309       0.73997      -0.57312     -0.255008
       355      0.851289        -1.318      0.744878     -0.573124     -0.270028
       356      0.856496      -1.32256      0.749434     -0.573127     -0.283739
       357      0.861238      -1.32671      0.753583      -0.57313     -0.295923
       358      0.865462      -1.33041       0.75728     -0.573132      -0.30639
       359      0.869125      -1.33362      0.760484     -0.573134      -0.31498
       360       0.87219       -1.3363      0.763166     -0.573135     -0.321566
       361      0.874632      -1.33844      0.765303     -0.573136     -0.326051
       362      0.876433      -1.34002      0.766879     -0.573136     -0.328366
       363      0.877583      -1.34102      0.767885     -0.573136     -0.328473
       364      0.878081      -1.34146      0.768321     -0.573136     -0.326363
       365      0.877934      -1.34133      0.768192     -0.573135     -0.322053
       366      0.877154      -1.34064       0.76751     -0.573134     -0.315589
       367      0.875764      -1.33943      0.766294     -0.573132     -0.307044
       368      0.873793       -1.3377      0.764568      -0.57313     -0.296516
       369      0.871274      -1.33549      0.762365     -0.573127     -0.284127
       370      0.868253      -1.33285      0.759721     -0.573124     -0.270025
       371      0.864776       -1.3298      0.756679     -0.573121      -0.25438
       372        0.8609      -1.32641      0.753288     -0.573118     -0.237382
       373      0.856704      -1.32274      0.749616     -0.573126      -0.21928
       374      0.852255      -1.31884      0.745723     -0.573122     -0.200265
       375      0.847608      -1.31477      0.741657     -0.573117     -0.180584
       376      0.842839       -1.3106      0.737484     -0.573113     -0.160495
       377      0.838126      -1.30649       0.73336     -0.573126     -0.140381
       378      0.833547      -1.30248      0.729354     -0.573122     -0.120443
       379      0.829086      -1.29857       0.72545     -0.573117      -0.10089
       380       0.82482      -1.29483      0.721718     -0.573113    -0.0819844
       381       0.82083      -1.29133      0.718226     -0.573108    -0.0639837
       382      0.817187      -1.28814      0.715039     -0.573104    -0.0471289
       383      0.813962      -1.28532      0.712217     -0.573101    -0.0316419
       384      0.811215      -1.28291      0.709814     -0.573098    -0.0177207
       385      0.809001      -1.28097      0.707876     -0.573095   -0.00553392
       386      0.807362      -1.27953      0.706441     -0.573094    0.00478251
       387      0.806331      -1.27863       0.70554     -0.573092     0.0131293
       388       0.80593      -1.27828      0.705189     -0.573092     0.0194461
       389      0.806168      -1.27849      0.705397     -0.573092     0.0237141
       390      0.807077      -1.27929      0.706192     -0.573099     0.0259102
       391      0.808641      -1.28066      0.707561     -0.573101     0.0261187
       392      0.810796      -1.28255      0.709447     -0.573103     0.0244703
       393      0.813501      -1.28492      0.711814     -0.573106     0.0211104
       394      0.816705      -1.28773      0.714617      -0.57311     0.0162212
       395      0.820346      -1.29092      0.717803     -0.573114     0.0100182
       396      0.824353      -1.29443      0.721309     -0.573119    0.00274716
       397      0.828648      -1.29819      0.725067     -0.573124   -0.00532074
       398      0.833145      -1.30213      0.729001     -0.573129    -0.0138927
       399      0.837753      -1.30617      0.733034     -0.573135    -0.0226589
       400      0.842379      -1.31022      0.737082     -0.573141    -0.0312968
       401      0.846926      -1.31421       0.74106     -0.573147    -0.0394756
       402      0.851293      -1.31803      0.744881     -0.573153    -0.0468602
       403      0.855381      -1.32162      0.748458     -0.573159    -0.0531155
       404      0.859091      -1.32487      0.751704     -0.573165    -0.0579099
       405      0.862325      -1.32771      0.754534     -0.573171    -0.0609191
       406      0.864987      -1.33004      0.756864     -0.573177    -0.0618299
       407      0.866986       -1.3318      0.758612     -0.573183    -0.0603434
       408      0.868232      -1.33289      0.759703     -0.573188    -0.0561792
       409      0.868644      -1.33326      0.760063     -0.573193    -0.0490785
       410      0.868144      -1.33282      0.759626     -0.573198    -0.0388088
       411      0.866664      -1.33153      0.758331     -0.573203     -0.025168
       412      0.864143      -1.32933      0.756125     -0.573207   -0.00798882
       413      0.860532      -1.32618      0.752965      -0.57321     0.0128554
       414      0.855794      -1.32203      0.748819     -0.573213     0.0374457
       415      0.849905      -1.31688      0.743667     -0.573215     0.0658115
       416      0.842859      -1.31072      0.737502     -0.573215     0.0979243
       417      0.834667      -1.30355      0.730334     -0.573215      0.133692
       418      0.825361       -1.2954      0.722191     -0.573214      0.172951
       419      0.814996      -1.28633      0.713121     -0.573211      0.215464
       420      0.803649       -1.2764      0.703193     -0.573207      0.260913
       421      0.791425       -1.2657      0.692497     -0.573201      0.308894
       422      0.778456      -1.25434      0.681149     -0.573194      0.358919
       423        0.7649      -1.24247      0.669288     -0.573185      0.410416
       424      0.750942      -1.23025      0.657074     -0.573174      0.462727
       425      0.736791      -1.21785      0.644692     -0.573163      0.515121
       426       0.72268       -1.2055      0.632345      -0.57315      0.566797
       427      0.708862      -1.19339      0.620254     -0.573136      0.616904
       428        0.6956      -1.18177       0.60865     -0.573122      0.664548
       429      0.683169      -1.17088      0.597773     -0.573107       0.70882
       430      0.671844      -1.16096      0.587863     -0.573093      0.748816
       431      0.661891      -1.15223      0.579155     -0.573079      0.783657
       432      0.653564      -1.14494      0.571869     -0.573067      0.812523
       433      0.647093      -1.13926      0.566207     -0.573056      0.834671
       434      0.642748      -1.13545      0.562404     -0.573047      0.849399
       435      0.640695      -1.13365      0.560609      -0.57304      0.856179
       436      0.640984       -1.1339      0.560861     -0.573037      0.854718
       437      0.643677      -1.13625      0.563218     -0.573036      0.844824
       438      0.648788      -1.14073       0.56769     -0.573038      0.826476
       439      0.656274      -1.14728       0.57424     -0.573043      0.799828
       440      0.666041      -1.15584      0.582786     -0.573051      0.765206
       441      0.677945      -1.16626      0.593202     -0.573061      0.723098
       442      0.691798       -1.1784      0.605323     -0.573073      0.674135
       443      0.707377      -1.19204      0.618955     -0.573087      0.619067
       444      0.724431      -1.20698      0.633877     -0.573101      0.558743
       445      0.742688      -1.22297      0.649852     -0.573116      0.494076
       446      0.761871      -1.23977      0.666637      -0.57313      0.426018
       447      0.781699      -1.25713      0.683986     -0.573144      0.355531
       448      0.801899      -1.27482      0.701662     -0.573157      0.283559
       449      0.822216      -1.29261      0.719439     -0.573169      0.211007
       450      0.842413      -1.31029      0.737111     -0.573179      0.138722
       451      0.862278      -1.32768      0.754493     -0.573188     0.0674824
       452      0.881625      -1.34462      0.771422     -0.573195   -0.00201819
       453      0.900299      -1.36096      0.787762       -0.5732    -0.0691695
       454       0.91817       -1.3766      0.803399     -0.573204     -0.133449
       455      0.935137      -1.39145      0.818245     -0.573206     -0.194417
       456      0.951122      -1.40544      0.832232     -0.573208     -0.251717
       457      0.966071      -1.41852      0.845312     -0.573208     -0.305062
       458      0.979947      -1.43066      0.857453     -0.573207     -0.354235
       459       0.99273      -1.44184      0.868639     -0.573206     -0.399072
       460       1.00442      -1.45207      0.878863     -0.573204     -0.439459
       461       1.01501      -1.46133       0.88813     -0.573202     -0.475322
       462       1.02451      -1.46965      0.896448       -0.5732     -0.506619
       463       1.03295      -1.47703      0.903833     -0.573198     -0.533331
       464       1.04034       -1.4835      0.910301     -0.573196     -0.555459
       465       1.04671      -1.48906      0.915869     -0.573194     -0.573014
       466       1.05206      -1.49375      0.920555     -0.573192     -0.586014
       467       1.05643      -1.49756      0.924373     -0.573191      -0.59448
       468       1.05981      -1.50053      0.927336      -0.57319     -0.598433
       469       1.06223      -1.50264      0.929453      -0.57319     -0.597892
       470       1.06369      -1.50392      0.930729      -0.57319     -0.592869
       471       1.06419      -1.50436      0.931167      -0.57319     -0.583372
       472       1.06373      -1.50395      0.930763     -0.573191     -0.569406
       473        1.0623       -1.5027      0.929511     -0.573192     -0.550966
       474       1.05989       -1.5006      0.927402     -0.573193     -0.528048
       475       1.05648      -1.49762      0.924423     -0.573195     -0.500645
       476       1.05207      -1.49376       0.92056     -0.573197     -0.468749
       477       1.04662        -1.489      0.915797     -0.573199     -0.432359
       478       1.04013      -1.48332      0.910117     -0.573201     -0.391482
       479       1.03258      -1.47671      0.903508     -0.573203     -0.346139
       480       1.02395      -1.46916      0.895958     -0.573205     -0.296368
       481       1.01424      -1.46067      0.887459     -0.573207     -0.242234
       482       1.00344      -1.45122      0.878013     -0.573208     -0.183831
       483      0.991576      -1.44084      0.867629     -0.573208     -0.121294
       484      0.978659      -1.42953      0.856327     -0.573208    -0.0548011
       485       0.96473      -1.41735      0.844139     -0.573207     0.0154163
       486      0.949844      -1.40432      0.831114     -0.573204     0.0890681
       487      0.934076      -1.39052      0.817317     -0.573201        0.1658
       488      0.917523      -1.37603      0.802832     -0.573196      0.245187
       489      0.900303      -1.36095      0.787765      -0.57319      0.326731
       490      0.882559      -1.34542      0.772239     -0.573182      0.409861
       491       0.86446      -1.32958      0.756402     -0.573174      0.493932
       492      0.846194      -1.31358       0.74042     -0.573163      0.578229
       493      0.827975      -1.29763      0.724478     -0.573152      0.661972
       494      0.810031      -1.28192      0.708777      -0.57314      0.744332
       495      0.792609      -1.26666      0.693532     -0.573127      0.824437
       496      0.775962      -1.25208      0.678966     -0.573113      0.901393
       497      0.760349      -1.23841      0.665305       -0.5731      0.974301
       498      0.746025      -1.22586      0.652772     -0.573087       1.04228
       499      0.733235      -1.21466      0.641581     -0.573076       1.10449
       500      0.722206        -1.205       0.63193     -0.573065       1.16015
       501      0.713138      -1.19705      0.623995     -0.573056       1.20858
       502      0.706198      -1.19097      0.617923      -0.57305        1.2492
       503      0.701515      -1.18687      0.613825     -0.573046       1.28156
       504      0.699171      -1.18482      0.611774     -0.573044       1.30537
       505      0.699199      -1.18484      0.611799     -0.573045       1.32048
       506      0.701584      -1.18694      0.613886     -0.573049       1.32693
       507      0.706257      -1.19103      0.617975     -0.573056        1.3249
       508      0.713102      -1.19703      0.623964     -0.573065       1.31475
       509      0.721957      -1.20479      0.631713     -0.573076       1.29698
       510      0.732623      -1.21413      0.641045     -0.573089       1.27221
       511      0.744866      -1.22486      0.651758     -0.573104       1.24119
       512      0.758433      -1.23675      0.663629     -0.573118       1.20473
       513      0.773053      -1.24955      0.676421     -0.573134       1.16372
       514      0.788449      -1.26304      0.689893     -0.573148       1.11906
       515      0.804347      -1.27697      0.703804     -0.573163       1.07165
       516      0.820482       -1.2911      0.717921     -0.573176        1.0224
       517      0.836601      -1.30521      0.732026     -0.573188      0.972165
       518      0.852475      -1.31911      0.745915     -0.573199      0.921743
       519      0.867892      -1.33261      0.759405     -0.573209      0.871878
       520      0.882668      -1.34555      0.772334     -0.573217      0.823239
       521      0.896643      -1.35779      0.784563     -0.573223      0.776417
       522      0.909683       -1.3692      0.795973     -0.573228      0.731927
       523      0.921678       -1.3797      0.806468     -0.573232      0.690205
       524      0.932541      -1.38921      0.815973     -0.573235      0.651611
       525      0.942208      -1.39767      0.824432     -0.573237      0.616429
       526      0.950638      -1.40505      0.831808     -0.573237      0.584871
       527      0.957808      -1.41132      0.838082     -0.573237      0.557078
       528      0.963716      -1.41649      0.843252     -0.573235      0.533124
       529       0.96838      -1.42056      0.847332     -0.573233      0.513013
       530      0.971834      -1.42358      0.850354     -0.573229      0.496686
       531      0.974132      -1.42559      0.852366     -0.573225      0.484017
       532      0.975347      -1.42665      0.853428     -0.573219      0.474819
       533      0.975587      -1.42684      0.853639     -0.573198       0.46885
       534      0.974957      -1.42628      0.853087     -0.573191      0.465761
       535      0.973553      -1.42504      0.851859     -0.573183      0.465244
       536      0.971508      -1.42324      0.850069     -0.573175      0.466902
       537      0.968961      -1.42101      0.847841     -0.573167      0.470303
       538      0.966061      -1.41846      0.845304     -0.573158      0.474992
       539      0.962957      -1.41574      0.842587      -0.57315      0.480502
       540      0.959796      -1.41296      0.839821     -0.573142       0.48637
       541      0.956719      -1.41026      0.837129     -0.573134      0.492147
       542      0.953856      -1.40775      0.834624     -0.573128      0.497416
       543      0.951322      -1.40553      0.832406     -0.573122      0.501803
       544      0.949214      -1.40368      0.830562     -0.573118      0.504986
       545      0.947609      -1.40227      0.829158     -0.573115      0.506706
       546      0.946561      -1.40135      0.828241     -0.573113      0.506767
       547      0.946103      -1.40095       0.82784     -0.573112      0.505039
       548      0.946246      -1.40108      0.827965     -0.573112      0.501458
       549      0.946985      -1.40173      0.828612     -0.573113      0.496016
       550      0.948296      -1.40287      0.829759     -0.573115      0.488756
       551      0.950146       -1.4045      0.831378     -0.573117      0.479759
       552      0.952491      -1.40655       0.83343     -0.573119      0.469136
       553      0.955284      -1.40899      0.835873     -0.573122      0.457018
       554      0.958474      -1.41179      0.838665     -0.573124      0.443545
       555      0.962014      -1.41489      0.841762     -0.573126      0.428858
       556      0.965857      -1.41825      0.845125     -0.573128      0.413097
       557      0.969961      -1.42184      0.848716     -0.573129      0.396394
       558      0.974288      -1.42563      0.852502      -0.57313      0.378878
       559      0.978803      -1.42958      0.856452     -0.573131      0.360666
       560      0.983472      -1.43367      0.860538     -0.573132      0.341878
       561      0.988265      -1.43786      0.864732     -0.573133      0.322631
       562      0.993149      -1.44214      0.869005     -0.573134      0.303044
       563      0.998091      -1.44646       0.87333     -0.573135      0.283247
       564       1.00306      -1.45081      0.877674     -0.573136      0.263376
       565         1.008      -1.45514      0.882003     -0.573138      0.243578
       566       1.01289      -1.45942      0.886281      -0.57314       0.22401
       567       1.01768      -1.46361      0.890469     -0.573141       0.20484
       568       1.02232      -1.46767      0.894526     -0.573143      0.186238
       569       1.02675      -1.47156       0.89841     -0.573145      0.168379
       570       1.03095      -1.47523      0.902081     -0.573147      0.151434
       571       1.03486      -1.47865      0.905499     -0.573149      0.135566
       572       1.03843      -1.48178      0.908629      -0.57315      0.120926
       573       1.04165      -1.48459      0.911441     -0.573151      0.107644
       574       1.04447      -1.48706      0.913911     -0.573152     0.0958318
       575       1.04688      -1.48917      0.916021     -0.573152     0.0855706
       576       1.04887      -1.49091      0.917761     -0.573151     0.0769141
       577       1.05044      -1.49228      0.919132      -0.57315     0.0698844
       578       1.05159      -1.49329      0.920141     -0.573148     0.0644714
       579       1.05235      -1.49395      0.920805     -0.573146      0.060633
       580       1.05274      -1.49429      0.921149     -0.573143     0.0582964
       581       1.05281      -1.49435      0.921206      -0.57314     0.0573598
       582       1.05259      -1.49415      0.921016     -0.573137     0.0576958
       583       1.05214      -1.49376      0.920625     -0.573133     0.0591549
       584       1.05152      -1.49321      0.920084     -0.573129     0.0615695
       585        1.0508      -1.49257      0.919448     -0.573125     0.0647593
       586       1.05003      -1.49189      0.918774      -0.57312     0.0685357
       587       1.04928      -1.49124       0.91812     -0.573116     0.0727077
       588       1.04862      -1.49065      0.917543     -0.573112     0.0770875
       589       1.04811      -1.49021      0.917098     -0.573108     0.0814957
       590       1.04781      -1.48994      0.916837     -0.573105      0.085767
       591       1.04778      -1.48991      0.916808     -0.573102     0.0897554
       592       1.04806      -1.49015       0.91705       -0.5731     0.0933391
       593       1.04868      -1.49069      0.917597     -0.573098     0.0964244
       594       1.04968      -1.49157      0.918474     -0.573097     0.0989502
       595       1.05114      -1.49286       0.91975     -0.573109      0.100812
       596       1.05306      -1.49454      0.921432     -0.573109      0.102068
       597       1.05538      -1.49657      0.923461      -0.57311      0.102806
       598       1.05808      -1.49893      0.925823     -0.573112      0.103122
       599       1.06113      -1.50161      0.928492     -0.573114      0.103148
       600       1.06449      -1.50455      0.931432     -0.573118      0.103062
       601       1.06814      -1.50775      0.934623     -0.573127      0.103038
       602       1.07212      -1.51132      0.938103     -0.573217      0.103101
       603       1.07631      -1.51499      0.941771     -0.573223      0.103867
       604       1.08052      -1.51868      0.945454     -0.573229      0.105625
       605       1.08465       -1.5223      0.949065     -0.573236      0.108736
       606       1.08858      -1.52575      0.952507     -0.573243      0.113593
       607        1.0922      -1.52893      0.955678     -0.573252      0.120614
       608       1.09539      -1.53173      0.958465     -0.573261      0.130247
       609       1.09802      -1.53402      0.960771     -0.573248      0.142971
       610       1.09996      -1.53573      0.962469     -0.573259      0.159205
       611       1.10103      -1.53667        0.9634      -0.57327      0.179516
       612       1.10106      -1.53671      0.963426     -0.573281      0.204426
       613       1.09989      -1.53569      0.962399     -0.573294      0.234463
       614       1.09734      -1.53348       0.96017     -0.573307      0.270159
       615       1.09324       -1.5299      0.956583      -0.57332      0.312043
       616       1.08741      -1.52482      0.951484     -0.573334      0.360629
       617       1.07968      -1.51807      0.944719     -0.573348      0.416407
       618       1.06987       -1.5095      0.936139     -0.573361      0.479825
       619       1.05784      -1.49898      0.925607     -0.573374       0.55127
       620       1.04343      -1.48639      0.913003     -0.573386      0.631043
       621       1.02655      -1.47163      0.898232     -0.573396       0.71933
       622       1.00713      -1.45464      0.881239     -0.573403      0.816158
       623      0.985158      -1.43542      0.862014     -0.573406      0.921362
       624      0.960702      -1.41402      0.840614     -0.573405       1.03453
       625      0.933918      -1.39058      0.817178     -0.573397       1.15495
       626      0.905071      -1.36532      0.791937     -0.573383       1.28157
       627      0.874556       -1.3386      0.765237      -0.57336       1.41293
       628      0.842904      -1.31087      0.737541     -0.573329       1.54719
       629      0.810787      -1.28273      0.709439      -0.57329       1.68204
       630      0.779015      -1.25488      0.681638     -0.573244       1.81481
       631      0.748507      -1.22814      0.654944     -0.573193        1.9425
       632      0.720259      -1.20337      0.630226      -0.57314       2.06191
       633       0.69528      -1.18146       0.60837     -0.573089        2.1698
       634       0.67453      -1.16326      0.590214     -0.573045       2.26314
       635      0.658839      -1.14949      0.576484     -0.573011       2.33925
       636      0.648834      -1.14072       0.56773     -0.572992       2.39613
       637      0.644881      -1.13726      0.564271      -0.57299       2.43254
       638       0.64704      -1.13916       0.56616     -0.573005       2.44818
       639      0.655061      -1.14621      0.573178     -0.573036       2.44368
       640      0.668402      -1.15793      0.584852      -0.57308       2.42056
       641      0.686282      -1.17363      0.600497     -0.573133       2.38109
       642      0.707747      -1.19247      0.619279      -0.57319        2.3281
       643      0.731755      -1.21353      0.640285     -0.573247       2.26469
       644      0.757246      -1.23589      0.662591     -0.573299       2.19407
       645      0.783221      -1.25866      0.685319     -0.573345       2.11933
       646      0.808787      -1.28107      0.707688     -0.573381       2.04325
       647      0.833192      -1.30245      0.729043     -0.573408       1.96826
       648      0.855847      -1.32229      0.748867     -0.573426       1.89631
       649      0.876322      -1.34022      0.766782     -0.573434        1.8289
       650      0.894337      -1.35598      0.782545     -0.573435       1.76708
       651      0.909743      -1.36946      0.796025     -0.573431       1.71153
       652      0.922503      -1.38061      0.807191     -0.573421       1.66258
       653      0.932668      -1.38949      0.816085     -0.573409       1.62028
       654      0.940459      -1.39637      0.822902     -0.573473       1.58425
       655      0.946021      -1.40122      0.827768     -0.573457        1.5545
       656       0.94958      -1.40438      0.830882       -0.5735       1.53033
       657      0.951347      -1.40591      0.832429     -0.573484       1.51144
       658      0.951395      -1.40594       0.83247     -0.573468       1.49734
       659       0.94994      -1.40465      0.831197     -0.573454       1.48746
       660      0.947321      -1.40236      0.828906     -0.573458       1.48108
       661      0.943751      -1.39923      0.825783     -0.573445       1.47768
       662      0.939314      -1.39533        0.8219     -0.573432       1.47678
       663       0.93421      -1.39085      0.817434      -0.57342       1.47783
       664      0.928633      -1.38596      0.812554     -0.573408       1.48026
       665      0.922775      -1.38082      0.807428     -0.573397       1.48354
       666      0.916934      -1.37568      0.802317     -0.573364       1.48706
       667      0.911291      -1.37073      0.797379     -0.573354       1.49023
       668       0.90591      -1.36602      0.792671     -0.573344       1.49268
       669      0.900957      -1.36167      0.788337     -0.573335       1.49394
       670      0.896584      -1.35784      0.784511     -0.573326       1.49357
       671      0.892928      -1.35463      0.781312     -0.573319       1.49116
       672      0.890107      -1.35216      0.778844     -0.573313       1.48638
       673       0.88822       -1.3505      0.777192     -0.573309       1.47895
       674      0.887337      -1.34973       0.77642     -0.573306       1.46866
       675      0.887507      -1.34987      0.776569     -0.573304        1.4554
       676       0.88875      -1.35096      0.777656     -0.573304       1.43912
       677      0.891059      -1.35298      0.779677     -0.573305       1.41984
       678      0.894407      -1.35591      0.782606     -0.573307       1.39767
       679      0.898742      -1.35971      0.786399     -0.573311       1.37278
       680       0.90405       -1.3644      0.791044     -0.573352       1.34528
       681      0.910236      -1.36981      0.796457     -0.573356       1.31559
       682      0.917155      -1.37587       0.80251     -0.573361         1.284
       683      0.924709      -1.38249       0.80912     -0.573366       1.25082
       684      0.932802      -1.38957      0.816202     -0.573371       1.21636
       685      0.941337      -1.39705       0.82367     -0.573376       1.18095
       686      0.950219      -1.40482      0.831441      -0.57338        1.1449
       687      0.959357      -1.41282      0.839437     -0.573384       1.10852
       688      0.968666      -1.42097      0.847583     -0.573388        1.0721
       689      0.978064       -1.4292      0.855806     -0.573392       1.03593
       690      0.987472      -1.43743      0.864038     -0.573395       1.00026
       691      0.996815      -1.44561      0.872213     -0.573398      0.965377
       692       1.00602      -1.45367      0.880268     -0.573402      0.931522
       693       1.01502      -1.46155      0.888141     -0.573405      0.898948
       694       1.02373      -1.46918      0.895768     -0.573409      0.867904
       695        1.0321       -1.4765      0.903089     -0.573412      0.838632
       696       1.04005      -1.48346      0.910041     -0.573415      0.811374
       697        1.0475      -1.48998      0.916565     -0.573419      0.786368
       698        1.0544      -1.49602      0.922599     -0.573422      0.763845
       699       1.06067      -1.50151      0.928083     -0.573426       0.74403
       700       1.06624      -1.50639      0.932962     -0.573429      0.727136
       701       1.07106      -1.51061      0.937181     -0.573432      0.713365
       702       1.07507      -1.51412      0.940687     -0.573435      0.702899
       703       1.07821      -1.51687      0.943436     -0.573437      0.695905
       704       1.08044      -1.51882      0.945384      -0.57344      0.692523
       705       1.08171      -1.51994      0.946495     -0.573442      0.692872
       706       1.08199      -1.52018       0.94674     -0.573443      0.697042
       707       1.08125      -1.51954      0.946095     -0.573445      0.705094
       708       1.07948      -1.51799      0.944544     -0.573445      0.717059
       709       1.07666      -1.51552      0.942076     -0.573446      0.732935
       710       1.07279      -1.51214      0.938691     -0.573446      0.752686
       711       1.06788      -1.50784      0.934395     -0.573446      0.776243
       712       1.06195      -1.50265      0.929202     -0.573445      0.803501
       713       1.05501      -1.49658      0.923135     -0.573444      0.834319
       714       1.04711      -1.48967      0.916224     -0.573442      0.868519
       715        1.0383      -1.48195      0.908509      -0.57344      0.905887
       716       1.02862      -1.47348      0.900039     -0.573437      0.946171
       717       1.01814       -1.4643       0.89087     -0.573433       0.98908
       718       1.00694       -1.4545       0.88107      -0.57343       1.03428
       719      0.995101      -1.44414      0.870714     -0.573425       1.08142
       720      0.982729      -1.43331      0.859888      -0.57342       1.13008
       721      0.969929       -1.4221      0.848688     -0.573415       1.17982
       722       0.95685      -1.41063      0.837244     -0.573387       1.23018
       723      0.943622      -1.39905       0.82567     -0.573381       1.28057
       724      0.930358      -1.38744      0.814064     -0.573373        1.3305
       725      0.917209      -1.37592      0.802558     -0.573365       1.37941
       726      0.904335      -1.36465      0.791293     -0.573357       1.42669
       727      0.891904      -1.35376      0.780416     -0.573348       1.47174
       728      0.880088      -1.34342      0.770077     -0.573339       1.51393
       729      0.869063      -1.33376       0.76043     -0.573331       1.55262
       730      0.859003      -1.32495      0.751627     -0.573322       1.58722
       731      0.850076      -1.31713      0.743817     -0.573313       1.61712
       732      0.842442      -1.31044      0.737137     -0.573306       1.64179
       733      0.836245      -1.30501      0.731714     -0.573299       1.66074
       734      0.831606      -1.30095      0.727655     -0.573294       1.67356
       735      0.828623      -1.29834      0.725046     -0.573291       1.67991
       736      0.827363      -1.29723      0.723943     -0.573289       1.67959
       737      0.827856      -1.29766      0.724374      -0.57329       1.67251
       738      0.830096      -1.29963      0.726334     -0.573292       1.65868
       739      0.834037      -1.30308      0.729782     -0.573297       1.63826
       740      0.839595      -1.30795      0.734646     -0.573304       1.61155
       741      0.846651      -1.31413       0.74082     -0.573312       1.57894
       742      0.855053      -1.32149      0.748172     -0.573322       1.54095
       743      0.864622      -1.32988      0.756544     -0.573332       1.49819
       744      0.875158      -1.33911      0.765764     -0.573344       1.45133
       745       0.88645        -1.349      0.775643     -0.573356       1.40108
       746      0.898277      -1.35936      0.785993     -0.573367       1.34821
       747      0.910424         -1.37      0.796621     -0.573378       1.29345
       748      0.922679      -1.38073      0.807344     -0.573388       1.23755
       749      0.934845      -1.39139      0.817989     -0.573397        1.1812
       750      0.946743       -1.4018        0.8284     -0.573405       1.12506
       751      0.958212      -1.41185      0.838436     -0.573411        1.0697
       752      0.969116      -1.42139      0.847977     -0.573417       1.01566
       753      0.979342      -1.43034      0.856924      -0.57342      0.963378
       754      0.988799      -1.43862      0.865199     -0.573423      0.913225
       755       0.99742      -1.44617      0.872743     -0.573424      0.865503
       756       1.00516      -1.45294      0.879517     -0.573424      0.820439
       757         1.012      -1.45892      0.885498     -0.573423      0.778194
       758       1.01792       -1.4641       0.89068     -0.573421      0.738871
       759       1.02294      -1.46849      0.895072     -0.573418      0.702513
       760       1.02708      -1.47211      0.898694     -0.573415      0.669116
       761       1.03037      -1.47499      0.901575     -0.573411      0.638632
       762       1.03286      -1.47716      0.903754     -0.573407      0.610978
       763        1.0346      -1.47868      0.905279     -0.573403      0.586037
       764       1.03566       -1.4796        0.9062     -0.573398      0.563669
       765       1.03608      -1.47997      0.906572     -0.573394      0.543713
       766       1.03595      -1.47984      0.906453     -0.573389      0.525993
       767       1.03532      -1.47929      0.905903     -0.573384      0.510325
       768       1.03426      -1.47836       0.90498      -0.57338      0.496519
       769       1.03285      -1.47712      0.903743     -0.573376      0.484387
       770       1.03114      -1.47562      0.902246     -0.573372      0.473744
       771       1.02919      -1.47391      0.900543     -0.573368      0.464412
       772       1.02706      -1.47204       0.89868     -0.573365      0.456229
       773       1.02485      -1.47013       0.89674     -0.573394      0.448948
       774       1.02258      -1.46815       0.89476     -0.573392      0.442544
       775       1.02027      -1.46612      0.892734      -0.57339      0.436896
       776       1.01792      -1.46407      0.890683     -0.573388       0.43192
       777       1.01557      -1.46201      0.888625     -0.573388      0.427552
       778       1.01322      -1.45996      0.886568     -0.573388      0.423758
       779       1.01087       -1.4579      0.884512     -0.573388      0.420525
       780       1.00852      -1.45584      0.882452     -0.573389      0.417869
       781       1.00614      -1.45376      0.880373      -0.57339      0.415828
       782       1.00372      -1.45165      0.878256     -0.573392      0.414462
       783       1.00123      -1.44947      0.876074     -0.573394      0.413856
       784      0.998622      -1.44719      0.873794     -0.573397      0.414108
       785      0.995862      -1.44478       0.87138       -0.5734      0.415335
       786      0.992903      -1.44219       0.86879     -0.573403      0.417666
       787      0.989692      -1.43939      0.865981     -0.573406      0.421238
       788      0.986179      -1.43632      0.862906     -0.573409      0.426194
       789      0.982308      -1.43293      0.859519     -0.573413      0.432679
       790      0.978026      -1.42919      0.855773     -0.573416      0.440834
       791      0.973281      -1.42504      0.851621     -0.573419      0.450792
       792      0.968025      -1.42044      0.847022     -0.573422      0.462676
       793      0.962213      -1.41536      0.841936     -0.573425      0.476589
       794      0.955806      -1.40976      0.836331     -0.573427      0.492616
       795      0.948776      -1.40361      0.830179     -0.573429      0.510809
       796      0.941102      -1.39689      0.823464      -0.57343      0.531192
       797      0.932775      -1.38961      0.816178      -0.57343      0.553747
       798      0.923802      -1.38176      0.808327     -0.573429      0.578413
       799      0.914203      -1.37336      0.799928     -0.573427      0.605083
       800      0.904017      -1.36444      0.791015     -0.573425      0.633593
       801      0.893299      -1.35506      0.781637     -0.573421      0.663726
       802      0.882125      -1.34527      0.771859     -0.573415      0.695208
       803      0.870589      -1.33517      0.761766     -0.573409      0.727705
       804      0.858805      -1.32486      0.751455     -0.573402      0.760832
       805      0.846904      -1.31443      0.741041     -0.573394      0.794153
       806      0.835029      -1.30404      0.730651     -0.573385      0.827191
       807      0.823339       -1.2938      0.720421     -0.573376      0.859443
       808      0.811994      -1.28386      0.710495     -0.573366      0.890388
       809      0.801159      -1.27437      0.701014     -0.573357       0.91951
       810      0.790992      -1.26547      0.692118     -0.573349      0.946315
       811      0.781637      -1.25727      0.683933     -0.573341      0.970351
       812      0.773223      -1.24991       0.67657     -0.573335      0.991226
       813      0.765851      -1.24345       0.67012     -0.573331       1.00863
       814      0.759593      -1.23797      0.664644     -0.573329       1.02235
       815      0.754487       -1.2335      0.660176     -0.573328       1.03226
       816      0.750535      -1.23005      0.656718      -0.57333       1.03838
       817      0.747703      -1.22757      0.654241     -0.573334       1.04082
       818      0.745925      -1.22602      0.652684      -0.57334       1.03978
       819        0.7451      -1.22531      0.651962     -0.573347       1.03558
       820      0.745104      -1.22532      0.651966     -0.573355       1.02861
       821      0.745795      -1.22593       0.65257     -0.573365       1.01932
       822      0.747014      -1.22701      0.653638     -0.573374       1.00819
       823      0.748601      -1.22841      0.655026     -0.573383      0.995734
       824      0.750393      -1.22999      0.656594     -0.573392       0.98245
       825      0.752235      -1.23161      0.658205     -0.573401       0.96882
       826      0.753984      -1.23314      0.659736     -0.573408      0.955287
       827      0.755514      -1.23449      0.661075     -0.573415      0.942244
       828      0.756859      -1.23561      0.662252     -0.573359       0.92999
       829      0.757934      -1.23655      0.663192     -0.573362      0.918577
       830      0.758531      -1.23708      0.663715     -0.573365      0.908429
       831       0.75861      -1.23715      0.663784     -0.573366      0.899665
       832       0.75815      -1.23675      0.663381     -0.573367      0.892329
       833      0.757155      -1.23588       0.66251     -0.573366      0.886395
       834      0.755649      -1.23456      0.661193     -0.573363      0.881765
       835      0.753677      -1.23283      0.659467      -0.57336      0.878274
       836      0.751303      -1.23075       0.65739     -0.573356      0.875694
       837      0.748609      -1.22838      0.655033      -0.57335      0.873739
       838      0.745695      -1.22583      0.652483     -0.573344      0.872067
       839      0.742676      -1.22318      0.649842     -0.573337      0.870289
       840       0.73968      -1.22055       0.64722      -0.57333      0.867973
       841      0.736845      -1.21806      0.644739     -0.573322      0.864658
       842      0.734318      -1.21584      0.642528     -0.573313      0.859859
       843      0.732249      -1.21402      0.640718     -0.573305      0.853083
       844      0.730802      -1.21276      0.639452     -0.573307      0.847285
       845       0.73012      -1.21215      0.638855       -0.5733      0.835087
       846       0.73032      -1.21232       0.63903     -0.573293      0.819533
       847      0.731518      -1.21337      0.640078     -0.573287      0.800252
       848      0.733808      -1.21537      0.642082     -0.573283      0.776945
       849      0.737257      -1.21838        0.6451     -0.573281      0.749395
       850      0.741903      -1.22245      0.649165      -0.57328      0.717485
       851      0.747752      -1.22756      0.654283     -0.573282      0.681197
       852      0.754778      -1.23371       0.66043     -0.573285      0.640619
       853      0.762921      -1.24084      0.667556     -0.573289       0.59594
       854      0.772094      -1.24888      0.675582     -0.573295      0.547444
       855      0.782185      -1.25771      0.684412     -0.573302      0.495497
       856      0.793061      -1.26724      0.693928      -0.57331      0.440532
       857      0.804573      -1.27732      0.704001     -0.573318      0.383034
       858      0.816573      -1.28782      0.714501     -0.573322      0.320045
       859      0.828901      -1.29862      0.725288      -0.57333      0.259029
       860      0.841395      -1.30956       0.73622     -0.573338      0.197052
       861      0.853905      -1.32051      0.747167     -0.573345      0.134627
       862      0.866293      -1.33136      0.758006     -0.573351     0.0722353
       863      0.878435      -1.34199      0.768631     -0.573356     0.0103176
       864      0.890224      -1.35231      0.778946      -0.57336    -0.0507305
       865      0.901568      -1.36224      0.788872     -0.573363     -0.110565
       866      0.912395      -1.37171      0.798345     -0.573365     -0.168893
       867      0.922647      -1.38068      0.807317     -0.573366     -0.225475
       868      0.932286      -1.38912       0.81575     -0.573366      -0.28012
       869      0.941285      -1.39699      0.823624     -0.573366     -0.332684
       870      0.949631      -1.40429      0.830927     -0.573365     -0.383065
       871      0.957383      -1.41103       0.83771     -0.573318      -0.43118
       872      0.964549       -1.4173       0.84398     -0.573316     -0.477151
       873      0.971087      -1.42302      0.849702     -0.573314     -0.520841
       874       0.97702       -1.4282      0.854892     -0.573311     -0.562266
       875      0.982372      -1.43288      0.859575     -0.573309     -0.601462
       876      0.987175      -1.43708      0.863778     -0.573306     -0.638478
       877       0.99146      -1.44083      0.867528     -0.573303     -0.673372
       878      0.995262      -1.44415      0.870854       -0.5733     -0.706213
       879      0.998614      -1.44708      0.873787     -0.573298     -0.737071
       880       1.00155      -1.44965      0.876356     -0.573295     -0.766022
       881        1.0041      -1.45188      0.878589     -0.573293      -0.79314
       882        1.0063      -1.45381      0.880515      -0.57329     -0.818501
       883       1.00818      -1.45545      0.882161     -0.573288     -0.842176
       884       1.00977      -1.45684      0.883551     -0.573286     -0.864235
       885        1.0111      -1.45799       0.88471     -0.573284     -0.884745
       886       1.01218      -1.45894      0.885659     -0.573283     -0.903767
       887       1.01305       -1.4597      0.886418     -0.573281     -0.921361
       888       1.01372      -1.46029      0.887007      -0.57328     -0.937579
       889       1.01422      -1.46072      0.887441     -0.573278      -0.95247
       890       1.01456      -1.46101      0.887737     -0.573277     -0.966081
       891       1.01475      -1.46118      0.887908     -0.573276     -0.978449
       892       1.01482      -1.46124      0.887967     -0.573275     -0.989613
       893       1.01477       -1.4612      0.887925     -0.573274     -0.999603
       894       1.01462      -1.46106       0.88779     -0.573274      -1.00845
       895       1.01437      -1.46084      0.887572     -0.573273      -1.01617
       896       1.01403      -1.46055      0.887277     -0.573273       -1.0228
       897       1.01361      -1.46018      0.886912     -0.573272      -1.02834
       898       1.01312      -1.45975      0.886482     -0.573272      -1.03281
       899       1.01256      -1.45926      0.885991     -0.573272      -1.03623
       900       1.01193      -1.45871      0.885442     -0.573271       -1.0386
       901       1.01124      -1.45811      0.884838     -0.573271      -1.03993
       902       1.01049      -1.45745       0.88418     -0.573271      -1.04022
       903       1.00968      -1.45674       0.88347     -0.573271      -1.03948
       904       1.00881      -1.45598      0.882708     -0.573271      -1.03772
       905       1.00788      -1.45516      0.881893     -0.573271      -1.03492
       906       1.00689       -1.4543      0.881026     -0.573271      -1.03109
       907       1.00583      -1.45338      0.880105     -0.573272      -1.02623
       908       1.00472       -1.4524      0.879129     -0.573272      -1.02032
       909       1.00354      -1.45137      0.878095     -0.573272      -1.01338
       910       1.00229      -1.45027      0.877002     -0.573272      -1.00539
       911       1.00097      -1.44912      0.875846     -0.573273     -0.996346
       912      0.999571       -1.4479      0.874624     -0.573273     -0.986243
       913      0.998096      -1.44661      0.873334     -0.573274     -0.975076
       914      0.996539      -1.44525      0.871972     -0.573274     -0.962837
       915      0.994895      -1.44381      0.870533     -0.573274     -0.949519
       916      0.993159      -1.44229      0.869014     -0.573275     -0.935117
       917      0.991327      -1.44069      0.867411     -0.573276     -0.919622
       918      0.989392      -1.43899      0.865718     -0.573276     -0.903029
       919       0.98735      -1.43721      0.863931     -0.573277      -0.88533
       920      0.985195      -1.43532      0.862046     -0.573278      -0.86652
       921      0.982922      -1.43333      0.860056     -0.573278     -0.846591
       922      0.980523      -1.43124      0.857958     -0.573279      -0.82554
       923      0.977993      -1.42902      0.855744      -0.57328      -0.80336
       924      0.975327      -1.42669      0.853411     -0.573281     -0.780049
       925      0.972518      -1.42423      0.850953     -0.573282     -0.755604
       926      0.969561      -1.42165      0.848365     -0.573282     -0.730023
       927      0.966449      -1.41893      0.845643     -0.573283     -0.703308
       928       0.96318      -1.41607      0.842782     -0.573284     -0.675464
       929      0.959748      -1.41306      0.839779     -0.573285     -0.646495
       930      0.956151      -1.40992      0.836632     -0.573286     -0.616414
       931      0.952387      -1.40663      0.833339     -0.573287     -0.585234
       932      0.948455      -1.40319      0.829899     -0.573287     -0.552976
       933      0.944358       -1.3996      0.826313     -0.573288     -0.519663
       934      0.940098      -1.39587      0.822585     -0.573289     -0.485326
       935      0.935679      -1.39201      0.818719     -0.573289     -0.450001
       936      0.931109      -1.38801       0.81472      -0.57329      -0.41373
       937      0.926397      -1.38389      0.810597      -0.57329     -0.376559
       938      0.921552      -1.37965      0.806358     -0.573291      -0.33854
       939      0.916586       -1.3753      0.802013     -0.573291     -0.299726
       940      0.911511      -1.37086      0.797572     -0.573291     -0.260173
       941      0.906338      -1.36634      0.793046     -0.573292     -0.219935
       942      0.901078      -1.36174      0.788443     -0.573293     -0.179061
       943      0.895739      -1.35707      0.783771     -0.573294     -0.137592
       944      0.890325      -1.35233      0.779034     -0.573295    -0.0955585
       945      0.884835      -1.34753      0.774231     -0.573297    -0.0529749
       946      0.879262      -1.34265      0.769354     -0.573299   -0.00983586
       947       0.87359      -1.33769      0.764392     -0.573302     0.0338871
       948      0.867796      -1.33263      0.759322     -0.573306     0.0782487
       949      0.861844      -1.32742      0.754114     -0.573311      0.123332
       950       0.85569      -1.32204      0.748729     -0.573316      0.169248
